"num","domain_name","query_time","create_date","update_date","expiry_date","domain_registrar_id","domain_registrar_name","domain_registrar_whois","domain_registrar_url","registrant_name","registrant_company","registrant_address","registrant_city","registrant_state","registrant_zip","registrant_country","registrant_email","registrant_phone","registrant_fax","administrative_name","administrative_company","administrative_address","administrative_city","administrative_state","administrative_zip","administrative_country","administrative_email","administrative_phone","administrative_fax","technical_name","technical_company","technical_address","technical_city","technical_state","technical_zip","technical_country","technical_email","technical_phone","technical_fax","billing_name","billing_company","billing_address","billing_city","billing_state","billing_zip","billing_country","billing_email","billing_phone","billing_fax","name_server_1","name_server_2","name_server_3","name_server_4","domain_status_1","domain_status_2","domain_status_3","domain_status_4"
"1","anakosh.com","2018-10-15 16:01:57","2018-10-14","2018-10-14","2019-10-14","146","GoDaddy.com, LLC","whois.godaddy.com","http://registrar.godaddy.com","","","","","Pichincha","","Ecuador","","","","","","","","","","","","","","","","","","","","","","","","","","","","","","","","","","ns31.domaincontrol.com","ns32.domaincontrol.com","","","clientDeleteProhibited","clientRenewProhibited","clientTransferProhibited","clientUpdateProhibited"
"2","autostockec.com","2018-10-15 17:15:14","2018-10-14","2018-10-14","2019-10-14","146","GoDaddy.com, LLC","whois.godaddy.com","http://registrar.godaddy.com","","","","","Guayas","","Ecuador","","","","","","","","","","","","","","","","","","","","","","","","","","","","","","","","","","ns69.domaincontrol.com","ns70.domaincontrol.com","","","clientDeleteProhibited","clientRenewProhibited","clientTransferProhibited","clientUpdateProhibited"
"3","bhamara.com","2018-10-15 15:59:21","2018-10-14","2018-10-14","2019-10-14","146","GoDaddy.com, LLC","whois.godaddy.com","http://registrar.godaddy.com","","","","","Pichincha","","Ecuador","","","","","","","","","","","","","","","","","","","","","","","","","","","","","","","","","","ns31.domaincontrol.com","ns32.domaincontrol.com","","","clientDeleteProhibited","clientRenewProhibited","clientTransferProhibited","clientUpdateProhibited"
"4","cafeconmiel.net","2018-10-15 18:12:33","2018-10-14","2018-10-14","2019-10-14","472","Dynadot, LLC","whois.dynadot.com","http://www.dynadot.com","Dina Lopez de Sagredo","","Marianitas","Quito","Pichincha","170201","Ecuador","dsagredo@gmail.com","+593.0983838402","","Dina Lopez de Sagredo","","Marianitas","Quito","Pichincha","170201","Ecuador","dsagredo@gmail.com","+593.0983838402","","Dina Lopez de Sagredo","","Marianitas","Quito","Pichincha","170201","Ecuador","dsagredo@gmail.com","+593.0983838402","","","","","","","","","","","","ns1.dynadot.com","ns2.dynadot.com","","","clientTransferProhibited","","",""
"5","dentaldieguez.com","2018-10-15 16:16:35","2018-10-14","2018-10-14","2020-10-14","146","GoDaddy.com, LLC","whois.godaddy.com","http://registrar.godaddy.com","","","","","azuay","","Ecuador","","","","","","","","","","","","","","","","","","","","","","","","","","","","","","","","","","ns31.domaincontrol.com","ns32.domaincontrol.com","","","clientDeleteProhibited","clientRenewProhibited","clientTransferProhibited","clientUpdateProhibited"
"6","ecualquimia.com","2018-10-15 15:49:38","2018-10-14","2018-10-14","2019-10-14","303","PDR Ltd. d/b/a PublicDomainRegistry.com","whois.publicdomainregistry.com","http://www.publicdomainregistry.com","EVELYN ANDRANGO","","Avenida gran Colombia y Julio Castro","Quito","Pichincha","170136","Ecuador","aidelyn_orion@hotmail.com","+593.593984800308","","EVELYN ANDRANGO","","Avenida gran Colombia y Julio Castro","Quito","Pichincha","170136","Ecuador","aidelyn_orion@hotmail.com","+593.593984800308","","EVELYN ANDRANGO","","Avenida gran Colombia y Julio Castro","Quito","Pichincha","170136","Ecuador","aidelyn_orion@hotmail.com","+593.593984800308","","","","","","","","","","","","ns1.us8.tmd.cloud","ns2.us8.tmd.cloud","","","clientTransferProhibited","","",""
"7","educacionsabia.com","2018-10-15 18:40:57","2018-10-14","2018-10-14","2019-10-14","146","GoDaddy.com, LLC","whois.godaddy.com","http://registrar.godaddy.com","","","","","Pichincha","","Ecuador","","","","","","","","","","","","","","","","","","","","","","","","","","","","","","","","","","ns31.domaincontrol.com","ns32.domaincontrol.com","","","clientDeleteProhibited","clientRenewProhibited","clientTransferProhibited","clientUpdateProhibited"
"8","enamelab.com","2018-10-15 18:33:26","2018-10-14","2018-10-14","2019-10-14","146","GoDaddy.com, LLC","whois.godaddy.com","http://registrar.godaddy.com","","","","","azuay","","Ecuador","","","","","","","","","","","","","","","","","","","","","","","","","","","","","","","","","","ns31.domaincontrol.com","ns32.domaincontrol.com","","","clientDeleteProhibited","clientRenewProhibited","clientTransferProhibited","clientUpdateProhibited"
"9","gallardovargas.com","2018-10-15 16:59:01","2018-10-14","2018-10-15","2019-10-14","1647","Hosting Concepts B.V. dba Openprovider","whois.registrar.eu","http://www.openprovider.com","Eduardo Gallardo","GALLARDO","Guayaquil, Ecuador","Guayaquil","Guayas","090306","Ecuador","info@net-lan.net","+593.593990696449","","Eduardo Gallardo","GALLARDO","Guayaquil, Ecuador","Guayaquil","Guayas","090306","Ecuador","info@net-lan.net","+593.593990696449","","Eduardo Gallardo","GALLARDO","Guayaquil, Ecuador","Guayaquil","Guayas","090306","Ecuador","info@net-lan.net","+593.593990696449","","","","","","","","","","","","ns1.openprovider.nl","ns2.openprovider.be","ns3.openprovider.eu","","clientTransferProhibited","ok","",""
"10","gitecuador.com","2018-10-15 18:38:01","2018-10-15","2018-10-15","2019-10-15","303","PDR Ltd. d/b/a PublicDomainRegistry.com","whois.publicdomainregistry.com","http://www.publicdomainregistry.com","Giovanni Ordonez mancheno","GIT","Isla Baltra 199 y Gral ruminahui","Quito","Pichincha","171102","Ecuador","g_i_o_v@hotmail.com","+593.593984484466","","Giovanni Ordonez mancheno","GIT","Isla Baltra 199 y Gral ruminahui","Quito","Pichincha","171102","Ecuador","g_i_o_v@hotmail.com","+593.593984484466","","Giovanni Ordonez mancheno","GIT","Isla Baltra 199 y Gral ruminahui","Quito","Pichincha","171102","Ecuador","g_i_o_v@hotmail.com","+593.593984484466","","","","","","","","","","","","ns1.host-care.com","ns2.host-care.com","","","clientTransferProhibited","","",""
"11","grupostrateli.com","2018-10-15 17:50:14","2018-10-14","2018-10-14","2019-10-14","303","PDR Ltd. d/b/a PublicDomainRegistry.com","whois.publicdomainregistry.com","http://www.publicdomainregistry.com","BYRON ALBERTO ARCE GUZMAN","COMPUTEGNOLOGY S.A.","Av. Francisco de Orellana - Cdla Alborada 13 ava Etapa Mz.22 Sol ar 5,","GUAYAQUIL","GUAYAS","104740","Ecuador","compteg@compteg.com","+593.46032342","","BYRON ALBERTO ARCE GUZMAN","COMPUTEGNOLOGY S.A.","Av. Francisco de Orellana - Cdla Alborada 13 ava Etapa Mz.22 Sol ar 5,","GUAYAQUIL","GUAYAS","104740","Ecuador","compteg@compteg.com","+593.46032342","","BYRON ALBERTO ARCE GUZMAN","COMPUTEGNOLOGY S.A.","Av. Francisco de Orellana - Cdla Alborada 13 ava Etapa Mz.22 Sol ar 5,","GUAYAQUIL","GUAYAS","104740","Ecuador","compteg@compteg.com","+593.46032342","","","","","","","","","","","","ns14.hostingcolor.com","ns15.hostingcolor.com","ns16.hostingcolor.com","","clientTransferProhibited","","",""
"12","holguinbv.com","2018-10-15 16:07:01","2018-10-14","2018-10-14","2020-10-14","146","GoDaddy.com, LLC","whois.godaddy.com","http://registrar.godaddy.com","","","","","Guayas","","Ecuador","","","","","","","","","","","","","","","","","","","","","","","","","","","","","","","","","","ns31.domaincontrol.com","ns32.domaincontrol.com","","","clientDeleteProhibited","clientRenewProhibited","clientTransferProhibited","clientUpdateProhibited"
"13","ideasquito.net","2018-10-15 17:00:43","2018-10-13","2018-10-13","2019-10-13","146","GoDaddy.com, LLC","whois.godaddy.com","http://registrar.godaddy.com","","","","","MP","","Ecuador","","","","","","","","","","","","","","","","","","","","","","","","","","","","","","","","","","ns1569.websitewelcome.com","ns1570.websitewelcome.com","","","clientDeleteProhibited","clientRenewProhibited","clientTransferProhibited","clientUpdateProhibited"
"14","jnkreativ.com","2018-10-15 17:54:52","2018-10-14","2018-10-14","2019-10-14","146","GoDaddy.com, LLC","whois.godaddy.com","http://registrar.godaddy.com","","","","","Pichincha","","Ecuador","","","","","","","","","","","","","","","","","","","","","","","","","","","","","","","","","","ns69.domaincontrol.com","ns70.domaincontrol.com","","","clientDeleteProhibited","clientRenewProhibited","clientTransferProhibited","clientUpdateProhibited"
"15","lamochilademanche.com","2018-10-15 15:46:48","2018-10-14","2018-10-14","2019-10-14","146","GoDaddy.com, LLC","whois.godaddy.com","http://registrar.godaddy.com","","","","","Pichincha","","Ecuador","","","","","","","","","","","","","","","","","","","","","","","","","","","","","","","","","","ns1.webfaction.com","ns2.webfaction.com","","","clientDeleteProhibited","clientRenewProhibited","clientTransferProhibited","clientUpdateProhibited"
"16","madridmoncayo.com","2018-10-15 17:51:58","2018-10-14","2018-10-14","2020-10-14","146","GoDaddy.com, LLC","whois.godaddy.com","http://registrar.godaddy.com","ADRIANA COBO","ADRIANA COBO","URB RANCHO SAN FRANCISCO CALLE LOS ALPES N.-44","QUITO","","00000","Ecuador","em.uquillas@gmail.com","+593.999626887","","ADRIANA COBO","ADRIANA COBO","URB RANCHO SAN FRANCISCO CALLE LOS ALPES N.-44","QUITO","","00000","Ecuador","em.uquillas@gmail.com","+593.999626887","","ADRIANA COBO","ADRIANA COBO","URB RANCHO SAN FRANCISCO CALLE LOS ALPES N.-44","QUITO","","00000","Ecuador","em.uquillas@gmail.com","+593.999626887","","","","","","","","","","","","ns31.domaincontrol.com","ns32.domaincontrol.com","","","clientDeleteProhibited","clientRenewProhibited","clientTransferProhibited","clientUpdateProhibited"
"17","mampeinmobiliaria.com","2018-10-15 18:04:05","2018-10-14","2018-10-14","2019-10-14","1636","Hostinger, UAB","whois.hostinger.com","http://www.hostinger.com","VILMA JANNETH ABAD ABAD","VILMA JANNETH ABAD ABAD","Calle K y 5ta Transversal  Ejercito 2da Etapa","Quito","Pichincha","170146","Ecuador","mampe6994@gmail.com","+593.987635315","","VILMA JANNETH ABAD ABAD","VILMA JANNETH ABAD ABAD","Calle K y 5ta Transversal  Ejercito 2da Etapa","Quito","Pichincha","170146","Ecuador","mampe6994@gmail.com","+593.987635315","","VILMA JANNETH ABAD ABAD","VILMA JANNETH ABAD ABAD","Calle K y 5ta Transversal  Ejercito 2da Etapa","Quito","Pichincha","170146","Ecuador","mampe6994@gmail.com","+593.987635315","","","","","","","","","","","","hns1.hosting24.com","hns2.hosting24.com","hns3.hosting24.com","hns4.hosting24.com","clientTransferProhibited","","",""
"18","materdm.com","2018-10-15 18:38:50","2018-10-14","2018-10-14","2019-10-14","146","GoDaddy.com, LLC","whois.godaddy.com","http://registrar.godaddy.com","","","","","Los Rios","","Ecuador","","","","","","","","","","","","","","","","","","","","","","","","","","","","","","","","","","ns69.domaincontrol.com","ns70.domaincontrol.com","","","clientDeleteProhibited","clientRenewProhibited","clientTransferProhibited","clientUpdateProhibited"
"19","moncayo-madrid.com","2018-10-15 16:07:21","2018-10-14","2018-10-14","2020-10-14","146","GoDaddy.com, LLC","whois.godaddy.com","http://registrar.godaddy.com","ADRIANA COBO","ADRIANA COBO","URB RANCHO SAN FRANCISCO CALLE LOS ALPES N.-44","QUITO","","00000","Ecuador","em.uquillas@gmail.com","+593.999626887","","ADRIANA COBO","ADRIANA COBO","URB RANCHO SAN FRANCISCO CALLE LOS ALPES N.-44","QUITO","","00000","Ecuador","em.uquillas@gmail.com","+593.999626887","","ADRIANA COBO","ADRIANA COBO","URB RANCHO SAN FRANCISCO CALLE LOS ALPES N.-44","QUITO","","00000","Ecuador","em.uquillas@gmail.com","+593.999626887","","","","","","","","","","","","ns31.domaincontrol.com","ns32.domaincontrol.com","","","clientDeleteProhibited","clientRenewProhibited","clientTransferProhibited","clientUpdateProhibited"
"20","moncayomadrid.com","2018-10-15 16:29:20","2018-10-14","2018-10-14","2020-10-14","146","GoDaddy.com, LLC","whois.godaddy.com","http://registrar.godaddy.com","ADRIANA COBO","ADRIANA COBO","URB RANCHO SAN FRANCISCO CALLE LOS ALPES N.-44","QUITO","","00000","Ecuador","em.uquillas@gmail.com","+593.999626887","","ADRIANA COBO","ADRIANA COBO","URB RANCHO SAN FRANCISCO CALLE LOS ALPES N.-44","QUITO","","00000","Ecuador","em.uquillas@gmail.com","+593.999626887","","ADRIANA COBO","ADRIANA COBO","URB RANCHO SAN FRANCISCO CALLE LOS ALPES N.-44","QUITO","","00000","Ecuador","em.uquillas@gmail.com","+593.999626887","","","","","","","","","","","","ns31.domaincontrol.com","ns32.domaincontrol.com","","","clientDeleteProhibited","clientRenewProhibited","clientTransferProhibited","clientUpdateProhibited"
"21","moncayoshoes.com","2018-10-15 16:51:43","2018-10-14","2018-10-14","2020-10-14","146","GoDaddy.com, LLC","whois.godaddy.com","http://registrar.godaddy.com","ADRIANA COBO","ADRIANA COBO","URB RANCHO SAN FRANCISCO CALLE LOS ALPES N.-44","QUITO","","00000","Ecuador","em.uquillas@gmail.com","+593.999626887","","ADRIANA COBO","ADRIANA COBO","URB RANCHO SAN FRANCISCO CALLE LOS ALPES N.-44","QUITO","","00000","Ecuador","em.uquillas@gmail.com","+593.999626887","","ADRIANA COBO","ADRIANA COBO","URB RANCHO SAN FRANCISCO CALLE LOS ALPES N.-44","QUITO","","00000","Ecuador","em.uquillas@gmail.com","+593.999626887","","","","","","","","","","","","ns31.domaincontrol.com","ns32.domaincontrol.com","","","clientDeleteProhibited","clientRenewProhibited","clientTransferProhibited","clientUpdateProhibited"
"22","paraelgaming.site","2018-10-15 16:04:11","2018-10-14","2018-10-14","2019-10-14","1647","Hosting Concepts B.V. dba Openprovider","whois.registrar.eu","http://www.openprovider.com","","","","","El Oro","","Ecuador","","","","","","","","","","","","","","","","","","","","","","","","","","","","","","","","","","dns1.sered.net","dns2.sered.net","","","addPeriod","clientTransferProhibited","serverTransferProhibited",""
"23","proveinnova.com","2018-10-15 16:08:07","2018-10-14","2018-10-14","2019-10-14","146","GoDaddy.com, LLC","whois.godaddy.com","http://registrar.godaddy.com","","","","","Pichincha","","Ecuador","","","","","","","","","","","","","","","","","","","","","","","","","","","","","","","","","","ns69.domaincontrol.com","ns70.domaincontrol.com","","","clientDeleteProhibited","clientRenewProhibited","clientTransferProhibited","clientUpdateProhibited"
"24","qsp-services.com","2018-10-15 17:00:03","2018-10-14","2018-10-14","2019-10-14","146","GoDaddy.com, LLC","whois.godaddy.com","http://registrar.godaddy.com","","","","","MP","","Ecuador","","","","","","","","","","","","","","","","","","","","","","","","","","","","","","","","","","ns663.websitewelcome.com","ns664.websitewelcome.com","","","clientDeleteProhibited","clientRenewProhibited","clientTransferProhibited","clientUpdateProhibited"
"25","quimcass.com","2018-10-15 15:55:32","2018-10-14","2018-10-14","2019-10-14","2","Network Solutions, LLC","whois.networksolutions.com","http://networksolutions.com","Rafael Cassis","","Guayaquil","Guayaquil","","090150","Ecuador","quimcass.com@wix-domains.com","+1.4159496022","","Rafael Cassis","","Guayaquil","Guayaquil","","090150","Ecuador","quimcass.com@wix-domains.com","+1.4159496022","","Rafael Cassis","","Guayaquil","Guayaquil","","090150","Ecuador","quimcass.com@wix-domains.com","+1.4159496022","","","","","","","","","","","","ns8.wixdns.net","ns9.wixdns.net","","","clientTransferProhibited","","",""
"26","sinaibusinessgroup.com","2018-10-15 17:50:21","2018-10-14","2018-10-14","2019-10-14","303","PDR Ltd. d/b/a PublicDomainRegistry.com","whois.publicdomainregistry.com","http://www.publicdomainregistry.com","Frejus K Dossou","","Av.occidental conjunto Terrasol 0","Quito","Pichincha","108853","Ecuador","frejusd83@yahoo.com","+593.997205299","","Frejus K Dossou","","Av.occidental conjunto Terrasol 0","Quito","Pichincha","108853","Ecuador","frejusd83@yahoo.com","+593.997205299","","Frejus K Dossou","","Av.occidental conjunto Terrasol 0","Quito","Pichincha","108853","Ecuador","frejusd83@yahoo.com","+593.997205299","","","","","","","","","","","","ns14.hostingcolor.com","ns15.hostingcolor.com","ns16.hostingcolor.com","","clientTransferProhibited","","",""
"27","smassonline.com","2018-10-15 16:13:17","2018-10-14","2018-10-14","2019-10-14","146","GoDaddy.com, LLC","whois.godaddy.com","http://registrar.godaddy.com","","","","","Guayas","","Ecuador","","","","","","","","","","","","","","","","","","","","","","","","","","","","","","","","","","ns31.domaincontrol.com","ns32.domaincontrol.com","","","clientDeleteProhibited","clientRenewProhibited","clientTransferProhibited","clientUpdateProhibited"
"28","tastyecuatoriano.com","2018-10-15 18:00:22","2018-10-14","2018-10-14","2020-10-14","146","GoDaddy.com, LLC","whois.godaddy.com","http://registrar.godaddy.com","german aguilar","kabala entertainment","isabel la catolica n24-100","Quito","Select State/Province","12345","Ecuador","gaguilar@viptv.ec","+593.22542609","","german aguilar","kabala entertainment","isabel la catolica n24-100","Quito","Select State/Province","12345","Ecuador","gaguilar@viptv.ec","+593.22542609","","german aguilar","kabala entertainment","isabel la catolica n24-100","Quito","Select State/Province","12345","Ecuador","gaguilar@viptv.ec","+593.22542609","","german aguilar","kabala entertainment","isabel la catolica n24-100","Quito","Select State/Province","12345","Ecuador","gaguilar@viptv.ec","+593.22542609","","ns31.domaincontrol.com","ns32.domaincontrol.com","","","clientDeleteProhibited","clientRenewProhibited","clientTransferProhibited","clientUpdateProhibited"
"29","verollagunoec.com","2018-10-15 16:32:17","2018-10-14","2018-10-14","2019-10-14","146","GoDaddy.com, LLC","whois.godaddy.com","http://registrar.godaddy.com","","","","","Guayas","","Ecuador","","","","","","","","","","","","","","","","","","","","","","","","","","","","","","","","","","ns31.domaincontrol.com","ns32.domaincontrol.com","","","OK","","",""
"30","vigorov.com","2018-10-15 16:51:33","2018-10-14","2018-10-14","2019-10-14","146","GoDaddy.com, LLC","whois.godaddy.com","http://registrar.godaddy.com","","","","","Pichincha","","Ecuador","","","","","","","","","","","","","","","","","","","","","","","","","","","","","","","","","","ns31.domaincontrol.com","ns32.domaincontrol.com","","","clientDeleteProhibited","clientRenewProhibited","clientTransferProhibited","clientUpdateProhibited"
"31","wildpuyo.com","2018-10-15 16:17:31","2018-10-14","2018-10-14","2019-10-14","1636","Hostinger, UAB","whois.hostinger.com","http://www.hostinger.com","Andres Hidalgo Lopez","Andres Hidalgo Lopez","Cooperativa Eloy Alfaro","Puyo","Pastaza","160150","Ecuador","guandy@gmail.com","+593.979377735","","Andres Hidalgo Lopez","Andres Hidalgo Lopez","Cooperativa Eloy Alfaro","Puyo","Pastaza","160150","Ecuador","guandy@gmail.com","+593.979377735","","Andres Hidalgo Lopez","Andres Hidalgo Lopez","Cooperativa Eloy Alfaro","Puyo","Pastaza","160150","Ecuador","guandy@gmail.com","+593.979377735","","","","","","","","","","","","ns1.hostinger.es","ns2.hostinger.es","ns3.hostinger.es","ns4.hostinger.es","clientTransferProhibited","","",""