"num","domain_name","query_time","create_date","update_date","expiry_date","domain_registrar_id","domain_registrar_name","domain_registrar_whois","domain_registrar_url","registrant_name","registrant_company","registrant_address","registrant_city","registrant_state","registrant_zip","registrant_country","registrant_email","registrant_phone","registrant_fax","administrative_name","administrative_company","administrative_address","administrative_city","administrative_state","administrative_zip","administrative_country","administrative_email","administrative_phone","administrative_fax","technical_name","technical_company","technical_address","technical_city","technical_state","technical_zip","technical_country","technical_email","technical_phone","technical_fax","billing_name","billing_company","billing_address","billing_city","billing_state","billing_zip","billing_country","billing_email","billing_phone","billing_fax","name_server_1","name_server_2","name_server_3","name_server_4","domain_status_1","domain_status_2","domain_status_3","domain_status_4"
"1","al-ali.site","2018-10-15 18:40:35","2018-10-14","2018-10-14","2019-10-14","1636","Hostinger, UAB","whois.hostinger.com","http://www.hostinger.com","ly dnan","ly dnan","","","iraq/albasra/alshir","","Iraq","","","","","","","","","","","","","","","","","","","","","","","","","","","","","","","","","","ns1.hostinger.ae","ns2.hostinger.ae","ns3.hostinger.ae","ns4.hostinger.ae","addPeriod","clientTransferProhibited","serverTransferProhibited",""
"2","consultants-ma.com","2018-10-15 17:36:04","2018-10-14","2018-10-14","2019-10-14","146","GoDaddy.com, LLC","whois.godaddy.com","http://registrar.godaddy.com","","","","","sulaimani","","Iraq","","","","","","","","","","","","","","","","","","","","","","","","","","","","","","","","","","ns69.domaincontrol.com","ns70.domaincontrol.com","","","clientDeleteProhibited","clientRenewProhibited","clientTransferProhibited","clientUpdateProhibited"
"3","cosert-group.com","2018-10-15 18:00:17","2018-10-14","2018-10-14","2019-10-14","303","PDR Ltd. d/b/a PublicDomainRegistry.com","whois.publicdomainregistry.com","http://www.publicdomainregistry.com","ALSCO Today","ALSCO Software","Baghdad Tower Street-ALSCO Building","Baghdad","Baghdad","10001","Iraq","alscotoday@alscosoftware.com","+964.7712996570","","ALSCO Today","ALSCO Software","Baghdad Tower Street-ALSCO Building","Baghdad","Baghdad","10001","Iraq","alscotoday@alscosoftware.com","+964.7712996570","","ALSCO Today","ALSCO Software","Baghdad Tower Street-ALSCO Building","Baghdad","Baghdad","10001","Iraq","alscotoday@alscosoftware.com","+964.7712996570","","","","","","","","","","","","ns1.alscocloud.net","ns2.alscocloud.net","","","clientTransferProhibited","","",""
"4","ertaco.com","2018-10-15 18:00:19","2018-10-14","2018-10-14","2019-10-14","625","Name.com, Inc.","whois.name.com","http://www.name.com","MISBAR TECH","ALMISBAR TECH LTD.","Al-Sina'a St, Baghdad, Iraq","Baghdad","Karadah","00964","Iraq","info@misbarcom.com","+964.7813655996","","MISBAR TECH","ALMISBAR TECH LTD.","Al-Sina'a St, Baghdad, Iraq","Baghdad","Karadah","00964","Iraq","info@misbarcom.com","+964.7813655996","","MISBAR TECH","ALMISBAR TECH LTD.","Al-Sina'a St, Baghdad, Iraq","Baghdad","Karadah","00964","Iraq","info@misbarcom.com","+964.7813655996","","","","","","","","","","","","ns1.pearhosting.net","ns2.pearhosting.net","","","addPeriod","clientTransferProhibited","",""
"5","neolivo.com","2018-10-15 18:39:04","2018-10-14","2018-10-14","2019-10-14","146","GoDaddy.com, LLC","whois.godaddy.com","http://registrar.godaddy.com","","","","","Kurdistan","","Iraq","","","","","","","","","","","","","","","","","","","","","","","","","","","","","","","","","","ns69.domaincontrol.com","ns70.domaincontrol.com","","","clientDeleteProhibited","clientRenewProhibited","clientTransferProhibited","clientUpdateProhibited"
"6","typicalrealityco.com","2018-10-15 16:08:15","2018-10-14","2018-10-14","2019-10-14","146","GoDaddy.com, LLC","whois.godaddy.com","http://registrar.godaddy.com","","","","","Erbil","","Iraq","","","","","","","","","","","","","","","","","","","","","","","","","","","","","","","","","","ns69.domaincontrol.com","ns70.domaincontrol.com","","","clientDeleteProhibited","clientRenewProhibited","clientTransferProhibited","clientUpdateProhibited"
"7","ugatellc.com","2018-10-15 16:32:49","2018-10-14","2018-10-14","2019-10-14","146","GoDaddy.com, LLC","whois.godaddy.com","http://registrar.godaddy.com","","","","","IQ","","Iraq","","","","","","","","","","","","","","","","","","","","","","","","","","","","","","","","","","ns69.domaincontrol.com","ns70.domaincontrol.com","","","clientDeleteProhibited","clientRenewProhibited","clientTransferProhibited","clientUpdateProhibited"