"num","domain_name","query_time","create_date","update_date","expiry_date","domain_registrar_id","domain_registrar_name","domain_registrar_whois","domain_registrar_url","registrant_name","registrant_company","registrant_address","registrant_city","registrant_state","registrant_zip","registrant_country","registrant_email","registrant_phone","registrant_fax","administrative_name","administrative_company","administrative_address","administrative_city","administrative_state","administrative_zip","administrative_country","administrative_email","administrative_phone","administrative_fax","technical_name","technical_company","technical_address","technical_city","technical_state","technical_zip","technical_country","technical_email","technical_phone","technical_fax","billing_name","billing_company","billing_address","billing_city","billing_state","billing_zip","billing_country","billing_email","billing_phone","billing_fax","name_server_1","name_server_2","name_server_3","name_server_4","domain_status_1","domain_status_2","domain_status_3","domain_status_4"
"1","aabiiss.com","2018-10-15 16:57:32","2018-10-14","2018-10-14","2019-10-14","146","GoDaddy.com, LLC","whois.godaddy.com","http://registrar.godaddy.com","","","","","Nairobi","","Kenya","","","","","","","","","","","","","","","","","","","","","","","","","","","","","","","","","","ns69.domaincontrol.com","ns70.domaincontrol.com","","","clientDeleteProhibited","clientRenewProhibited","clientTransferProhibited","clientUpdateProhibited"
"2","africa7s.com","2018-10-15 18:07:11","2018-10-14","2018-10-14","2019-10-14","440","Wild West Domains, LLC","whois.wildwestdomains.com","http://www.wildwestdomains.com","","","","","Nairobi","","Kenya","","","","","","","","","","","","","","","","","","","","","","","","","","","","","","","","","","ns69.domaincontrol.com","ns70.domaincontrol.com","","","clientDeleteProhibited","clientRenewProhibited","clientTransferProhibited","clientUpdateProhibited"
"3","bluepixelsystems.com","2018-10-15 16:32:47","2018-10-14","2018-10-14","2019-10-14","146","GoDaddy.com, LLC","whois.godaddy.com","http://registrar.godaddy.com","","","","","Nairobi","","Kenya","","","","","","","","","","","","","","","","","","","","","","","","","","","","","","","","","","ns31.domaincontrol.com","ns32.domaincontrol.com","","","clientDeleteProhibited","clientRenewProhibited","clientTransferProhibited","clientUpdateProhibited"
"4","chiliscuisine.com","2018-10-15 17:36:10","2018-10-14","2018-10-14","2019-10-14","303","PDR Ltd. d/b/a PublicDomainRegistry.com","whois.publicdomainregistry.com","http://www.publicdomainregistry.com","Omar Sheikh","","P.O Box 35048","Nairobi","Nairobi","00200","Kenya","osheikhiz@gmail.com","+254.254717233007","","Omar Sheikh","","P.O Box 35048","Nairobi","Nairobi","00200","Kenya","osheikhiz@gmail.com","+254.254717233007","","Omar Sheikh","","P.O Box 35048","Nairobi","Nairobi","00200","Kenya","osheikhiz@gmail.com","+254.254717233007","","","","","","","","","","","","ns351.kenyawebexperts.com","ns352.kenyawebexperts.com","","","clientTransferProhibited","","",""
"5","cornholekenya.com","2018-10-15 16:39:07","2018-10-14","2018-10-14","2019-10-14","146","GoDaddy.com, LLC","whois.godaddy.com","http://registrar.godaddy.com","","","","","Kenya","","Kenya","","","","","","","","","","","","","","","","","","","","","","","","","","","","","","","","","","ns69.domaincontrol.com","ns70.domaincontrol.com","","","clientDeleteProhibited","clientRenewProhibited","clientTransferProhibited","clientUpdateProhibited"
"6","cradle.biz","2018-10-15 15:55:19","2018-10-11","2018-10-11","2019-10-11","440","Wild West Domains, LLC","whois.wildwestdomains.com","http://www.wildwestdomains.com","Agiza Limited","Agiza Limited","74930","Nairobi","Nairobi","254","Kenya","jrugambi@yahoo.com","+254.720573178","","Agiza Limited","Agiza Limited","74930","Nairobi","Nairobi","254","Kenya","jrugambi@yahoo.com","+254.720573178","","Agiza Limited","Agiza Limited","74930","Nairobi","Nairobi","254","Kenya","jrugambi@yahoo.com","+254.720573178","","Agiza Limited","Agiza Limited","74930","Nairobi","Nairobi","254","Kenya","jrugambi@yahoo.com","+254.720573178","","ns1.informationcradle.com","ns2.informationcradle.com","","","addPeriod","clientDeleteProhibited","clientRenewProhibited","clientTransferProhibited"
"7","dablibs254.com","2018-10-15 16:01:56","2018-10-14","2018-10-14","2019-10-14","9","register.com, Inc.","whois.register.com","http://www.register.com","Duncan Libabu","Duncan Libabu","Nairobi","Nairobi","NAIROBI","00100","Kenya","dancunlibabu@gmail.com","+254.254702326460","","Duncan Libabu","Duncan Libabu","Nairobi","Nairobi","NAIROBI","00100","Kenya","dancunlibabu@gmail.com","+254.254702326460","","Duncan Libabu","Duncan Libabu","Nairobi","Nairobi","NAIROBI","00100","Kenya","dancunlibabu@gmail.com","+254.254702326460","","","","","","","","","","","","dns1.registeredsite.com","dns2.registeredsite.com","dns3.registeredsite.com","","clientTransferProhibited","","",""
"8","daiichihotels-ke.com","2018-10-15 17:32:47","2018-10-14","2018-10-14","2019-10-14","955","Launchpad, Inc.","whois.launchpad.com","http://www.launchpad.com","mhando brian","Braive Creative","75882","Nairobi","110","00200","Kenya","mhandobrian@live.com","+254.737506777","","mhando brian","Braive Creative","75882","Nairobi","110","00200","Kenya","mhandobrian@live.com","+254.737506777","","mhando brian","Braive Creative","75882","Nairobi","110","00200","Kenya","mhandobrian@live.com","+254.737506777","","","","","","","","","","","","ns1.hostgator.com","ns2.hostgator.com","","","clientTransferProhibited","","",""
"9","dianidishes.com","2018-10-15 17:52:04","2018-10-14","2018-10-14","2019-10-14","303","PDR Ltd. d/b/a PublicDomainRegistry.com","whois.publicdomainregistry.com","http://www.publicdomainregistry.com","Esther Gachara","Impetus Trading","9753 GPO","Nairobi","Nairobi","00100","Kenya","egachara@gmail.com","+254.732897057","","DEEPAFRICA LIMITED","DEEPAFRICA.COM","72740","NAIROBI","NAIROBI","00200","Kenya","mydomain@deepafrica.com","+254.712500500","","DEEPAFRICA LIMITED","DEEPAFRICA.COM","72740","NAIROBI","NAIROBI","00200","Kenya","mydomain@deepafrica.com","+254.712500500","","","","","","","","","","","","ns720.deepafrica.com","ns721.deepafrica.com","","","clientTransferProhibited","","",""
"10","freelancerworldwide.club","2018-10-15 17:57:58","2018-10-14","2018-10-14","2019-10-14","146","GoDaddy.com, LLC","whois.godaddy.com","http://registrar.godaddy.com","freelancerworldwide","freelancerworldwide","","","Nairobi","","Kenya","","","","","","","","","","","","","","","","","","","","","","","","","","","","","","","","","","ns31.domaincontrol.com","ns32.domaincontrol.com","","","addPeriod","clientDeleteProhibited","clientRenewProhibited","clientTransferProhibited"
"11","horntranslators.com","2018-10-15 16:34:35","2018-10-14","2018-10-14","2019-10-14","303","PDR Ltd. d/b/a PublicDomainRegistry.com","whois.publicdomainregistry.com","http://www.publicdomainregistry.com","VINCENT NJUNGE","HORNTRANSLATORS","eastleigh","nairobi","nairobi","00100","Kenya","vkabashe@gmail.com","+254.0715261672","","VINCENT NJUNGE","HORNTRANSLATORS","eastleigh","nairobi","nairobi","00100","Kenya","vkabashe@gmail.com","+254.0715261672","","VINCENT NJUNGE","HORNTRANSLATORS","eastleigh","nairobi","nairobi","00100","Kenya","vkabashe@gmail.com","+254.0715261672","","","","","","","","","","","","ns351.kenyawebexperts.com","ns352.kenyawebexperts.com","","","clientTransferProhibited","","",""
"12","investidigital.com","2018-10-15 16:07:48","2018-10-14","2018-10-14","2019-10-14","9","register.com, Inc.","whois.register.com","http://www.register.com","Vivek Chohan","Vivek Chohan","Kenya","Mombasa","MOMBASA","80100","Kenya","viveksonlinejobs2@gmail.com","+254.254773383382","","Vivek Chohan","Vivek Chohan","Kenya","Mombasa","MOMBASA","80100","Kenya","viveksonlinejobs2@gmail.com","+254.254773383382","","Vivek Chohan","Vivek Chohan","Kenya","Mombasa","MOMBASA","80100","Kenya","viveksonlinejobs2@gmail.com","+254.254773383382","","","","","","","","","","","","dns1.registeredsite.com","dns2.registeredsite.com","dns3.registeredsite.com","","clientTransferProhibited","","",""
"13","kennedymusyoka.com","2018-10-15 16:19:57","2018-10-15","2018-10-15","2019-10-15","303","PDR Ltd. d/b/a PublicDomainRegistry.com","whois.publicdomainregistry.com","http://www.publicdomainregistry.com","Guyo Adhi","","P.O Box 76624- 00508 0","Nairobi","Nairobi","00508","Kenya","guyoh.gg@gmail.com","+254.0701928662","","Domain Administrator","Webhost Kenya Ltd","P.O.Box 1175 Gemina Court","Nairobi","Nairobi","00606","Kenya","registry@webhostkenya.co.ke","+254.254728787401","","Domain Administrator","Webhost Kenya Ltd","P.O.Box 1175 Gemina Court","Nairobi","Nairobi","00606","Kenya","registry@webhostkenya.co.ke","+254.254728787401","","","","","","","","","","","","ns3.webhostkenya.co.ke","ns4.webhostkenya.co.ke","ns6157.hostgator.com","ns6158.hostgator.com","clientTransferProhibited","","",""
"14","kenyaniyetusoteforum.com","2018-10-15 18:29:49","2018-10-14","2018-10-14","2019-10-14","1154","FastDomain Inc.","whois.fastdomain.com","http://www.fastdomain.com","BERNARD WAORE","ARISEONLINE LTD","P.O. BOX 83092","MOMBASA","","80100","Kenya","waorebernard@gmail.com","+254.723233556","","BERNARD WAORE","ARISEONLINE LTD","P.O. BOX 83092","MOMBASA","","80100","Kenya","waorebernard@gmail.com","+254.723233556","","BLUEHOST INC","BLUEHOST.COM","550 E TIMPANOGOS PKWY","OREM","UTAH","84097","United States","whois@bluehost.com","+1.8017659400","+1.8017651992","","","","","","","","","","","ns1.bluehost.com","ns2.bluehost.com","","","clientTransferProhibited","","",""
"15","lorrainemarketing.com","2018-10-15 15:59:26","2018-10-14","2018-10-14","2019-10-14","9","register.com, Inc.","whois.register.com","http://www.register.com","Lorraine Mugasia","The Sweet Dollar","Muigai Impala Lane. P.O.BOX 106099","Nairobi","NAIROBI","00101","Kenya","mugasia.lorraine@gmail.com","+254.254720619114","","Lorraine Mugasia","The Sweet Dollar","Muigai Impala Lane. P.O.BOX 106099","Nairobi","NAIROBI","00101","Kenya","mugasia.lorraine@gmail.com","+254.254720619114","","Lorraine Mugasia","The Sweet Dollar","Muigai Impala Lane. P.O.BOX 106099","Nairobi","NAIROBI","00101","Kenya","mugasia.lorraine@gmail.com","+254.254720619114","","","","","","","","","","","","dns1.registeredsite.com","dns2.registeredsite.com","dns3.registeredsite.com","","clientTransferProhibited","","",""
"16","multigibbs.com","2018-10-15 17:05:25","2018-10-14","2018-10-14","2019-10-14","303","PDR Ltd. d/b/a PublicDomainRegistry.com","whois.publicdomainregistry.com","http://www.publicdomainregistry.com","oliver amutai","Comcare Systems","2079","Bungoma","Bungoma","50200","Kenya","oliveramtai@gmail.com","+254.705518605","","oliver amutai","Comcare Systems","2079","Bungoma","Bungoma","50200","Kenya","oliveramtai@gmail.com","+254.705518605","","oliver amutai","Comcare Systems","2079","Bungoma","Bungoma","50200","Kenya","oliveramtai@gmail.com","+254.705518605","","","","","","","","","","","","ns351.kenyawebexperts.com","ns352.kenyawebexperts.com","","","clientTransferProhibited","","",""
"17","sokoswift.com","2018-10-15 17:32:24","2018-10-14","2018-10-14","2019-10-14","625","Name.com, Inc.","whois.name.com","http://www.name.com","Declan Magero","","54472","Nairobi","Nairobi","00200","Kenya","declanmagero@gmail.com","+254.732636652","","Declan Magero","","54472","Nairobi","Nairobi","00200","Kenya","declanmagero@gmail.com","+254.732636652","","Declan Magero","","54472","Nairobi","Nairobi","00200","Kenya","declanmagero@gmail.com","+254.732636652","","","","","","","","","","","","ns1cwy.name.com","ns2fgv.name.com","ns3flt.name.com","ns4dmx.name.com","addPeriod","clientTransferProhibited","",""
"18","sps-sportsoft.com","2018-10-15 17:33:49","2018-10-14","2018-10-14","2023-10-14","146","GoDaddy.com, LLC","whois.godaddy.com","http://registrar.godaddy.com","Gene Grand","Pevans E.A. LTD","Nyaku House, Arwings Kodhek Rd Hurlingham","Nairobi","Nairobi","38477","Kenya","gene.grand@sportpesa.com","+254.709079079","","Gene Grand","Pevans E.A. LTD","Nyaku House, Arwings Kodhek Rd Hurlingham","Nairobi","Nairobi","38477","Kenya","gene.grand@sportpesa.com","+254.709079079","","Gene Grand","Pevans E.A. LTD","Nyaku House, Arwings Kodhek Rd Hurlingham","Nairobi","Nairobi","38477","Kenya","gene.grand@sportpesa.com","+254.709079079","","","","","","","","","","","","ns69.domaincontrol.com","ns70.domaincontrol.com","","","clientDeleteProhibited","clientRenewProhibited","clientTransferProhibited","clientUpdateProhibited"
"19","sps-sportsoft.net","2018-10-15 17:51:39","2018-10-14","2018-10-14","2023-10-14","146","GoDaddy.com, LLC","whois.godaddy.com","http://registrar.godaddy.com","Gene Grand","Pevans E.A. LTD","Nyaku House, Arwings Kodhek Rd Hurlingham","Nairobi","Nairobi","38477","Kenya","gene.grand@sportpesa.com","+254.709079079","","Gene Grand","Pevans E.A. LTD","Nyaku House, Arwings Kodhek Rd Hurlingham","Nairobi","Nairobi","38477","Kenya","gene.grand@sportpesa.com","+254.709079079","","Gene Grand","Pevans E.A. LTD","Nyaku House, Arwings Kodhek Rd Hurlingham","Nairobi","Nairobi","38477","Kenya","gene.grand@sportpesa.com","+254.709079079","","","","","","","","","","","","ns69.domaincontrol.com","ns70.domaincontrol.com","","","clientDeleteProhibited","clientRenewProhibited","clientTransferProhibited","clientUpdateProhibited"
"20","stanhustle.com","2018-10-15 17:51:41","2018-10-14","2018-10-14","2019-10-14","9","register.com, Inc.","whois.register.com","http://www.register.com","Stanley Njogu","Stanley Njogu","34, Kianyaga","Nairobi","CENTRAL","10301","Kenya","njogu.stanley@yahoo.com","+254.713795532","","Stanley Njogu","Stanley Njogu","34, Kianyaga","Nairobi","CENTRAL","10301","Kenya","njogu.stanley@yahoo.com","+254.713795532","","Stanley Njogu","Stanley Njogu","34, Kianyaga","Nairobi","CENTRAL","10301","Kenya","njogu.stanley@yahoo.com","+254.713795532","","","","","","","","","","","","dns1.registeredsite.com","dns2.registeredsite.com","dns3.registeredsite.com","","clientTransferProhibited","","",""
"21","statismark.com","2018-10-15 15:55:52","2018-10-15","2018-10-15","2019-10-15","303","PDR Ltd. d/b/a PublicDomainRegistry.com","whois.publicdomainregistry.com","http://www.publicdomainregistry.com","Paul Ndung'u","Statismark","moi street 4549","Eldoret","Eldoret","30100","Kenya","statismark@gmail.com","+254.0717166919","","Paul Ndung'u","Statismark","moi street 4549","Eldoret","Eldoret","30100","Kenya","statismark@gmail.com","+254.0717166919","","Paul Ndung'u","Statismark","moi street 4549","Eldoret","Eldoret","30100","Kenya","statismark@gmail.com","+254.0717166919","","","","","","","","","","","","ns1.eacdirectory.org","ns2.eacdirectory.org","","","clientTransferProhibited","","",""
"22","successwithmsama.com","2018-10-15 16:51:22","2018-10-14","2018-10-14","2019-10-14","440","Wild West Domains, LLC","whois.wildwestdomains.com","http://www.wildwestdomains.com","","","","","Kitengela","","Kenya","","","","","","","","","","","","","","","","","","","","","","","","","","","","","","","","","","ns1.pluginprofithosting.com","ns2.pluginprofithosting.com","","","clientDeleteProhibited","clientRenewProhibited","clientTransferProhibited","clientUpdateProhibited"
"23","topunideals.com","2018-10-15 15:46:45","2018-10-14","2018-10-14","2019-10-14","303","PDR Ltd. d/b/a PublicDomainRegistry.com","whois.publicdomainregistry.com","http://www.publicdomainregistry.com","Godfrey Gwako","GodfreyGwako","2956","Kisii","Kisii","40200","Kenya","kijanawamsituni@gmail.com","+254.0727547709","","Godfrey Gwako","GodfreyGwako","2956","Kisii","Kisii","40200","Kenya","kijanawamsituni@gmail.com","+254.0727547709","","Godfrey Gwako","GodfreyGwako","2956","Kisii","Kisii","40200","Kenya","kijanawamsituni@gmail.com","+254.0727547709","","","","","","","","","","","","dns2014a.trouble-free.net","dns2014b.trouble-free.net","","","clientTransferProhibited","","",""
"24","trendsmartshop.com","2018-10-15 16:53:49","2018-10-14","2018-10-14","2019-10-14","146","GoDaddy.com, LLC","whois.godaddy.com","http://registrar.godaddy.com","","","","","Nairobi","","Kenya","","","","","","","","","","","","","","","","","","","","","","","","","","","","","","","","","","ns31.domaincontrol.com","ns32.domaincontrol.com","","","clientDeleteProhibited","clientRenewProhibited","clientTransferProhibited","clientUpdateProhibited"
"25","yahude.com","2018-10-15 17:07:55","2018-10-14","2018-10-14","2019-10-14","303","PDR Ltd. d/b/a PublicDomainRegistry.com","whois.publicdomainregistry.com","http://www.publicdomainregistry.com","simon Atem","","19313-20100","Nairobi","Nairobi","00100","Kenya","simonthuchatem@gmail.com","+254.0721414757","","simon Atem","","19313-20100","Nairobi","Nairobi","00100","Kenya","simonthuchatem@gmail.com","+254.0721414757","","simon Atem","","19313-20100","Nairobi","Nairobi","00100","Kenya","simonthuchatem@gmail.com","+254.0721414757","","","","","","","","","","","","ns351.kenyawebexperts.com","ns352.kenyawebexperts.com","","","clientTransferProhibited","","",""