"num","domain_name","query_time","create_date","update_date","expiry_date","domain_registrar_id","domain_registrar_name","domain_registrar_whois","domain_registrar_url","registrant_name","registrant_company","registrant_address","registrant_city","registrant_state","registrant_zip","registrant_country","registrant_email","registrant_phone","registrant_fax","administrative_name","administrative_company","administrative_address","administrative_city","administrative_state","administrative_zip","administrative_country","administrative_email","administrative_phone","administrative_fax","technical_name","technical_company","technical_address","technical_city","technical_state","technical_zip","technical_country","technical_email","technical_phone","technical_fax","billing_name","billing_company","billing_address","billing_city","billing_state","billing_zip","billing_country","billing_email","billing_phone","billing_fax","name_server_1","name_server_2","name_server_3","name_server_4","domain_status_1","domain_status_2","domain_status_3","domain_status_4"
"1","aliselectronics.com","2018-10-15 16:13:22","2018-10-14","2018-10-14","2019-10-14","146","GoDaddy.com, LLC","whois.godaddy.com","http://registrar.godaddy.com","","","","","Beirut Governorate","","Lebanon","","","","","","","","","","","","","","","","","","","","","","","","","","","","","","","","","","ns69.domaincontrol.com","ns70.domaincontrol.com","","","clientDeleteProhibited","clientRenewProhibited","clientTransferProhibited","clientUpdateProhibited"
"2","aromaverda.com","2018-10-15 16:29:34","2018-10-14","2018-10-14","2019-10-14","146","GoDaddy.com, LLC","whois.godaddy.com","http://registrar.godaddy.com","hussein alkhansa","creative4all","ghobire","beirut","jabal lebanon","961","Lebanon","husseingraphic@hotmail.com","+961.70885385","","hussein alkhansa","creative4all","ghobire","beirut","jabal lebanon","961","Lebanon","husseingraphic@hotmail.com","+961.70885385","","hussein alkhansa","creative4all","ghobire","beirut","jabal lebanon","961","Lebanon","husseingraphic@hotmail.com","+961.70885385","","","","","","","","","","","","ns5.creative4all.com","ns6.creative4all.com","","","clientDeleteProhibited","clientRenewProhibited","clientTransferProhibited","clientUpdateProhibited"
"3","awaitedmillennials.com","2018-10-15 17:30:56","2018-10-14","2018-10-14","2019-10-14","955","Launchpad, Inc.","whois.launchpad.com","http://www.launchpad.com","Awaited Millennials","None","Hamad street","beirut","BA","0000","Lebanon","awaitedmillennials@gmail.com","+961.71582857","","Awaited Millennials","None","Hamad street","beirut","BA","0000","Lebanon","awaitedmillennials@gmail.com","+961.71582857","","Awaited Millennials","None","Hamad street","beirut","BA","0000","Lebanon","awaitedmillennials@gmail.com","+961.71582857","","","","","","","","","","","","ns8601.hostgator.com","ns8602.hostgator.com","","","clientTransferProhibited","","",""
"4","byblosprefabhouses.com","2018-10-15 18:00:49","2018-10-14","2018-10-14","2019-10-14","146","GoDaddy.com, LLC","whois.godaddy.com","http://registrar.godaddy.com","Michelle Ayoub","BUSCUBE","Beirut","Ashrafieh","N/A","11-00","Lebanon","michelle.ayoub@hotmail.com","+961.70303006","+961.1681999","Michelle Ayoub","BUSCUBE","Beirut","Ashrafieh","N/A","11-00","Lebanon","michelle.ayoub@hotmail.com","+961.70303006","+961.1681999","Michelle Ayoub","BUSCUBE","Beirut","Ashrafieh","N/A","11-00","Lebanon","michelle.ayoub@hotmail.com","+961.70303006","+961.1681999","","","","","","","","","","","ns31.domaincontrol.com","ns32.domaincontrol.com","","","clientDeleteProhibited","clientRenewProhibited","clientTransferProhibited","clientUpdateProhibited"
"5","dfcouncil.com","2018-10-15 15:53:33","2018-10-14","2018-10-14","2019-10-14","146","GoDaddy.com, LLC","whois.godaddy.com","http://registrar.godaddy.com","","","","","North Lebanon","","Lebanon","","","","","","","","","","","","","","","","","","","","","","","","","","","","","","","","","","ns69.domaincontrol.com","ns70.domaincontrol.com","","","clientDeleteProhibited","clientRenewProhibited","clientTransferProhibited","clientUpdateProhibited"
"6","dockspiers.com","2018-10-15 17:17:45","2018-10-14","2018-10-14","2019-10-14","146","GoDaddy.com, LLC","whois.godaddy.com","http://registrar.godaddy.com","","","","","beirut","","Lebanon","","","","","","","","","","","","","","","","","","","","","","","","","","","","","","","","","","ns31.domaincontrol.com","ns32.domaincontrol.com","","","clientDeleteProhibited","clientRenewProhibited","clientTransferProhibited","clientUpdateProhibited"
"7","elqarar.com","2018-10-15 18:08:58","2018-10-14","2018-10-14","2028-10-14","146","GoDaddy.com, LLC","whois.godaddy.com","http://registrar.godaddy.com","","","","","Lebanon","","Lebanon","","","","","","","","","","","","","","","","","","","","","","","","","","","","","","","","","","ns31.domaincontrol.com","ns32.domaincontrol.com","","","clientDeleteProhibited","clientRenewProhibited","clientTransferProhibited","clientUpdateProhibited"
"8","freshmilk.amsterdam","2018-10-15 18:00:18","2018-10-14","2018-10-14","2019-10-14","146","GoDaddy.com, LLC","whois.godaddy.com","http://registrar.godaddy.com","Ghassan Nejmeh","","Centre Dagher Gemmayze","Beirut","","20383054","Lebanon","ghassan73@gmail.com","+961.76029951","","Ghassan Nejmeh","","Centre Dagher Gemmayze","Beirut","","20383054","Lebanon","ghassan73@gmail.com","+961.76029951","","Ghassan Nejmeh","","Centre Dagher Gemmayze","Beirut","","20383054","Lebanon","ghassan73@gmail.com","+961.76029951","","","","","","","","","","","","ns69.domaincontrol.com","ns70.domaincontrol.com","","","clientDeleteProhibited","clientRenewProhibited","clientTransferProhibited","clientUpdateProhibited"
"9","goppro.net","2018-10-15 17:21:40","2018-10-14","2018-10-14","2019-10-14","146","GoDaddy.com, LLC","whois.godaddy.com","http://registrar.godaddy.com","Joe Chahoud","Xenosol","Beirut","Beirut","Beirut","00961","Lebanon","info@xenosol.com","+961.70294835","","Joe Chahoud","Xenosol","Beirut","Beirut","Beirut","00961","Lebanon","info@xenosol.com","+961.70294835","","Joe Chahoud","Xenosol","Beirut","Beirut","Beirut","00961","Lebanon","info@xenosol.com","+961.70294835","","","","","","","","","","","","ns69.domaincontrol.com","ns70.domaincontrol.com","","","clientDeleteProhibited","clientRenewProhibited","clientTransferProhibited","clientUpdateProhibited"
"10","h2go.mobi","2018-10-15 16:53:31","2018-10-14","2018-10-14","2019-10-14","146","GoDaddy.com, LLC","whois.godaddy.com","http://registrar.godaddy.com","","","","","beirut","","Lebanon","","","","","","","","","","","","","","","","","","","","","","","","","","","","","","","","","","ns31.domaincontrol.com","ns32.domaincontrol.com","","","addPeriod","clientDeleteProhibited","clientRenewProhibited","clientTransferProhibited"
"11","hawsharcell.com","2018-10-15 17:05:12","2018-10-14","2018-10-14","2019-10-14","2","Network Solutions, LLC","whois.networksolutions.com","http://networksolutions.com","rafik hawshar","hawshar cell","syr lebanon","meniha aldenniha","","1305","Lebanon","joinerblackdiamond@gmail.com","+961.71555523","","rafik hawshar","hawshar cell","syr lebanon","meniha aldenniha","","1305","Lebanon","hawsharcell.com@wix-domains.com","+1.4159496022","","rafik hawshar","hawshar cell","syr lebanon","meniha aldenniha","","1305","Lebanon","hawsharcell.com@wix-domains.com","+1.4159496022","","","","","","","","","","","","ns0.wixdns.net","ns1.wixdns.net","","","clientTransferProhibited","","",""
"12","helixmedicalcenter.com","2018-10-15 17:11:49","2018-10-14","2018-10-14","2019-10-14","146","GoDaddy.com, LLC","whois.godaddy.com","http://registrar.godaddy.com","","","","","","","Lebanon","","","","","","","","","","","","","","","","","","","","","","","","","","","","","","","","","","ns31.domaincontrol.com","ns32.domaincontrol.com","","","clientDeleteProhibited","clientRenewProhibited","clientTransferProhibited","clientUpdateProhibited"
"13","highluxrealestate.com","2018-10-15 17:10:57","2018-10-14","2018-10-14","2019-10-14","146","GoDaddy.com, LLC","whois.godaddy.com","http://registrar.godaddy.com","","","","","","","Lebanon","","","","","","","","","","","","","","","","","","","","","","","","","","","","","","","","","","ns31.domaincontrol.com","ns32.domaincontrol.com","","","clientDeleteProhibited","clientRenewProhibited","clientTransferProhibited","clientUpdateProhibited"
"14","kfitnesslb.com","2018-10-15 18:08:33","2018-10-14","2018-10-14","2019-10-14","146","GoDaddy.com, LLC","whois.godaddy.com","http://registrar.godaddy.com","Khalil Msann","msannco","beit el chaare","Beirut","","961","Lebanon","ptitcheflb.com@wix-domains.com","+1.4159496022","","Khalil Msann","msannco","beit el chaare","Beirut","","961","Lebanon","ptitcheflb.com@wix-domains.com","+1.4159496022","","Khalil Msann","msannco","beit el chaare","Beirut","","961","Lebanon","ptitcheflb.com@wix-domains.com","+1.4159496022","","","","","","","","","","","","ns69.domaincontrol.com","ns70.domaincontrol.com","","","clientDeleteProhibited","clientRenewProhibited","clientTransferProhibited","clientUpdateProhibited"
"15","learningoutlier.com","2018-10-15 16:47:26","2018-10-14","2018-10-14","2019-10-14","146","GoDaddy.com, LLC","whois.godaddy.com","http://registrar.godaddy.com","","","","","","","Lebanon","","","","","","","","","","","","","","","","","","","","","","","","","","","","","","","","","","ns69.domaincontrol.com","ns70.domaincontrol.com","","","clientDeleteProhibited","clientRenewProhibited","clientTransferProhibited","clientUpdateProhibited"
"16","learningoutliers.com","2018-10-15 18:29:11","2018-10-14","2018-10-14","2019-10-14","146","GoDaddy.com, LLC","whois.godaddy.com","http://registrar.godaddy.com","","","","","","","Lebanon","","","","","","","","","","","","","","","","","","","","","","","","","","","","","","","","","","ns69.domaincontrol.com","ns70.domaincontrol.com","","","clientDeleteProhibited","clientRenewProhibited","clientTransferProhibited","clientUpdateProhibited"
"17","lebaneselung.com","2018-10-15 17:42:07","2018-10-14","2018-10-14","2019-10-14","146","GoDaddy.com, LLC","whois.godaddy.com","http://registrar.godaddy.com","","","","","beirut","","Lebanon","","","","","","","","","","","","","","","","","","","","","","","","","","","","","","","","","","ns69.domaincontrol.com","ns70.domaincontrol.com","","","clientDeleteProhibited","clientRenewProhibited","clientTransferProhibited","clientUpdateProhibited"
"18","marlenesaide.com","2018-10-15 18:25:59","2018-10-14","2018-10-14","2019-10-14","303","PDR Ltd. d/b/a PublicDomainRegistry.com","whois.publicdomainregistry.com","http://www.publicdomainregistry.com","Mohammed Bakhash","iworqs","206 Saed Frayha, Ground Floor 0","Hazmiyeh","LB","1112","Lebanon","info@iworqs.com","+961.3818147","","Mohammed Bakhash","iworqs","206 Saed Frayha, Ground Floor 0","Hazmiyeh","LB","1112","Lebanon","info@iworqs.com","+961.3818147","","Mohammed Bakhash","iworqs","206 Saed Frayha, Ground Floor 0","Hazmiyeh","LB","1112","Lebanon","info@iworqs.com","+961.3818147","","","","","","","","","","","","ns1.ifastnet17.org","ns2.ifastnet17.org","","","clientTransferProhibited","","",""
"19","mmatindustial.com","2018-10-15 18:12:24","2018-10-14","2018-10-14","2019-10-14","146","GoDaddy.com, LLC","whois.godaddy.com","http://registrar.godaddy.com","hussein alkhansa","creative4all","ghobire","beirut","jabal lebanon","961","Lebanon","husseingraphic@hotmail.com","+961.70885385","","hussein alkhansa","creative4all","ghobire","beirut","jabal lebanon","961","Lebanon","husseingraphic@hotmail.com","+961.70885385","","hussein alkhansa","creative4all","ghobire","beirut","jabal lebanon","961","Lebanon","husseingraphic@hotmail.com","+961.70885385","","","","","","","","","","","","ns5.creative4all.com","ns6.creative4all.com","","","clientDeleteProhibited","clientRenewProhibited","clientTransferProhibited","clientUpdateProhibited"
"20","picotechbrains.com","2018-10-15 17:02:21","2018-10-14","2018-10-14","2019-10-14","146","GoDaddy.com, LLC","whois.godaddy.com","http://registrar.godaddy.com","","","","","tayrdeba","","Lebanon","","","","","","","","","","","","","","","","","","","","","","","","","","","","","","","","","","ns6565.hostgator.com","ns6566.hostgator.com","","","clientDeleteProhibited","clientRenewProhibited","clientTransferProhibited","clientUpdateProhibited"
"21","pmcs-cyprus.com","2018-10-15 16:23:43","2018-10-14","2018-10-14","2019-10-14","146","GoDaddy.com, LLC","whois.godaddy.com","http://registrar.godaddy.com","Mohamed Hassan","SYSCOM Technologies SARL","3rd Floor, Assaf Center, Verdun Street Verdun","Beirut","NA","NA","Lebanon","info@lebindex.com","+961.3014038","+961.1380407","Mohamed Hassan","SYSCOM Technologies SARL","3rd Floor, Assaf Center, Verdun Street Verdun","Beirut","NA","NA","Lebanon","info@lebindex.com","+961.3014038","+961.1380407","Mohamed Hassan","SYSCOM Technologies SARL","3rd Floor, Assaf Center, Verdun Street Verdun","Beirut","NA","NA","Lebanon","info@lebindex.com","+961.3014038","+961.1380407","","","","","","","","","","","ns31.domaincontrol.com","ns32.domaincontrol.com","","","clientDeleteProhibited","clientRenewProhibited","clientTransferProhibited","clientUpdateProhibited"
"22","printz.services","2018-10-15 18:15:24","2018-10-14","2018-10-14","2019-10-14","440","Wild West Domains, LLC","whois.wildwestdomains.com","http://www.wildwestdomains.com","REDACTED FOR PRIVACY","","REDACTED FOR PRIVACY","REDACTED FOR PRIVACY","","REDACTED FOR PRIVACY","Lebanon","","REDACTED FOR PRIVACY","REDACTED FOR PRIVACY","","","","","","","","","","","","","","","","","","","","","","","","","","","","","","","","","","","addPeriod","clientDeleteProhibited","clientRenewProhibited","clientTransferProhibited"
"23","rbxcenter.info","2018-10-15 17:21:28","2018-10-14","2018-10-14","2019-10-14","146","GoDaddy.com, LLC","whois.godaddy.com","http://registrar.godaddy.com","","","","","Adonis","","Lebanon","","","","","","","","","","","","","","","","","","","","","","","","","","","","","","","","","","ns69.domaincontrol.com","ns70.domaincontrol.com","","","addPeriod","clientDeleteProhibited","clientRenewProhibited","clientTransferProhibited"
"24","shady-mobi.com","2018-10-15 17:39:50","2018-10-14","2018-10-14","2019-10-14","9","register.com, Inc.","whois.register.com","http://www.register.com","MOUAYED KHALAF","MOUAYED KHALAF","Bourj Hammoud","bourj hammoud","MOUNT LEBANON","1203","Lebanon","mk.moayad@gmail.com","+961.71832491","","MOUAYED KHALAF","MOUAYED KHALAF","Bourj Hammoud","bourj hammoud","MOUNT LEBANON","1203","Lebanon","mk.moayad@gmail.com","+961.71832491","","MOUAYED KHALAF","MOUAYED KHALAF","Bourj Hammoud","bourj hammoud","MOUNT LEBANON","1203","Lebanon","mk.moayad@gmail.com","+961.71832491","","","","","","","","","","","","dns1.registeredsite.com","dns2.registeredsite.com","dns3.registeredsite.com","","clientTransferProhibited","","",""
"25","studio18architects.com","2018-10-15 18:36:13","2018-10-14","2018-10-14","2020-10-14","146","GoDaddy.com, LLC","whois.godaddy.com","http://registrar.godaddy.com","","","","","Achrafieh","","Lebanon","","","","","","","","","","","","","","","","","","","","","","","","","","","","","","","","","","ns31.domaincontrol.com","ns32.domaincontrol.com","","","clientDeleteProhibited","clientRenewProhibited","clientTransferProhibited","clientUpdateProhibited"
"26","sushiwaw.com","2018-10-15 17:09:33","2018-10-14","2018-10-14","2019-10-14","1154","FastDomain Inc.","whois.fastdomain.com","http://www.fastdomain.com","MAROUN MILAN","","SED EL BAUCHREIH","ST JEAN STREET","","1001","Lebanon","info@businessmondo.com","+961.71023809","","MAROUN MILAN","","SED EL BAUCHREIH","ST JEAN STREET","","1001","Lebanon","info@businessmondo.com","+961.71023809","","BLUEHOST INC","BLUEHOST.COM","550 E TIMPANOGOS PKWY","OREM","UTAH","84097","United States","whois@bluehost.com","+1.8017659400","+1.8017651992","","","","","","","","","","","ns1.bluehost.com","ns2.bluehost.com","","","clientTransferProhibited","","",""
"27","thebraceletland.com","2018-10-15 16:01:46","2018-10-14","2018-10-14","2019-10-14","146","GoDaddy.com, LLC","whois.godaddy.com","http://registrar.godaddy.com","","","","","Metn","","Lebanon","","","","","","","","","","","","","","","","","","","","","","","","","","","","","","","","","","ns69.domaincontrol.com","ns70.domaincontrol.com","","","clientDeleteProhibited","clientRenewProhibited","clientTransferProhibited","clientUpdateProhibited"
"28","ultimatemodels.net","2018-10-15 18:09:43","2018-10-14","2018-10-14","2019-10-14","146","GoDaddy.com, LLC","whois.godaddy.com","http://registrar.godaddy.com","Chehadi Inc.","Chehadi Inc.","","","Mount Lebanon","","Lebanon","","","","","","","","","","","","","","","","","","","","","","","","","","","","","","","","","","ns69.domaincontrol.com","ns70.domaincontrol.com","","","clientDeleteProhibited","clientRenewProhibited","clientTransferProhibited","clientUpdateProhibited"