"num","domain_name","query_time","create_date","update_date","expiry_date","domain_registrar_id","domain_registrar_name","domain_registrar_whois","domain_registrar_url","registrant_name","registrant_company","registrant_address","registrant_city","registrant_state","registrant_zip","registrant_country","registrant_email","registrant_phone","registrant_fax","administrative_name","administrative_company","administrative_address","administrative_city","administrative_state","administrative_zip","administrative_country","administrative_email","administrative_phone","administrative_fax","technical_name","technical_company","technical_address","technical_city","technical_state","technical_zip","technical_country","technical_email","technical_phone","technical_fax","billing_name","billing_company","billing_address","billing_city","billing_state","billing_zip","billing_country","billing_email","billing_phone","billing_fax","name_server_1","name_server_2","name_server_3","name_server_4","domain_status_1","domain_status_2","domain_status_3","domain_status_4"
"1","bettinginsiders24.com","2018-10-15 16:44:41","2018-10-14","2018-10-14","2019-10-14","955","Launchpad, Inc.","whois.launchpad.com","http://www.launchpad.com","Stanko Dimoski","None","Ivo Lola Ribar 7","Makedonski Brod","52","6530","Macedonia","dimoskirab@yahoo.com","+389.71260471","","Stanko Dimoski","None","Ivo Lola Ribar 7","Makedonski Brod","52","6530","Macedonia","dimoskirab@yahoo.com","+389.71260471","","Stanko Dimoski","None","Ivo Lola Ribar 7","Makedonski Brod","52","6530","Macedonia","dimoskirab@yahoo.com","+389.71260471","","","","","","","","","","","","ns8277.hostgator.com","ns8278.hostgator.com","","","clientTransferProhibited","","",""
"2","clickbuyme.com","2018-10-15 18:15:08","2018-10-14","2018-10-14","2020-10-14","146","GoDaddy.com, LLC","whois.godaddy.com","http://registrar.godaddy.com","","","","","Macedonia","","Macedonia","","","","","","","","","","","","","","","","","","","","","","","","","","","","","","","","","","ns31.domaincontrol.com","ns32.domaincontrol.com","","","clientDeleteProhibited","clientRenewProhibited","clientTransferProhibited","clientUpdateProhibited"
"3","expandtheview.club","2018-10-15 18:16:06","2018-10-14","2018-10-14","2019-10-14","146","GoDaddy.com, LLC","whois.godaddy.com","http://registrar.godaddy.com","","","","","","","Macedonia","","","","","","","","","","","","","","","","","","","","","","","","","","","","","","","","","","ns1.hostinger.com","ns2.hostinger.com","","","addPeriod","clientDeleteProhibited","clientRenewProhibited","clientTransferProhibited"
"4","gentlemen-advertising.com","2018-10-15 17:48:15","2018-10-15","2018-10-15","2019-10-14","168","Register.it SPA","whois.register.it","http://we.register.it","Ilhan Mani","Gentlemen","Old bazaar , Skopje","Skopje","MK","1000","Macedonia","info@ilhanmani.com","+389.78200707","","Ilhan Mani","Gentlemen","Old bazaar , Skopje","Skopje","MK","1000","Macedonia","info@ilhanmani.com","+389.78200707","","Ilhan Mani","Gentlemen","Old bazaar , Skopje","Skopje","MK","1000","Macedonia","info@ilhanmani.com","+389.78200707","","","","","","","","","","","","ns1.amenworld.com","ns2.amenworld.com","","","OK","","",""
"5","gentlemenadvertising.com","2018-10-15 18:33:26","2018-10-15","2018-10-15","2019-10-14","168","Register.it SPA","whois.register.it","http://we.register.it","Ilhan Mani","Gentlemen","Old bazaar , Skopje","Skopje","MK","1000","Macedonia","info@ilhanmani.com","+389.78200707","","Ilhan Mani","Gentlemen","Old bazaar , Skopje","Skopje","MK","1000","Macedonia","info@ilhanmani.com","+389.78200707","","Ilhan Mani","Gentlemen","Old bazaar , Skopje","Skopje","MK","1000","Macedonia","info@ilhanmani.com","+389.78200707","","","","","","","","","","","","ns1.amenworld.com","ns2.amenworld.com","","","OK","","",""
"6","getthenews.online","2018-10-15 17:10:49","2018-10-14","2018-10-14","2019-10-14","146","GoDaddy.com, LLC","whois.godaddy.com","http://registrar.godaddy.com","","","","","Veles","","Macedonia","","","","","","","","","","","","","","","","","","","","","","","","","","","","","","","","","","ns1.hostinger.com","ns2.hostinger.com","","","addPeriod","clientDeleteProhibited","clientRenewProhibited","clientTransferProhibited"
"7","matches365.com","2018-10-15 16:20:32","2018-10-14","2018-10-14","2019-10-14","955","Launchpad, Inc.","whois.launchpad.com","http://www.launchpad.com","Stanko Dimoski","None","Ivo Lola Ribar 7","Makedonski Brod","52","6530","Macedonia","dimoskirab@yahoo.com","+389.71260471","","Stanko Dimoski","None","Ivo Lola Ribar 7","Makedonski Brod","52","6530","Macedonia","dimoskirab@yahoo.com","+389.71260471","","Stanko Dimoski","None","Ivo Lola Ribar 7","Makedonski Brod","52","6530","Macedonia","dimoskirab@yahoo.com","+389.71260471","","","","","","","","","","","","ns8277.hostgator.com","ns8278.hostgator.com","","","clientTransferProhibited","","",""
"8","sunakombi.com","2018-10-15 17:39:42","2018-10-14","2018-10-14","2019-10-14","625","Name.com, Inc.","whois.name.com","http://www.name.com","Kiril Jordanoski","KIRIL","marko nestoroski 210","Ohrid","Ohrid","046","Macedonia","kiril_jordanoski@yahoo.com","+389.71811873","","Kiril Jordanoski","KIRIL","marko nestoroski 210","Ohrid","Ohrid","046","Macedonia","kiril_jordanoski@yahoo.com","+389.71811873","","Kiril Jordanoski","KIRIL","marko nestoroski 210","Ohrid","Ohrid","046","Macedonia","kiril_jordanoski@yahoo.com","+389.71811873","","","","","","","","","","","","dns6.mk-host4.com","dns7.mk-host4.com","","","addPeriod","clientTransferProhibited","",""