"num","domain_name","query_time","create_date","update_date","expiry_date","domain_registrar_id","domain_registrar_name","domain_registrar_whois","domain_registrar_url","registrant_name","registrant_company","registrant_address","registrant_city","registrant_state","registrant_zip","registrant_country","registrant_email","registrant_phone","registrant_fax","administrative_name","administrative_company","administrative_address","administrative_city","administrative_state","administrative_zip","administrative_country","administrative_email","administrative_phone","administrative_fax","technical_name","technical_company","technical_address","technical_city","technical_state","technical_zip","technical_country","technical_email","technical_phone","technical_fax","billing_name","billing_company","billing_address","billing_city","billing_state","billing_zip","billing_country","billing_email","billing_phone","billing_fax","name_server_1","name_server_2","name_server_3","name_server_4","domain_status_1","domain_status_2","domain_status_3","domain_status_4"
"1","aparsuramen.com","2018-10-15 17:44:32","2018-10-14","2018-10-14","2019-10-14","146","GoDaddy.com, LLC","whois.godaddy.com","http://registrar.godaddy.com","","","","","Pereybere","","Mauritius","","","","","","","","","","","","","","","","","","","","","","","","","","","","","","","","","","ns1.sgpro1.fcomet.com","ns2.sgpro1.fcomet.com","","","clientDeleteProhibited","clientRenewProhibited","clientTransferProhibited","clientUpdateProhibited"
"2","garageravin.com","2018-10-15 17:42:37","2018-10-14","2018-10-14","2020-10-14","146","GoDaddy.com, LLC","whois.godaddy.com","http://registrar.godaddy.com","Kervin Canhea","Reliable Technologies Ltd","Royal Road","Trou aux Biches","Pamplemousses","0000","Mauritius","kcanhea@rtlconsultancy.com","23052586693","","Kervin Canhea","Reliable Technologies Ltd","Royal Road","Trou aux Biches","Pamplemousses","0000","Mauritius","kcanhea@rtlconsultancy.com","23052586693","","Kervin Canhea","Reliable Technologies Ltd","Royal Road","Trou aux Biches","Pamplemousses","0000","Mauritius","kcanhea@rtlconsultancy.com","23052586693","","Kervin Canhea","Reliable Technologies Ltd","Royal Road","Trou aux Biches","Pamplemousses","0000","Mauritius","kcanhea@rtlconsultancy.com","23052586693","","ns1.stackdns.com","ns2.stackdns.com","ns3.stackdns.com","ns4.stackdns.com","clientDeleteProhibited","clientRenewProhibited","clientTransferProhibited","clientUpdateProhibited"
"3","saamiyah.com","2018-10-15 17:11:15","2018-10-14","2018-10-14","2019-10-14","81","Gandi SAS","whois.gandi.net","http://www.gandi.net","REDACTED FOR PRIVACY","","REDACTED FOR PRIVACY","REDACTED FOR PRIVACY","","REDACTED FOR PRIVACY","Mauritius","a10351b76a9d5e9fe0f587d9558dfa74-9838923@contact.gandi.net","REDACTED FOR PRIVACY","REDACTED FOR PRIVACY","REDACTED FOR PRIVACY","REDACTED FOR PRIVACY","REDACTED FOR PRIVACY","REDACTED FOR PRIVACY","REDACTED FOR PRIVACY","REDACTED FOR PRIVACY","REDACTED FOR PRIVACY","a10351b76a9d5e9fe0f587d9558dfa74-9838923@contact.gandi.net","REDACTED FOR PRIVACY","REDACTED FOR PRIVACY","REDACTED FOR PRIVACY","REDACTED FOR PRIVACY","REDACTED FOR PRIVACY","REDACTED FOR PRIVACY","REDACTED FOR PRIVACY","REDACTED FOR PRIVACY","REDACTED FOR PRIVACY","a10351b76a9d5e9fe0f587d9558dfa74-9838923@contact.gandi.net","REDACTED FOR PRIVACY","REDACTED FOR PRIVACY","","","","","","","","","","","ns-153-c.gandi.net","ns-29-a.gandi.net","ns-92-b.gandi.net","","clientTransferProhibited","","",""