"num","domain_name","query_time","create_date","update_date","expiry_date","domain_registrar_id","domain_registrar_name","domain_registrar_whois","domain_registrar_url","registrant_name","registrant_company","registrant_address","registrant_city","registrant_state","registrant_zip","registrant_country","registrant_email","registrant_phone","registrant_fax","administrative_name","administrative_company","administrative_address","administrative_city","administrative_state","administrative_zip","administrative_country","administrative_email","administrative_phone","administrative_fax","technical_name","technical_company","technical_address","technical_city","technical_state","technical_zip","technical_country","technical_email","technical_phone","technical_fax","billing_name","billing_company","billing_address","billing_city","billing_state","billing_zip","billing_country","billing_email","billing_phone","billing_fax","name_server_1","name_server_2","name_server_3","name_server_4","domain_status_1","domain_status_2","domain_status_3","domain_status_4"
"1","ankeoman.com","2018-10-15 16:17:42","2018-10-14","2018-10-14","2019-10-14","146","GoDaddy.com, LLC","whois.godaddy.com","http://registrar.godaddy.com","","","","","al mabilah","","Oman","","","","","","","","","","","","","","","","","","","","","","","","","","","","","","","","","","ns69.domaincontrol.com","ns70.domaincontrol.com","","","clientDeleteProhibited","clientRenewProhibited","clientTransferProhibited","clientUpdateProhibited"
"2","delmonmuscat.com","2018-10-15 17:36:33","2018-10-14","2018-10-14","2019-10-14","146","GoDaddy.com, LLC","whois.godaddy.com","http://registrar.godaddy.com","","","","","muscat","","Oman","","","","","","","","","","","","","","","","","","","","","","","","","","","","","","","","","","ns69.domaincontrol.com","ns70.domaincontrol.com","","","clientDeleteProhibited","clientRenewProhibited","clientTransferProhibited","clientUpdateProhibited"
"3","dermaclinica.net","2018-10-15 17:55:00","2018-10-14","2018-10-14","2020-10-14","146","GoDaddy.com, LLC","whois.godaddy.com","http://registrar.godaddy.com","","","","","muscat","","Oman","","","","","","","","","","","","","","","","","","","","","","","","","","","","","","","","","","ns69.domaincontrol.com","ns70.domaincontrol.com","","","clientDeleteProhibited","clientRenewProhibited","clientTransferProhibited","clientUpdateProhibited"
"4","fanar.company","2018-10-15 18:36:23","2018-10-14","2018-10-14","2019-10-14","113","CSL Computer Service Langenbach GmbH d/b/a joker.com","whois.joker.com","http://www.joker.com","REDACTED FOR PRIVACY","fnaralnsr","REDACTED FOR PRIVACY","REDACTED FOR PRIVACY","Sultanate of Oman","REDACTED FOR PRIVACY","Oman","","REDACTED FOR PRIVACY","REDACTED FOR PRIVACY","","","","","","","","","","","","","","","","","","","","","","","","","","","","","","","","","","","addPeriod","clientTransferProhibited","",""
"5","mataem.info","2018-10-15 16:26:04","2018-10-14","2018-10-14","2019-10-14","146","GoDaddy.com, LLC","whois.godaddy.com","http://registrar.godaddy.com","","","","","muscat","","Oman","","","","","","","","","","","","","","","","","","","","","","","","","","","","","","","","","","ns69.domaincontrol.com","ns70.domaincontrol.com","","","addPeriod","clientDeleteProhibited","clientRenewProhibited","clientTransferProhibited"
"6","offyzone.com","2018-10-15 16:14:51","2018-10-14","2018-10-14","2019-10-14","146","GoDaddy.com, LLC","whois.godaddy.com","http://registrar.godaddy.com","","","","","muscat","","Oman","","","","","","","","","","","","","","","","","","","","","","","","","","","","","","","","","","ns69.domaincontrol.com","ns70.domaincontrol.com","","","clientDeleteProhibited","clientRenewProhibited","clientTransferProhibited","clientUpdateProhibited"
"7","sjfoman.com","2018-10-15 16:31:33","2018-10-14","2018-10-14","2019-10-14","146","GoDaddy.com, LLC","whois.godaddy.com","http://registrar.godaddy.com","","","","","133","","Oman","","","","","","","","","","","","","","","","","","","","","","","","","","","","","","","","","","ns31.domaincontrol.com","ns32.domaincontrol.com","","","clientDeleteProhibited","clientRenewProhibited","clientTransferProhibited","clientUpdateProhibited"