"num","domain_name","query_time","create_date","update_date","expiry_date","domain_registrar_id","domain_registrar_name","domain_registrar_whois","domain_registrar_url","registrant_name","registrant_company","registrant_address","registrant_city","registrant_state","registrant_zip","registrant_country","registrant_email","registrant_phone","registrant_fax","administrative_name","administrative_company","administrative_address","administrative_city","administrative_state","administrative_zip","administrative_country","administrative_email","administrative_phone","administrative_fax","technical_name","technical_company","technical_address","technical_city","technical_state","technical_zip","technical_country","technical_email","technical_phone","technical_fax","billing_name","billing_company","billing_address","billing_city","billing_state","billing_zip","billing_country","billing_email","billing_phone","billing_fax","name_server_1","name_server_2","name_server_3","name_server_4","domain_status_1","domain_status_2","domain_status_3","domain_status_4"
"1","aidataconsulting.com","2018-10-15 16:31:30","2018-10-14","2018-10-14","2020-10-14","146","GoDaddy.com, LLC","whois.godaddy.com","http://registrar.godaddy.com","Peter Bartek","Netfon","Cervena 1","Zilina","ZILINA","01003","Slovakia","bartek@netfon.sk","+421.918349525","","Peter Bartek","Netfon","Cervena 1","Zilina","ZILINA","01003","Slovakia","bartek@netfon.sk","+421.918349525","","Peter Bartek","Netfon","Cervena 1","Zilina","ZILINA","01003","Slovakia","bartek@netfon.sk","+421.918349525","","","","","","","","","","","","ns31.domaincontrol.com","ns32.domaincontrol.com","","","clientDeleteProhibited","clientRenewProhibited","clientTransferProhibited","clientUpdateProhibited"
"2","best-ecommercebuilders.com","2018-10-15 17:15:23","2018-10-14","2018-10-14","2019-10-14","146","GoDaddy.com, LLC","whois.godaddy.com","http://registrar.godaddy.com","","","","","SK","","Slovakia","","","","","","","","","","","","","","","","","","","","","","","","","","","","","","","","","","ns31.domaincontrol.com","ns32.domaincontrol.com","","","clientDeleteProhibited","clientRenewProhibited","clientTransferProhibited","clientUpdateProhibited"
"3","best-weightlossplans.com","2018-10-15 16:48:38","2018-10-14","2018-10-14","2019-10-14","146","GoDaddy.com, LLC","whois.godaddy.com","http://registrar.godaddy.com","","","","","SK","","Slovakia","","","","","","","","","","","","","","","","","","","","","","","","","","","","","","","","","","ns31.domaincontrol.com","ns32.domaincontrol.com","","","clientDeleteProhibited","clientRenewProhibited","clientTransferProhibited","clientUpdateProhibited"
"4","bestwebsitehostings.com","2018-10-15 16:09:53","2018-10-14","2018-10-14","2019-10-14","146","GoDaddy.com, LLC","whois.godaddy.com","http://registrar.godaddy.com","","","","","SK","","Slovakia","","","","","","","","","","","","","","","","","","","","","","","","","","","","","","","","","","ns31.domaincontrol.com","ns32.domaincontrol.com","","","clientDeleteProhibited","clientRenewProhibited","clientTransferProhibited","clientUpdateProhibited"
"5","bestwebsitesbuilders.com","2018-10-15 17:00:02","2018-10-14","2018-10-14","2019-10-14","146","GoDaddy.com, LLC","whois.godaddy.com","http://registrar.godaddy.com","","","","","SK","","Slovakia","","","","","","","","","","","","","","","","","","","","","","","","","","","","","","","","","","ns31.domaincontrol.com","ns32.domaincontrol.com","","","clientDeleteProhibited","clientRenewProhibited","clientTransferProhibited","clientUpdateProhibited"
"6","gasmalt.com","2018-10-15 16:44:55","2018-10-14","2018-10-14","2019-10-14","146","GoDaddy.com, LLC","whois.godaddy.com","http://registrar.godaddy.com","","","","","Zilina","","Slovakia","","","","","","","","","","","","","","","","","","","","","","","","","","","","","","","","","","ns31.domaincontrol.com","ns32.domaincontrol.com","","","clientDeleteProhibited","clientRenewProhibited","clientTransferProhibited","clientUpdateProhibited"
"7","johny.cool","2018-10-15 16:29:26","2018-10-14","2018-10-14","2019-10-14","113","CSL Computer Service Langenbach GmbH d/b/a joker.com","whois.joker.com","http://www.joker.com","Jan Kubacka","Jan Kubacka","Druzstevna 814/64","Turcianske Teplice","","03901","Slovakia","johny.kubacka@gmail.com","+420.731625313","","Jan Kubacka","Jan Kubacka","Druzstevna 814/64","Turcianske Teplice","","03901","Slovakia","johny.kubacka@gmail.com","+420.731625313","","Petr Horinek","ZONER software a.s.","Nove Sady 18","Brno","Czech Republic","60200","Czech Republic","auto-reg@admin.czechia.com","+420.543257244","+420.543257245","","","","","","","","","","","","","","","addPeriod","clientTransferProhibited","",""
"8","prdoloch.com","2018-10-15 18:15:04","2018-10-14","2018-10-14","2020-10-14","146","GoDaddy.com, LLC","whois.godaddy.com","http://registrar.godaddy.com","","","","","Slovakia","","Slovakia","","","","","","","","","","","","","","","","","","","","","","","","","","","","","","","","","","ns69.domaincontrol.com","ns70.domaincontrol.com","","","clientDeleteProhibited","clientRenewProhibited","clientTransferProhibited","clientUpdateProhibited"
"9","survirage.com","2018-10-15 17:35:50","2018-10-14","2018-10-14","2019-10-14","1630","Ligne Web Services SARL","whois.nic.fr","http://www.ait.com","","","","","","","Slovakia","4422d7d4a17db12450a7b2557a7f6040@whois-anonymous.com","","","","","","","","","Slovakia","4422d7d4a17db12450a7b2557a7f6040@whois-anonymous.com","","","","","","","","","Slovakia","4422d7d4a17db12450a7b2557a7f6040@whois-anonymous.com","","","","","","","","","Slovakia","4422d7d4a17db12450a7b2557a7f6040@whois-anonymous.com","","","","","","","More","clientTransferProhibited","informations","on"
"10","tibinko.guru","2018-10-15 16:25:19","2018-10-14","2018-10-14","2019-10-14","146","GoDaddy.com, LLC","whois.godaddy.com","http://registrar.godaddy.com","REDACTED FOR PRIVACY","","REDACTED FOR PRIVACY","REDACTED FOR PRIVACY","Slovakia","REDACTED FOR PRIVACY","Slovakia","","REDACTED FOR PRIVACY","REDACTED FOR PRIVACY","","","","","","","","","","","","","","","","","","","","","","","","","","","","","","","","","","","addPeriod","clientDeleteProhibited","clientRenewProhibited","clientTransferProhibited"
"11","top10websitesbuilders.com","2018-10-15 18:22:54","2018-10-14","2018-10-14","2019-10-14","146","GoDaddy.com, LLC","whois.godaddy.com","http://registrar.godaddy.com","","","","","SK","","Slovakia","","","","","","","","","","","","","","","","","","","","","","","","","","","","","","","","","","ns31.domaincontrol.com","ns32.domaincontrol.com","","","clientDeleteProhibited","clientRenewProhibited","clientTransferProhibited","clientUpdateProhibited"
"12","trait.info","2018-10-15 16:01:24","2018-10-14","2018-10-15","2019-10-14","146","GoDaddy.com, LLC","whois.godaddy.com","http://registrar.godaddy.com","","","","","Bratislavsky kraj","","Slovakia","","","","","","","","","","","","","","","","","","","","","","","","","","","","","","","","","","ns31.domaincontrol.com","ns32.domaincontrol.com","","","addPeriod","clientDeleteProhibited","clientRenewProhibited","clientTransferProhibited"