"num","domain_name","query_time","create_date","update_date","expiry_date","domain_registrar_id","domain_registrar_name","domain_registrar_whois","domain_registrar_url","registrant_name","registrant_company","registrant_address","registrant_city","registrant_state","registrant_zip","registrant_country","registrant_email","registrant_phone","registrant_fax","administrative_name","administrative_company","administrative_address","administrative_city","administrative_state","administrative_zip","administrative_country","administrative_email","administrative_phone","administrative_fax","technical_name","technical_company","technical_address","technical_city","technical_state","technical_zip","technical_country","technical_email","technical_phone","technical_fax","billing_name","billing_company","billing_address","billing_city","billing_state","billing_zip","billing_country","billing_email","billing_phone","billing_fax","name_server_1","name_server_2","name_server_3","name_server_4","domain_status_1","domain_status_2","domain_status_3","domain_status_4"
"1","abchygiene.com","2018-10-15 17:23:21","2018-10-14","2018-10-14","2019-10-14","2","Network Solutions, LLC","whois.networksolutions.com","http://networksolutions.com","Statutory Masking Enabled","Statutory Masking Enabled","Statutory Masking Enabled","Statutory Masking Enabled","Vasterbotten","Statutory Masking Enabled","Sweden","abuse@web.com","Statutory Masking Enabled","Statutory Masking Enabled","Statutory Masking Enabled","Statutory Masking Enabled","Statutory Masking Enabled","Statutory Masking Enabled","Statutory Masking Enabled","Statutory Masking Enabled","Statutory Masking Enabled","abuse@web.com","Statutory Masking Enabled","Statutory Masking Enabled","Statutory Masking Enabled","Statutory Masking Enabled","Statutory Masking Enabled","Statutory Masking Enabled","Statutory Masking Enabled","Statutory Masking Enabled","Statutory Masking Enabled","abuse@web.com","Statutory Masking Enabled","Statutory Masking Enabled","","","","","","","","","","","ns1.eftydns.com","ns2.eftydns.com","","","OK","","",""
"2","anderswalfridson.com","2018-10-15 15:55:43","2018-10-14","2018-10-14","2019-10-14","2","Network Solutions, LLC","whois.networksolutions.com","http://networksolutions.com","Statutory Masking Enabled","Statutory Masking Enabled","Statutory Masking Enabled","Statutory Masking Enabled","SE-O","Statutory Masking Enabled","Sweden","abuse@web.com","Statutory Masking Enabled","Statutory Masking Enabled","Statutory Masking Enabled","Statutory Masking Enabled","Statutory Masking Enabled","Statutory Masking Enabled","Statutory Masking Enabled","Statutory Masking Enabled","Statutory Masking Enabled","abuse@web.com","Statutory Masking Enabled","Statutory Masking Enabled","Statutory Masking Enabled","Statutory Masking Enabled","Statutory Masking Enabled","Statutory Masking Enabled","Statutory Masking Enabled","Statutory Masking Enabled","Statutory Masking Enabled","abuse@web.com","Statutory Masking Enabled","Statutory Masking Enabled","","","","","","","","","","","ns2.wixdns.net","ns3.wixdns.net","","","clientTransferProhibited","","",""
"3","april-army.com","2018-10-15 16:47:38","2018-10-14","2018-10-14","2019-10-14","1462","One.com A/S","whois.ripn.net","www.one.com","REDACTED FOR PRIVACY","REDACTED FOR PRIVACY","REDACTED FOR PRIVACY","REDACTED FOR PRIVACY","","REDACTED FOR PRIVACY","Sweden","","REDACTED FOR PRIVACY","","REDACTED FOR PRIVACY","REDACTED FOR PRIVACY","REDACTED FOR PRIVACY","REDACTED FOR PRIVACY","","REDACTED FOR PRIVACY","REDACTED FOR PRIVACY","","REDACTED FOR PRIVACY","","Host Master","One.com A/S","Kalvebod Brygge 24","Koebenhavn V","","1560","Denmark","hostmaster@one.com","+45.46907100","","","","","","","","","","","","ns01.one.com","ns02.one.com","","","addPeriod","ok","",""
"4","attefall.info","2018-10-15 16:26:46","2018-10-14","2018-10-14","2019-10-14","839","Realtime Register B.V.","whois.yoursrs.com","http://www.realtimeregister.com","","","","","","","Sweden","","","","","","","","","","","","","","","","","","","","","","","","","","","","","","","","","","dns1.webnode.com","dns2.webnode.com","","","addPeriod","serverTransferProhibited","",""
"5","belaxo.com","2018-10-15 17:45:09","2018-10-14","2018-10-14","2019-10-14","2111","DropCatch.com 631 LLC","whois.namebright.com","http://www.dropcatch631.com","Redacted for GDPR privacy","","Redacted for GDPR privacy","Redacted for GDPR privacy","Vaestra Goetaland","Redacted for GDPR privacy","Sweden","","Redacted for GDPR privacy","Redacted for GDPR privacy","Redacted for GDPR privacy","Redacted for GDPR privacy","Redacted for GDPR privacy","Redacted for GDPR privacy","Redacted for GDPR privacy","Redacted for GDPR privacy","Redacted for GDPR privacy","","Redacted for GDPR privacy","Redacted for GDPR privacy","Redacted for GDPR privacy","Redacted for GDPR privacy","Redacted for GDPR privacy","Redacted for GDPR privacy","Redacted for GDPR privacy","Redacted for GDPR privacy","Redacted for GDPR privacy","","Redacted for GDPR privacy","Redacted for GDPR privacy","","","","","","","","","","","ns1.namebrightdns.com","ns2.namebrightdns.com","","","clientTransferProhibited","","",""
"6","bellum.events","2018-10-15 17:54:31","2018-10-14","2018-10-14","2019-10-14","1371","AB NameISP","whois.nameisp.com","http://www.nameisp.com","REDACTED FOR PRIVACY","Shield Whois","REDACTED FOR PRIVACY","REDACTED FOR PRIVACY","","REDACTED FOR PRIVACY","Sweden","","REDACTED FOR PRIVACY","REDACTED FOR PRIVACY","","","","","","","","","","","","","","","","","","","","","","","","","","","","","","","","","","","addPeriod","clientTransferProhibited","",""
"7","bluebirdmediagroup.com","2018-10-15 16:53:53","2018-10-14","2018-10-14","2020-10-14","146","GoDaddy.com, LLC","whois.godaddy.com","http://registrar.godaddy.com","","","","","Belize City","","Sweden","","","","","","","","","","","","","","","","","","","","","","","","","","","","","","","","","","ns31.domaincontrol.com","ns32.domaincontrol.com","","","clientDeleteProhibited","clientRenewProhibited","clientTransferProhibited","clientUpdateProhibited"
"8","bradenhallett.com","2018-10-15 17:24:15","2018-10-15","2018-10-15","2019-10-15","1068","NameCheap, Inc.","whois.namecheap.com","http://www.namecheap.com","Portfoliobox Stockholm","Portfoliobox Stockholm AB","Gustavslundsvagen 151B","Bromma","Stockholm","16751","Sweden","info@portfoliobox.net","+46.702579016","","Portfoliobox Stockholm","Portfoliobox Stockholm AB","Gustavlundsvagen 151B","Bromma","Stockholm","16751","Sweden","info@portfoliobox.net","+46.702579016","","Portfoliobox Stockholm","Portfoliobox Stockholm AB","Gustavlundsvagen 151B","Bromma","Stockholm","16751","Sweden","info@portfoliobox.net","+46.702579016","","","","","","","","","","","","dns1.registrar-servers.com","dns2.registrar-servers.com","","","clientTransferProhibited","","",""
"9","breezy.voyage","2018-10-15 17:03:31","2018-10-14","2018-10-14","2019-10-14","146","GoDaddy.com, LLC","whois.godaddy.com","http://registrar.godaddy.com","Ali Hashemi","Bono AB","Luxgatan 27","Stockholm","Stockholm","11262","Sweden","ilali@me.com","+46.86184500","","Ali Hashemi","Bono AB","Luxgatan 27","Stockholm","Stockholm","11262","Sweden","ilali@me.com","+46.86184500","","Ali Hashemi","Bono AB","Luxgatan 27","Stockholm","Stockholm","11262","Sweden","ilali@me.com","+46.86184500","","Ali Hashemi","Bono AB","Luxgatan 27","Stockholm","Stockholm","11262","Sweden","ilali@me.com","+46.86184500","","","","","","addPeriod","clientDeleteProhibited","clientRenewProhibited","clientTransferProhibited"
"10","carbslog.com","2018-10-15 16:44:58","2018-10-14","2018-10-14","2019-10-14","146","GoDaddy.com, LLC","whois.godaddy.com","http://registrar.godaddy.com","","","","","Stockholms Lan","","Sweden","","","","","","","","","","","","","","","","","","","","","","","","","","","","","","","","","","ns31.domaincontrol.com","ns32.domaincontrol.com","","","clientDeleteProhibited","clientRenewProhibited","clientTransferProhibited","clientUpdateProhibited"
"11","carlenpartner.com","2018-10-15 17:54:46","2018-10-14","2018-10-14","2019-10-14","1462","One.com A/S","whois.ripn.net","www.one.com","REDACTED FOR PRIVACY","REDACTED FOR PRIVACY","REDACTED FOR PRIVACY","REDACTED FOR PRIVACY","","REDACTED FOR PRIVACY","Sweden","","REDACTED FOR PRIVACY","","REDACTED FOR PRIVACY","REDACTED FOR PRIVACY","REDACTED FOR PRIVACY","REDACTED FOR PRIVACY","","REDACTED FOR PRIVACY","REDACTED FOR PRIVACY","","REDACTED FOR PRIVACY","","Host Master","One.com A/S","Kalvebod Brygge 24","Koebenhavn V","","1560","Denmark","hostmaster@one.com","+45.46907100","","","","","","","","","","","","ns01.one.com","ns02.one.com","","","addPeriod","ok","",""
"12","casinoelites.com","2018-10-15 17:31:05","2018-10-14","2018-10-14","2019-10-14","1371","AB NameISP","whois.nameisp.com","http://www.nameisp.com","Protected Protected","Shield Whois","Radiovgen 2","Vstra Frlunda","","42147","Sweden","casinoelites.com@shieldwhois.com","+46.104500390","","Protected Protected","Shield Whois","Radiovgen 2","Vstra Frlunda","","42147","Sweden","casinoelites.com@shieldwhois.com","+46.104500390","","Protected Protected","Shield Whois","Radiovgen 2","Vstra Frlunda","","42147","Sweden","casinoelites.com@shieldwhois.com","+46.104500390","","","","","","","","","","","","ns1.misspark.com","ns2.misspark.com","ns3.misspark.com","ns4.misspark.com","clientTransferProhibited","","",""
"13","casomni.com","2018-10-15 17:50:59","2018-10-14","2018-10-14","2020-10-14","146","GoDaddy.com, LLC","whois.godaddy.com","http://registrar.godaddy.com","MTN STUDIO","MTN STUDIO","","","Stockholm","","Sweden","","","","","","","","","","","","","","","","","","","","","","","","","","","","","","","","","","ns31.domaincontrol.com","ns32.domaincontrol.com","","","clientDeleteProhibited","clientRenewProhibited","clientTransferProhibited","clientUpdateProhibited"
"14","cipherwithin.com","2018-10-15 18:15:16","2018-10-14","2018-10-14","2019-10-14","1371","AB NameISP","whois.nameisp.com","http://www.nameisp.com","Protected Protected","Shield Whois","Radiovgen 2","Vstra Frlunda","","42147","Sweden","cipherwithin.com@shieldwhois.com","+46.104500390","","Protected Protected","Shield Whois","Radiovgen 2","Vstra Frlunda","","42147","Sweden","cipherwithin.com@shieldwhois.com","+46.104500390","","Protected Protected","Shield Whois","Radiovgen 2","Vstra Frlunda","","42147","Sweden","cipherwithin.com@shieldwhois.com","+46.104500390","","","","","","","","","","","","ns1.inleed.net","ns2.inleed.net","ns3.inleed.net","ns4.inleed.net","clientTransferProhibited","","",""
"15","ckhstilform.com","2018-10-15 17:33:23","2018-10-14","2018-10-14","2019-10-14","1462","One.com A/S","whois.ripn.net","www.one.com","REDACTED FOR PRIVACY","REDACTED FOR PRIVACY","REDACTED FOR PRIVACY","REDACTED FOR PRIVACY","","REDACTED FOR PRIVACY","Sweden","","REDACTED FOR PRIVACY","","REDACTED FOR PRIVACY","REDACTED FOR PRIVACY","REDACTED FOR PRIVACY","REDACTED FOR PRIVACY","","REDACTED FOR PRIVACY","REDACTED FOR PRIVACY","","REDACTED FOR PRIVACY","","Host Master","One.com A/S","Kalvebod Brygge 24","Koebenhavn V","","1560","Denmark","hostmaster@one.com","+45.46907100","","","","","","","","","","","","ns01.one.com","ns02.one.com","","","addPeriod","ok","",""
"16","cocogranel.com","2018-10-15 16:19:42","2018-10-14","2018-10-14","2019-10-14","1068","NameCheap, Inc.","whois.namecheap.com","http://www.namecheap.com","Portfoliobox Stockholm","Portfoliobox Stockholm AB","Gustavslundsvagen 151B","Bromma","Stockholm","16751","Sweden","info@portfoliobox.net","+46.702579016","","Portfoliobox Stockholm","Portfoliobox Stockholm AB","Gustavlundsvagen 151B","Bromma","Stockholm","16751","Sweden","info@portfoliobox.net","+46.702579016","","Portfoliobox Stockholm","Portfoliobox Stockholm AB","Gustavlundsvagen 151B","Bromma","Stockholm","16751","Sweden","info@portfoliobox.net","+46.702579016","","","","","","","","","","","","dns1.registrar-servers.com","dns2.registrar-servers.com","","","clientTransferProhibited","","",""
"17","comandoeventsuf.com","2018-10-15 15:52:44","2018-10-14","2018-10-14","2019-10-14","2","Network Solutions, LLC","whois.networksolutions.com","http://networksolutions.com","Statutory Masking Enabled","Statutory Masking Enabled","Statutory Masking Enabled","Statutory Masking Enabled","SE-O","Statutory Masking Enabled","Sweden","abuse@web.com","Statutory Masking Enabled","Statutory Masking Enabled","Statutory Masking Enabled","Statutory Masking Enabled","Statutory Masking Enabled","Statutory Masking Enabled","Statutory Masking Enabled","Statutory Masking Enabled","Statutory Masking Enabled","abuse@web.com","Statutory Masking Enabled","Statutory Masking Enabled","Statutory Masking Enabled","Statutory Masking Enabled","Statutory Masking Enabled","Statutory Masking Enabled","Statutory Masking Enabled","Statutory Masking Enabled","Statutory Masking Enabled","abuse@web.com","Statutory Masking Enabled","Statutory Masking Enabled","","","","","","","","","","","ns0.wixdns.net","ns1.wixdns.net","","","clientTransferProhibited","","",""
"18","current3d.com","2018-10-15 15:55:04","2018-10-14","2018-10-14","2019-10-14","1462","One.com A/S","whois.ripn.net","www.one.com","REDACTED FOR PRIVACY","REDACTED FOR PRIVACY","REDACTED FOR PRIVACY","REDACTED FOR PRIVACY","","REDACTED FOR PRIVACY","Sweden","","REDACTED FOR PRIVACY","","REDACTED FOR PRIVACY","REDACTED FOR PRIVACY","REDACTED FOR PRIVACY","REDACTED FOR PRIVACY","","REDACTED FOR PRIVACY","REDACTED FOR PRIVACY","","REDACTED FOR PRIVACY","","Host Master","One.com A/S","Kalvebod Brygge 24","Koebenhavn V","","1560","Denmark","hostmaster@one.com","+45.46907100","","","","","","","","","","","","ns01.one.com","ns02.one.com","","","addPeriod","ok","",""
"19","currentvr.com","2018-10-15 16:26:12","2018-10-14","2018-10-14","2019-10-14","1462","One.com A/S","whois.ripn.net","www.one.com","REDACTED FOR PRIVACY","REDACTED FOR PRIVACY","REDACTED FOR PRIVACY","REDACTED FOR PRIVACY","","REDACTED FOR PRIVACY","Sweden","","REDACTED FOR PRIVACY","","REDACTED FOR PRIVACY","REDACTED FOR PRIVACY","REDACTED FOR PRIVACY","REDACTED FOR PRIVACY","","REDACTED FOR PRIVACY","REDACTED FOR PRIVACY","","REDACTED FOR PRIVACY","","Host Master","One.com A/S","Kalvebod Brygge 24","Koebenhavn V","","1560","Denmark","hostmaster@one.com","+45.46907100","","","","","","","","","","","","ns01.one.com","ns02.one.com","","","addPeriod","ok","",""
"20","danielecaldari.com","2018-10-15 16:14:35","2018-10-14","2018-10-14","2019-10-14","81","Gandi SAS","whois.gandi.net","http://www.gandi.net","REDACTED FOR PRIVACY","","REDACTED FOR PRIVACY","REDACTED FOR PRIVACY","","REDACTED FOR PRIVACY","Sweden","7af1a1292ad819e6051c9b61b4e1ed49-9838455@contact.gandi.net","REDACTED FOR PRIVACY","REDACTED FOR PRIVACY","REDACTED FOR PRIVACY","REDACTED FOR PRIVACY","REDACTED FOR PRIVACY","REDACTED FOR PRIVACY","REDACTED FOR PRIVACY","REDACTED FOR PRIVACY","REDACTED FOR PRIVACY","7af1a1292ad819e6051c9b61b4e1ed49-9838455@contact.gandi.net","REDACTED FOR PRIVACY","REDACTED FOR PRIVACY","REDACTED FOR PRIVACY","REDACTED FOR PRIVACY","REDACTED FOR PRIVACY","REDACTED FOR PRIVACY","REDACTED FOR PRIVACY","REDACTED FOR PRIVACY","REDACTED FOR PRIVACY","7af1a1292ad819e6051c9b61b4e1ed49-9838455@contact.gandi.net","REDACTED FOR PRIVACY","REDACTED FOR PRIVACY","","","","","","","","","","","ns-105-b.gandi.net","ns-178-c.gandi.net","ns-21-a.gandi.net","","clientTransferProhibited","","",""
"21","dejtmeister.info","2018-10-15 17:30:54","2018-10-15","2018-10-15","2019-10-15","146","GoDaddy.com, LLC","whois.godaddy.com","http://registrar.godaddy.com","","","","","Skane","","Sweden","","","","","","","","","","","","","","","","","","","","","","","","","","","","","","","","","","april.ns.cloudflare.com","hal.ns.cloudflare.com","","","addPeriod","clientDeleteProhibited","clientRenewProhibited","clientTransferProhibited"
"22","dinspraklarare.com","2018-10-15 18:33:17","2018-10-14","2018-10-14","2019-10-14","1462","One.com A/S","whois.ripn.net","www.one.com","REDACTED FOR PRIVACY","REDACTED FOR PRIVACY","REDACTED FOR PRIVACY","REDACTED FOR PRIVACY","","REDACTED FOR PRIVACY","Sweden","","REDACTED FOR PRIVACY","","REDACTED FOR PRIVACY","REDACTED FOR PRIVACY","REDACTED FOR PRIVACY","REDACTED FOR PRIVACY","","REDACTED FOR PRIVACY","REDACTED FOR PRIVACY","","REDACTED FOR PRIVACY","","Host Master","One.com A/S","Kalvebod Brygge 24","Koebenhavn V","","1560","Denmark","hostmaster@one.com","+45.46907100","","","","","","","","","","","","ns01.one.com","ns02.one.com","","","addPeriod","ok","",""
"23","diosole.com","2018-10-15 16:10:25","2018-10-14","2018-10-14","2019-10-14","1371","AB NameISP","whois.nameisp.com","http://www.nameisp.com","Protected Protected","Shield Whois","Radiovgen 2","Vstra Frlunda","","42147","Sweden","diosole.com@shieldwhois.com","+46.104500390","","Protected Protected","Shield Whois","Radiovgen 2","Vstra Frlunda","","42147","Sweden","diosole.com@shieldwhois.com","+46.104500390","","Protected Protected","Shield Whois","Radiovgen 2","Vstra Frlunda","","42147","Sweden","diosole.com@shieldwhois.com","+46.104500390","","","","","","","","","","","","ns1.misspark.com","ns2.misspark.com","ns3.misspark.com","ns4.misspark.com","clientTransferProhibited","","",""
"24","discoveryourstyletoday.com","2018-10-15 17:29:59","2018-10-14","2018-10-14","2019-10-14","1462","One.com A/S","whois.ripn.net","www.one.com","REDACTED FOR PRIVACY","REDACTED FOR PRIVACY","REDACTED FOR PRIVACY","REDACTED FOR PRIVACY","","REDACTED FOR PRIVACY","Sweden","","REDACTED FOR PRIVACY","","REDACTED FOR PRIVACY","REDACTED FOR PRIVACY","REDACTED FOR PRIVACY","REDACTED FOR PRIVACY","","REDACTED FOR PRIVACY","REDACTED FOR PRIVACY","","REDACTED FOR PRIVACY","","Host Master","One.com A/S","Kalvebod Brygge 24","Koebenhavn V","","1560","Denmark","hostmaster@one.com","+45.46907100","","","","","","","","","","","","ns01.one.com","ns02.one.com","","","addPeriod","ok","",""
"25","districtbeyond.com","2018-10-15 17:21:02","2018-10-14","2018-10-14","2019-10-14","146","GoDaddy.com, LLC","whois.godaddy.com","http://registrar.godaddy.com","","","","","Vasterbottens Lan","","Sweden","","","","","","","","","","","","","","","","","","","","","","","","","","","","","","","","","","ns69.domaincontrol.com","ns70.domaincontrol.com","","","clientDeleteProhibited","clientRenewProhibited","clientTransferProhibited","clientUpdateProhibited"
"26","douglasbjorkdal.com","2018-10-15 15:52:10","2018-10-14","2018-10-14","2019-10-14","1462","One.com A/S","whois.ripn.net","www.one.com","REDACTED FOR PRIVACY","REDACTED FOR PRIVACY","REDACTED FOR PRIVACY","REDACTED FOR PRIVACY","","REDACTED FOR PRIVACY","Sweden","","REDACTED FOR PRIVACY","","REDACTED FOR PRIVACY","REDACTED FOR PRIVACY","REDACTED FOR PRIVACY","REDACTED FOR PRIVACY","","REDACTED FOR PRIVACY","REDACTED FOR PRIVACY","","REDACTED FOR PRIVACY","","Host Master","One.com A/S","Kalvebod Brygge 24","Koebenhavn V","","1560","Denmark","hostmaster@one.com","+45.46907100","","","","","","","","","","","","ns01.one.com","ns02.one.com","","","addPeriod","ok","",""
"27","drakorianowl.com","2018-10-15 17:48:31","2018-10-14","2018-10-14","2020-10-14","146","GoDaddy.com, LLC","whois.godaddy.com","http://registrar.godaddy.com","","","","","Vastmaland","","Sweden","","","","","","","","","","","","","","","","","","","","","","","","","","","","","","","","","","ns31.domaincontrol.com","ns32.domaincontrol.com","","","clientDeleteProhibited","clientRenewProhibited","clientTransferProhibited","clientUpdateProhibited"
"28","email-lyztran.com","2018-10-15 18:03:20","2018-10-14","2018-10-14","2019-10-14","472","Dynadot, LLC","whois.dynadot.com","http://www.dynadot.com","Joel Strandberg","","Nyvagen 2","Kilsmo","Kilsmo","71595","Sweden","dynadot+1360558@dynadot-sib.com","+46.46702291461","","Joel Strandberg","","Nyvagen 2","Kilsmo","Kilsmo","71595","Sweden","dynadot+1360558@dynadot-sib.com","+46.46702291461","","Joel Strandberg","","Nyvagen 2","Kilsmo","Kilsmo","71595","Sweden","dynadot+1360558@dynadot-sib.com","+46.46702291461","","","","","","","","","","","","ns1.sendinblue.com","ns2.sendinblue.com","","","clientTransferProhibited","","",""
"29","eurmarketplace.com","2018-10-15 17:01:59","2018-10-14","2018-10-14","2019-10-14","1371","AB NameISP","whois.nameisp.com","http://www.nameisp.com","Protected Protected","Shield Whois","Radiovgen 2","Vstra Frlunda","","42147","Sweden","eurmarketplace.com@shieldwhois.com","+46.104500390","","Protected Protected","Shield Whois","Radiovgen 2","Vstra Frlunda","","42147","Sweden","eurmarketplace.com@shieldwhois.com","+46.104500390","","Protected Protected","Shield Whois","Radiovgen 2","Vstra Frlunda","","42147","Sweden","eurmarketplace.com@shieldwhois.com","+46.104500390","","","","","","","","","","","","ns1.misspark.com","ns2.misspark.com","ns3.misspark.com","ns4.misspark.com","clientTransferProhibited","","",""
"30","everskold.com","2018-10-15 15:46:46","2018-10-14","2018-10-14","2019-10-14","146","GoDaddy.com, LLC","whois.godaddy.com","http://registrar.godaddy.com","","","","","Skane","","Sweden","","","","","","","","","","","","","","","","","","","","","","","","","","","","","","","","","","ns31.domaincontrol.com","ns32.domaincontrol.com","","","clientDeleteProhibited","clientRenewProhibited","clientTransferProhibited","clientUpdateProhibited"
"31","familjengustafsson.com","2018-10-15 17:15:40","2018-10-14","2018-10-14","2019-10-14","1462","One.com A/S","whois.ripn.net","www.one.com","REDACTED FOR PRIVACY","REDACTED FOR PRIVACY","REDACTED FOR PRIVACY","REDACTED FOR PRIVACY","","REDACTED FOR PRIVACY","Sweden","","REDACTED FOR PRIVACY","","REDACTED FOR PRIVACY","REDACTED FOR PRIVACY","REDACTED FOR PRIVACY","REDACTED FOR PRIVACY","","REDACTED FOR PRIVACY","REDACTED FOR PRIVACY","","REDACTED FOR PRIVACY","","Host Master","One.com A/S","Kalvebod Brygge 24","Koebenhavn V","","1560","Denmark","hostmaster@one.com","+45.46907100","","","","","","","","","","","","ns01.one.com","ns02.one.com","","","addPeriod","ok","",""
"32","favro.cloud","2018-10-15 16:29:46","2018-10-14","2018-10-14","2020-10-14","81","Gandi SAS","whois.gandi.net","http://www.gandi.net","IT Department","Favro AB","Dragarbrunnsgatan 41 A","UPPSALA","","75320","Sweden","favro@excedonet.net","+46.184881000","","Excedo Registry","Excedo Networks AB","Box 3065","Solna","","16903","Sweden","registry@excedo.se","+46.850161200","","Excedo Registry","Excedo Networks AB","Box 3065","Solna","","16903","Sweden","registry@excedo.se","+46.850161200","","","","","","","","","","","","ns-1146.awsdns-15.org","ns-152.awsdns-19.com","ns-1627.awsdns-11.co.uk","ns-884.awsdns-46.net","addPeriod","clientTransferProhibited","",""
"33","favrotest.cloud","2018-10-15 18:02:55","2018-10-14","2018-10-14","2019-10-14","81","Gandi SAS","whois.gandi.net","http://www.gandi.net","IT Department","Favro AB","Dragarbrunnsgatan 41 A","UPPSALA","","75320","Sweden","favro@excedonet.net","+46.184881000","","Excedo Registry","Excedo Networks AB","Box 3065","Solna","","16903","Sweden","registry@excedo.se","+46.850161200","","Excedo Registry","Excedo Networks AB","Box 3065","Solna","","16903","Sweden","registry@excedo.se","+46.850161200","","","","","","","","","","","","ns-1474.awsdns-56.org","ns-2000.awsdns-58.co.uk","ns-562.awsdns-06.net","ns-9.awsdns-01.com","addPeriod","clientTransferProhibited","",""
"34","fiftyshadesoffrej.com","2018-10-15 17:14:11","2018-10-14","2018-10-14","2020-10-14","146","GoDaddy.com, LLC","whois.godaddy.com","http://registrar.godaddy.com","","","","","Kalmar Lan","","Sweden","","","","","","","","","","","","","","","","","","","","","","","","","","","","","","","","","","ns31.domaincontrol.com","ns32.domaincontrol.com","","","clientDeleteProhibited","clientRenewProhibited","clientTransferProhibited","clientUpdateProhibited"
"35","flenc.com","2018-10-15 18:35:46","2018-10-14","2018-10-15","2019-10-14","2","Network Solutions, LLC","whois.networksolutions.com","http://networksolutions.com","Statutory Masking Enabled","Statutory Masking Enabled","Statutory Masking Enabled","Statutory Masking Enabled","Vasterbotten","Statutory Masking Enabled","Sweden","abuse@web.com","Statutory Masking Enabled","Statutory Masking Enabled","Statutory Masking Enabled","Statutory Masking Enabled","Statutory Masking Enabled","Statutory Masking Enabled","Statutory Masking Enabled","Statutory Masking Enabled","Statutory Masking Enabled","abuse@web.com","Statutory Masking Enabled","Statutory Masking Enabled","Statutory Masking Enabled","Statutory Masking Enabled","Statutory Masking Enabled","Statutory Masking Enabled","Statutory Masking Enabled","Statutory Masking Enabled","Statutory Masking Enabled","abuse@web.com","Statutory Masking Enabled","Statutory Masking Enabled","","","","","","","","","","","ns1.eftydns.com","ns2.eftydns.com","","","OK","","",""
"36","fuktzon.com","2018-10-15 17:54:43","2018-10-14","2018-10-14","2019-10-14","1462","One.com A/S","whois.ripn.net","www.one.com","REDACTED FOR PRIVACY","REDACTED FOR PRIVACY","REDACTED FOR PRIVACY","REDACTED FOR PRIVACY","","REDACTED FOR PRIVACY","Sweden","","REDACTED FOR PRIVACY","","REDACTED FOR PRIVACY","REDACTED FOR PRIVACY","REDACTED FOR PRIVACY","REDACTED FOR PRIVACY","","REDACTED FOR PRIVACY","REDACTED FOR PRIVACY","","REDACTED FOR PRIVACY","","Host Master","One.com A/S","Kalvebod Brygge 24","Koebenhavn V","","1560","Denmark","hostmaster@one.com","+45.46907100","","","","","","","","","","","","ns01.one.com","ns02.one.com","","","addPeriod","ok","",""
"37","gigeneer.com","2018-10-15 16:47:39","2018-10-14","2018-10-14","2019-10-14","1371","AB NameISP","whois.nameisp.com","http://www.nameisp.com","Protected Protected","Shield Whois","Radiovgen 2","Vstra Frlunda","","42147","Sweden","gigeneer.com@shieldwhois.com","+46.104500390","","Protected Protected","Shield Whois","Radiovgen 2","Vstra Frlunda","","42147","Sweden","gigeneer.com@shieldwhois.com","+46.104500390","","Protected Protected","Shield Whois","Radiovgen 2","Vstra Frlunda","","42147","Sweden","gigeneer.com@shieldwhois.com","+46.104500390","","","","","","","","","","","","ns1.misspark.com","ns2.misspark.com","ns3.misspark.com","ns4.misspark.com","clientTransferProhibited","","",""
"38","glamato.com","2018-10-15 18:23:06","2018-10-14","2018-10-14","2019-10-14","3389","DropCatch.com 1180 LLC","","","Redacted for GDPR privacy","","Redacted for GDPR privacy","Redacted for GDPR privacy","Vaestra Goetaland","Redacted for GDPR privacy","Sweden","","Redacted for GDPR privacy","Redacted for GDPR privacy","Redacted for GDPR privacy","Redacted for GDPR privacy","Redacted for GDPR privacy","Redacted for GDPR privacy","Redacted for GDPR privacy","Redacted for GDPR privacy","Redacted for GDPR privacy","","Redacted for GDPR privacy","Redacted for GDPR privacy","Redacted for GDPR privacy","Redacted for GDPR privacy","Redacted for GDPR privacy","Redacted for GDPR privacy","Redacted for GDPR privacy","Redacted for GDPR privacy","Redacted for GDPR privacy","","Redacted for GDPR privacy","Redacted for GDPR privacy","","","","","","","","","","","ns1.namebrightdns.com","ns2.namebrightdns.com","","","clientTransferProhibited","","",""
"39","globalcitizenshipprogram.com","2018-10-15 16:54:16","2018-10-14","2018-10-14","2019-10-14","1462","One.com A/S","whois.ripn.net","www.one.com","REDACTED FOR PRIVACY","REDACTED FOR PRIVACY","REDACTED FOR PRIVACY","REDACTED FOR PRIVACY","","REDACTED FOR PRIVACY","Sweden","","REDACTED FOR PRIVACY","","REDACTED FOR PRIVACY","REDACTED FOR PRIVACY","REDACTED FOR PRIVACY","REDACTED FOR PRIVACY","","REDACTED FOR PRIVACY","REDACTED FOR PRIVACY","","REDACTED FOR PRIVACY","","Host Master","One.com A/S","Kalvebod Brygge 24","Koebenhavn V","","1560","Denmark","hostmaster@one.com","+45.46907100","","","","","","","","","","","","ns01.one.com","ns02.one.com","","","addPeriod","ok","",""
"40","gnomewild.com","2018-10-15 18:35:13","2018-10-14","2018-10-14","2019-10-14","1371","AB NameISP","whois.nameisp.com","http://www.nameisp.com","Protected Protected","Shield Whois","Radiovgen 2","Vstra Frlunda","","42147","Sweden","gnomewild.com@shieldwhois.com","+46.104500390","","Protected Protected","Shield Whois","Radiovgen 2","Vstra Frlunda","","42147","Sweden","gnomewild.com@shieldwhois.com","+46.104500390","","Protected Protected","Shield Whois","Radiovgen 2","Vstra Frlunda","","42147","Sweden","gnomewild.com@shieldwhois.com","+46.104500390","","","","","","","","","","","","ns1.misspark.com","ns2.misspark.com","ns3.misspark.com","ns4.misspark.com","clientTransferProhibited","","",""
"41","grandervisuals.com","2018-10-15 17:56:26","2018-10-14","2018-10-14","2019-10-14","1462","One.com A/S","whois.ripn.net","www.one.com","REDACTED FOR PRIVACY","REDACTED FOR PRIVACY","REDACTED FOR PRIVACY","REDACTED FOR PRIVACY","","REDACTED FOR PRIVACY","Sweden","","REDACTED FOR PRIVACY","","REDACTED FOR PRIVACY","REDACTED FOR PRIVACY","REDACTED FOR PRIVACY","REDACTED FOR PRIVACY","","REDACTED FOR PRIVACY","REDACTED FOR PRIVACY","","REDACTED FOR PRIVACY","","Host Master","One.com A/S","Kalvebod Brygge 24","Koebenhavn V","","1560","Denmark","hostmaster@one.com","+45.46907100","","","","","","","","","","","","ns01.one.com","ns02.one.com","","","addPeriod","ok","",""
"42","greenheart.cloud","2018-10-15 16:16:17","2018-10-14","2018-10-14","2019-10-14","81","Gandi SAS","whois.gandi.net","http://www.gandi.net","","","","","","","Sweden","","","","","","","","","","","","","","","","","","","","","","","","","","","","","","","","","","ns-1344.awsdns-40.org","ns-1592.awsdns-07.co.uk","ns-227.awsdns-28.com","ns-576.awsdns-08.net","addPeriod","clientTransferProhibited","",""
"43","happygoluckyland.com","2018-10-15 16:14:37","2018-10-14","2018-10-14","2019-10-14","1462","One.com A/S","whois.ripn.net","www.one.com","REDACTED FOR PRIVACY","REDACTED FOR PRIVACY","REDACTED FOR PRIVACY","REDACTED FOR PRIVACY","","REDACTED FOR PRIVACY","Sweden","","REDACTED FOR PRIVACY","","REDACTED FOR PRIVACY","REDACTED FOR PRIVACY","REDACTED FOR PRIVACY","REDACTED FOR PRIVACY","","REDACTED FOR PRIVACY","REDACTED FOR PRIVACY","","REDACTED FOR PRIVACY","","Host Master","One.com A/S","Kalvebod Brygge 24","Koebenhavn V","","1560","Denmark","hostmaster@one.com","+45.46907100","","","","","","","","","","","","ns01.one.com","ns02.one.com","","","addPeriod","ok","",""
"44","harmoniouswatches.com","2018-10-15 16:07:51","2018-10-14","2018-10-14","2019-10-14","1462","One.com A/S","whois.ripn.net","www.one.com","REDACTED FOR PRIVACY","REDACTED FOR PRIVACY","REDACTED FOR PRIVACY","REDACTED FOR PRIVACY","","REDACTED FOR PRIVACY","Sweden","","REDACTED FOR PRIVACY","","REDACTED FOR PRIVACY","REDACTED FOR PRIVACY","REDACTED FOR PRIVACY","REDACTED FOR PRIVACY","","REDACTED FOR PRIVACY","REDACTED FOR PRIVACY","","REDACTED FOR PRIVACY","","Host Master","One.com A/S","Kalvebod Brygge 24","Koebenhavn V","","1560","Denmark","hostmaster@one.com","+45.46907100","","","","","","","","","","","","ns01.one.com","ns02.one.com","","","addPeriod","ok","",""
"45","hdssweden.com","2018-10-15 16:08:28","2018-10-14","2018-10-14","2019-10-14","1462","One.com A/S","whois.ripn.net","www.one.com","REDACTED FOR PRIVACY","REDACTED FOR PRIVACY","REDACTED FOR PRIVACY","REDACTED FOR PRIVACY","","REDACTED FOR PRIVACY","Sweden","","REDACTED FOR PRIVACY","","REDACTED FOR PRIVACY","REDACTED FOR PRIVACY","REDACTED FOR PRIVACY","REDACTED FOR PRIVACY","","REDACTED FOR PRIVACY","REDACTED FOR PRIVACY","","REDACTED FOR PRIVACY","","Host Master","One.com A/S","Kalvebod Brygge 24","Koebenhavn V","","1560","Denmark","hostmaster@one.com","+45.46907100","","","","","","","","","","","","ns01.one.com","ns02.one.com","","","addPeriod","ok","",""
"46","hofvligasallskapet.com","2018-10-15 18:03:05","2018-10-14","2018-10-14","2019-10-14","2","Network Solutions, LLC","whois.networksolutions.com","http://networksolutions.com","Statutory Masking Enabled","Statutory Masking Enabled","Statutory Masking Enabled","Statutory Masking Enabled","SE-AB","Statutory Masking Enabled","Sweden","abuse@web.com","Statutory Masking Enabled","Statutory Masking Enabled","Statutory Masking Enabled","Statutory Masking Enabled","Statutory Masking Enabled","Statutory Masking Enabled","Statutory Masking Enabled","Statutory Masking Enabled","Statutory Masking Enabled","abuse@web.com","Statutory Masking Enabled","Statutory Masking Enabled","Statutory Masking Enabled","Statutory Masking Enabled","Statutory Masking Enabled","Statutory Masking Enabled","Statutory Masking Enabled","Statutory Masking Enabled","Statutory Masking Enabled","abuse@web.com","Statutory Masking Enabled","Statutory Masking Enabled","","","","","","","","","","","ns2.wixdns.net","ns3.wixdns.net","","","clientTransferProhibited","","",""
"47","holmfeldt.com","2018-10-15 17:12:17","2018-10-14","2018-10-14","2019-10-14","146","GoDaddy.com, LLC","whois.godaddy.com","http://registrar.godaddy.com","","","","","Stockholms Lan","","Sweden","","","","","","","","","","","","","","","","","","","","","","","","","","","","","","","","","","ns31.domaincontrol.com","ns32.domaincontrol.com","","","clientDeleteProhibited","clientRenewProhibited","clientTransferProhibited","clientUpdateProhibited"
"48","hustlingbuddha.com","2018-10-15 16:47:38","2018-10-14","2018-10-14","2020-10-14","146","GoDaddy.com, LLC","whois.godaddy.com","http://registrar.godaddy.com","","","","","Kalmar Lan","","Sweden","","","","","","","","","","","","","","","","","","","","","","","","","","","","","","","","","","ns69.domaincontrol.com","ns70.domaincontrol.com","","","clientDeleteProhibited","clientRenewProhibited","clientTransferProhibited","clientUpdateProhibited"
"49","hustlingpanda.com","2018-10-15 17:41:34","2018-10-14","2018-10-14","2019-10-14","146","GoDaddy.com, LLC","whois.godaddy.com","http://registrar.godaddy.com","","","","","Kalmar Lan","","Sweden","","","","","","","","","","","","","","","","","","","","","","","","","","","","","","","","","","ns69.domaincontrol.com","ns70.domaincontrol.com","","","clientDeleteProhibited","clientRenewProhibited","clientTransferProhibited","clientUpdateProhibited"
"50","irbarande24.com","2018-10-15 18:24:09","2018-10-14","2018-10-14","2019-10-14","146","GoDaddy.com, LLC","whois.godaddy.com","http://registrar.godaddy.com","","","","","Jarfalla","","Sweden","","","","","","","","","","","","","","","","","","","","","","","","","","","","","","","","","","ali.ns.cloudflare.com","lou.ns.cloudflare.com","","","clientDeleteProhibited","clientRenewProhibited","clientTransferProhibited","clientUpdateProhibited"
"51","isfackla.com","2018-10-15 18:36:44","2018-10-14","2018-10-14","2019-10-14","146","GoDaddy.com, LLC","whois.godaddy.com","http://registrar.godaddy.com","","","","","Stockholms Lan","","Sweden","","","","","","","","","","","","","","","","","","","","","","","","","","","","","","","","","","ns69.domaincontrol.com","ns70.domaincontrol.com","","","clientDeleteProhibited","clientRenewProhibited","clientTransferProhibited","clientUpdateProhibited"
"52","jenjikahuno.com","2018-10-15 17:47:29","2018-10-14","2018-10-14","2019-10-14","146","GoDaddy.com, LLC","whois.godaddy.com","http://registrar.godaddy.com","","","","","Stockholms Lan","","Sweden","","","","","","","","","","","","","","","","","","","","","","","","","","","","","","","","","","ns31.domaincontrol.com","ns32.domaincontrol.com","","","clientDeleteProhibited","clientRenewProhibited","clientTransferProhibited","clientUpdateProhibited"
"53","jenniferzhan.com","2018-10-15 16:56:29","2018-10-14","2018-10-14","2019-10-14","1068","NameCheap, Inc.","whois.namecheap.com","http://www.namecheap.com","Portfoliobox Stockholm","Portfoliobox Stockholm AB","Gustavslundsvagen 151B","Bromma","Stockholm","16751","Sweden","info@portfoliobox.net","+46.702579016","","Portfoliobox Stockholm","Portfoliobox Stockholm AB","Gustavlundsvagen 151B","Bromma","Stockholm","16751","Sweden","info@portfoliobox.net","+46.702579016","","Portfoliobox Stockholm","Portfoliobox Stockholm AB","Gustavlundsvagen 151B","Bromma","Stockholm","16751","Sweden","info@portfoliobox.net","+46.702579016","","","","","","","","","","","","dns1.registrar-servers.com","dns2.registrar-servers.com","","","clientTransferProhibited","","",""
"54","juliamadueno.com","2018-10-15 17:51:26","2018-10-14","2018-10-14","2019-10-14","1371","AB NameISP","whois.nameisp.com","http://www.nameisp.com","Protected Protected","Shield Whois","Radiovgen 2","Vstra Frlunda","","42147","Sweden","juliamadueno.com@shieldwhois.com","+46.104500390","","Protected Protected","Shield Whois","Radiovgen 2","Vstra Frlunda","","42147","Sweden","juliamadueno.com@shieldwhois.com","+46.104500390","","Protected Protected","Shield Whois","Radiovgen 2","Vstra Frlunda","","42147","Sweden","juliamadueno.com@shieldwhois.com","+46.104500390","","","","","","","","","","","","ns1.nameisp.info","ns2.nameisp.info","","","clientTransferProhibited","","",""
"55","kakobet.com","2018-10-15 16:04:59","2018-10-14","2018-10-14","2020-10-14","146","GoDaddy.com, LLC","whois.godaddy.com","http://registrar.godaddy.com","","","","","Jarfalla","","Sweden","","","","","","","","","","","","","","","","","","","","","","","","","","","","","","","","","","ns31.domaincontrol.com","ns32.domaincontrol.com","","","clientDeleteProhibited","clientRenewProhibited","clientTransferProhibited","clientUpdateProhibited"
"56","karolinamickiwedding.com","2018-10-15 17:48:19","2018-10-14","2018-10-14","2019-10-14","2","Network Solutions, LLC","whois.networksolutions.com","http://networksolutions.com","Statutory Masking Enabled","Statutory Masking Enabled","Statutory Masking Enabled","Statutory Masking Enabled","SE-AB","Statutory Masking Enabled","Sweden","abuse@web.com","Statutory Masking Enabled","Statutory Masking Enabled","Statutory Masking Enabled","Statutory Masking Enabled","Statutory Masking Enabled","Statutory Masking Enabled","Statutory Masking Enabled","Statutory Masking Enabled","Statutory Masking Enabled","abuse@web.com","Statutory Masking Enabled","Statutory Masking Enabled","Statutory Masking Enabled","Statutory Masking Enabled","Statutory Masking Enabled","Statutory Masking Enabled","Statutory Masking Enabled","Statutory Masking Enabled","Statutory Masking Enabled","abuse@web.com","Statutory Masking Enabled","Statutory Masking Enabled","","","","","","","","","","","ns4.wixdns.net","ns5.wixdns.net","","","clientTransferProhibited","","",""
"57","kazekumi-p.com","2018-10-15 18:06:56","2018-10-14","2018-10-14","2019-10-14","1068","NameCheap, Inc.","whois.namecheap.com","http://www.namecheap.com","Portfoliobox Stockholm","Portfoliobox Stockholm AB","Gustavslundsvagen 151B","Bromma","Stockholm","16751","Sweden","info@portfoliobox.net","+46.702579016","","Portfoliobox Stockholm","Portfoliobox Stockholm AB","Gustavlundsvagen 151B","Bromma","Stockholm","16751","Sweden","info@portfoliobox.net","+46.702579016","","Portfoliobox Stockholm","Portfoliobox Stockholm AB","Gustavlundsvagen 151B","Bromma","Stockholm","16751","Sweden","info@portfoliobox.net","+46.702579016","","","","","","","","","","","","dns1.registrar-servers.com","dns2.registrar-servers.com","","","clientTransferProhibited","","",""
"58","kingdom.guru","2018-10-15 17:20:07","2018-10-14","2018-10-14","2019-10-14","146","GoDaddy.com, LLC","whois.godaddy.com","http://registrar.godaddy.com","REDACTED FOR PRIVACY","","REDACTED FOR PRIVACY","REDACTED FOR PRIVACY","Kalmar Lan","REDACTED FOR PRIVACY","Sweden","","REDACTED FOR PRIVACY","REDACTED FOR PRIVACY","","","","","","","","","","","","","","","","","","","","","","","","","","","","","","","","","","","addPeriod","clientDeleteProhibited","clientRenewProhibited","clientTransferProhibited"
"59","l-zxro.com","2018-10-15 18:38:32","2018-10-15","2018-10-15","2019-10-15","1068","NameCheap, Inc.","whois.namecheap.com","http://www.namecheap.com","Portfoliobox Stockholm","Portfoliobox Stockholm AB","Gustavslundsvagen 151B","Bromma","Stockholm","16751","Sweden","info@portfoliobox.net","+46.702579016","","Portfoliobox Stockholm","Portfoliobox Stockholm AB","Gustavlundsvagen 151B","Bromma","Stockholm","16751","Sweden","info@portfoliobox.net","+46.702579016","","Portfoliobox Stockholm","Portfoliobox Stockholm AB","Gustavlundsvagen 151B","Bromma","Stockholm","16751","Sweden","info@portfoliobox.net","+46.702579016","","","","","","","","","","","","dns1.registrar-servers.com","dns2.registrar-servers.com","","","clientTransferProhibited","","",""
"60","laszlobodis.com","2018-10-15 17:08:31","2018-10-14","2018-10-14","2019-10-14","1068","NameCheap, Inc.","whois.namecheap.com","http://www.namecheap.com","Portfoliobox Stockholm","Portfoliobox Stockholm AB","Gustavslundsvagen 151B","Bromma","Stockholm","16751","Sweden","info@portfoliobox.net","+46.702579016","","Portfoliobox Stockholm","Portfoliobox Stockholm AB","Gustavlundsvagen 151B","Bromma","Stockholm","16751","Sweden","info@portfoliobox.net","+46.702579016","","Portfoliobox Stockholm","Portfoliobox Stockholm AB","Gustavlundsvagen 151B","Bromma","Stockholm","16751","Sweden","info@portfoliobox.net","+46.702579016","","","","","","","","","","","","dns1.registrar-servers.com","dns2.registrar-servers.com","","","clientTransferProhibited","","",""
"61","learntobuildyourlist.net","2018-10-15 16:00:46","2018-10-14","2018-10-14","2019-10-14","1371","AB NameISP","whois.nameisp.com","http://www.nameisp.com","Protected Protected","Shield Whois","Radiovgen 2","Vstra Frlunda","","42147","Sweden","learntobuildyourlist.net@shieldwhois.com","+46.104500390","","Protected Protected","Shield Whois","Radiovgen 2","Vstra Frlunda","","42147","Sweden","learntobuildyourlist.net@shieldwhois.com","+46.104500390","","Protected Protected","Shield Whois","Radiovgen 2","Vstra Frlunda","","42147","Sweden","learntobuildyourlist.net@shieldwhois.com","+46.104500390","","","","","","","","","","","","ns1.stablehost.com","ns2.stablehost.com","","","clientTransferProhibited","","",""
"62","liverestoration.com","2018-10-15 18:39:15","2018-10-14","2018-10-15","2019-10-14","2","Network Solutions, LLC","whois.networksolutions.com","http://networksolutions.com","Statutory Masking Enabled","Statutory Masking Enabled","Statutory Masking Enabled","Statutory Masking Enabled","Vasterbotten","Statutory Masking Enabled","Sweden","abuse@web.com","Statutory Masking Enabled","Statutory Masking Enabled","Statutory Masking Enabled","Statutory Masking Enabled","Statutory Masking Enabled","Statutory Masking Enabled","Statutory Masking Enabled","Statutory Masking Enabled","Statutory Masking Enabled","abuse@web.com","Statutory Masking Enabled","Statutory Masking Enabled","Statutory Masking Enabled","Statutory Masking Enabled","Statutory Masking Enabled","Statutory Masking Enabled","Statutory Masking Enabled","Statutory Masking Enabled","Statutory Masking Enabled","abuse@web.com","Statutory Masking Enabled","Statutory Masking Enabled","","","","","","","","","","","ns1.eftydns.com","ns2.eftydns.com","","","OK","","",""
"63","mariagiuliacasco.com","2018-10-15 17:27:31","2018-10-14","2018-10-14","2019-10-14","1068","NameCheap, Inc.","whois.namecheap.com","http://www.namecheap.com","Portfoliobox Stockholm","Portfoliobox Stockholm AB","Gustavslundsvagen 151B","Bromma","Stockholm","16751","Sweden","info@portfoliobox.net","+46.702579016","","Portfoliobox Stockholm","Portfoliobox Stockholm AB","Gustavlundsvagen 151B","Bromma","Stockholm","16751","Sweden","info@portfoliobox.net","+46.702579016","","Portfoliobox Stockholm","Portfoliobox Stockholm AB","Gustavlundsvagen 151B","Bromma","Stockholm","16751","Sweden","info@portfoliobox.net","+46.702579016","","","","","","","","","","","","dns1.registrar-servers.com","dns2.registrar-servers.com","","","clientTransferProhibited","","",""
"64","marwanism.com","2018-10-15 17:45:06","2018-10-14","2018-10-14","2019-10-14","1462","One.com A/S","whois.ripn.net","www.one.com","REDACTED FOR PRIVACY","REDACTED FOR PRIVACY","REDACTED FOR PRIVACY","REDACTED FOR PRIVACY","","REDACTED FOR PRIVACY","Sweden","","REDACTED FOR PRIVACY","","REDACTED FOR PRIVACY","REDACTED FOR PRIVACY","REDACTED FOR PRIVACY","REDACTED FOR PRIVACY","","REDACTED FOR PRIVACY","REDACTED FOR PRIVACY","","REDACTED FOR PRIVACY","","Host Master","One.com A/S","Kalvebod Brygge 24","Koebenhavn V","","1560","Denmark","hostmaster@one.com","+45.46907100","","","","","","","","","","","","ns01.one.com","ns02.one.com","","","addPeriod","ok","",""
"65","matsholmfeldt.com","2018-10-15 17:23:16","2018-10-14","2018-10-14","2019-10-14","146","GoDaddy.com, LLC","whois.godaddy.com","http://registrar.godaddy.com","","","","","Stockholms Lan","","Sweden","","","","","","","","","","","","","","","","","","","","","","","","","","","","","","","","","","ns31.domaincontrol.com","ns32.domaincontrol.com","","","clientDeleteProhibited","clientRenewProhibited","clientTransferProhibited","clientUpdateProhibited"
"66","melissaanneperez.com","2018-10-15 17:44:39","2018-10-14","2018-10-14","2019-10-14","1068","NameCheap, Inc.","whois.namecheap.com","http://www.namecheap.com","Portfoliobox Stockholm","Portfoliobox Stockholm AB","Gustavslundsvagen 151B","Bromma","Stockholm","16751","Sweden","info@portfoliobox.net","+46.702579016","","Portfoliobox Stockholm","Portfoliobox Stockholm AB","Gustavlundsvagen 151B","Bromma","Stockholm","16751","Sweden","info@portfoliobox.net","+46.702579016","","Portfoliobox Stockholm","Portfoliobox Stockholm AB","Gustavlundsvagen 151B","Bromma","Stockholm","16751","Sweden","info@portfoliobox.net","+46.702579016","","","","","","","","","","","","dns1.registrar-servers.com","dns2.registrar-servers.com","","","clientTransferProhibited","","",""
"67","mellibet.com","2018-10-15 17:54:49","2018-10-14","2018-10-14","2019-10-14","146","GoDaddy.com, LLC","whois.godaddy.com","http://registrar.godaddy.com","","","","","Jarfalla","","Sweden","","","","","","","","","","","","","","","","","","","","","","","","","","","","","","","","","","ns31.domaincontrol.com","ns32.domaincontrol.com","","","clientDeleteProhibited","clientRenewProhibited","clientTransferProhibited","clientUpdateProhibited"
"68","meltam.com","2018-10-15 17:20:51","2018-10-14","2018-10-14","2020-10-14","146","GoDaddy.com, LLC","whois.godaddy.com","http://registrar.godaddy.com","Anders Soedertun","DBI Grafisk Produktion AB","Box 1091","Aengelholm","na","26222","Sweden","anders@dbi.se","+46.431446580","","Anders Soedertun","DBI Grafisk Produktion AB","Box 1091","Aengelholm","na","26222","Sweden","anders@dbi.se","+46.431446580","","Anders Soedertun","DBI Grafisk Produktion AB","Box 1091","Aengelholm","na","26222","Sweden","anders@dbi.se","+46.431446580","","","","","","","","","","","","ns1.storesandbrands.com","ns2.storesandbrands.com","","","clientDeleteProhibited","clientRenewProhibited","clientTransferProhibited","clientUpdateProhibited"
"69","mobydo.net","2018-10-15 18:29:38","2018-10-14","2018-10-14","2019-10-14","1068","NameCheap, Inc.","whois.namecheap.com","http://www.namecheap.com","Portfoliobox Stockholm","Portfoliobox Stockholm AB","Gustavslundsvagen 151B","Bromma","Stockholm","16751","Sweden","info@portfoliobox.net","+46.702579016","","Portfoliobox Stockholm","Portfoliobox Stockholm AB","Gustavlundsvagen 151B","Bromma","Stockholm","16751","Sweden","info@portfoliobox.net","+46.702579016","","Portfoliobox Stockholm","Portfoliobox Stockholm AB","Gustavlundsvagen 151B","Bromma","Stockholm","16751","Sweden","info@portfoliobox.net","+46.702579016","","","","","","","","","","","","dns1.registrar-servers.com","dns2.registrar-servers.com","","","clientTransferProhibited","","",""
"70","moow.city","2018-10-15 16:47:21","2018-10-14","2018-10-14","2019-10-14","146","GoDaddy.com, LLC","whois.godaddy.com","http://registrar.godaddy.com","REDACTED FOR PRIVACY","","REDACTED FOR PRIVACY","REDACTED FOR PRIVACY","Stockholm Lan","REDACTED FOR PRIVACY","Sweden","","REDACTED FOR PRIVACY","REDACTED FOR PRIVACY","","","","","","","","","","","","","","","","","","","","","","","","","","","","","","","","","","","addPeriod","clientDeleteProhibited","clientRenewProhibited","clientTransferProhibited"
"71","munkfastigheter.biz","2018-10-15 17:38:32","2018-10-11","2018-10-11","2019-10-11","1581","Binero AB","whois.binero.se","http://www.binero.se","","","","","","","Sweden","","","","","","","","","","","","","","","","","","","","","","","","","","","","","","","","","","ns3.binero.se","ns4.binero.se","ns5.binero.se","ns6.binero.se","addPeriod","ok","",""
"72","nanamoia.com","2018-10-15 16:06:45","2018-10-14","2018-10-14","2019-10-14","1068","NameCheap, Inc.","whois.namecheap.com","http://www.namecheap.com","Portfoliobox Stockholm","Portfoliobox Stockholm AB","Gustavslundsvagen 151B","Bromma","Stockholm","16751","Sweden","info@portfoliobox.net","+46.702579016","","Portfoliobox Stockholm","Portfoliobox Stockholm AB","Gustavlundsvagen 151B","Bromma","Stockholm","16751","Sweden","info@portfoliobox.net","+46.702579016","","Portfoliobox Stockholm","Portfoliobox Stockholm AB","Gustavlundsvagen 151B","Bromma","Stockholm","16751","Sweden","info@portfoliobox.net","+46.702579016","","","","","","","","","","","","dns1.registrar-servers.com","dns2.registrar-servers.com","","","clientTransferProhibited","","",""
"73","nordakvarn.com","2018-10-15 16:57:05","2018-10-14","2018-10-14","2019-10-14","1462","One.com A/S","whois.ripn.net","www.one.com","REDACTED FOR PRIVACY","REDACTED FOR PRIVACY","REDACTED FOR PRIVACY","REDACTED FOR PRIVACY","","REDACTED FOR PRIVACY","Sweden","","REDACTED FOR PRIVACY","","REDACTED FOR PRIVACY","REDACTED FOR PRIVACY","REDACTED FOR PRIVACY","REDACTED FOR PRIVACY","","REDACTED FOR PRIVACY","REDACTED FOR PRIVACY","","REDACTED FOR PRIVACY","","Host Master","One.com A/S","Kalvebod Brygge 24","Koebenhavn V","","1560","Denmark","hostmaster@one.com","+45.46907100","","","","","","","","","","","","ns01.one.com","ns02.one.com","","","addPeriod","ok","",""
"74","nordic-ebike.com","2018-10-15 16:56:43","2018-10-14","2018-10-14","2020-10-14","146","GoDaddy.com, LLC","whois.godaddy.com","http://registrar.godaddy.com","","","","","Vastra Gotaland","","Sweden","","","","","","","","","","","","","","","","","","","","","","","","","","","","","","","","","","ns69.domaincontrol.com","ns70.domaincontrol.com","","","clientDeleteProhibited","clientRenewProhibited","clientTransferProhibited","clientUpdateProhibited"
"75","nordwebshop.com","2018-10-15 15:58:57","2018-10-14","2018-10-14","2019-10-14","146","GoDaddy.com, LLC","whois.godaddy.com","http://registrar.godaddy.com","","","","","Stockholms Lan","","Sweden","","","","","","","","","","","","","","","","","","","","","","","","","","","","","","","","","","ns31.domaincontrol.com","ns32.domaincontrol.com","","","clientDeleteProhibited","clientRenewProhibited","clientTransferProhibited","clientUpdateProhibited"
"76","oexaconsult.com","2018-10-15 18:10:14","2018-10-14","2018-10-14","2019-10-14","1462","One.com A/S","whois.ripn.net","www.one.com","REDACTED FOR PRIVACY","REDACTED FOR PRIVACY","REDACTED FOR PRIVACY","REDACTED FOR PRIVACY","","REDACTED FOR PRIVACY","Sweden","","REDACTED FOR PRIVACY","","REDACTED FOR PRIVACY","REDACTED FOR PRIVACY","REDACTED FOR PRIVACY","REDACTED FOR PRIVACY","","REDACTED FOR PRIVACY","REDACTED FOR PRIVACY","","REDACTED FOR PRIVACY","","Host Master","One.com A/S","Kalvebod Brygge 24","Koebenhavn V","","1560","Denmark","hostmaster@one.com","+45.46907100","","","","","","","","","","","","ns01.one.com","ns02.one.com","","","addPeriod","ok","",""
"77","panpatodos.com","2018-10-15 17:00:28","2018-10-14","2018-10-14","2020-10-14","146","GoDaddy.com, LLC","whois.godaddy.com","http://registrar.godaddy.com","","","","","Stockholms Lan","","Sweden","","","","","","","","","","","","","","","","","","","","","","","","","","","","","","","","","","ns31.domaincontrol.com","ns32.domaincontrol.com","","","clientDeleteProhibited","clientRenewProhibited","clientTransferProhibited","clientUpdateProhibited"
"78","paumeobjects.com","2018-10-15 17:21:26","2018-10-14","2018-10-14","2019-10-14","81","Gandi SAS","whois.gandi.net","http://www.gandi.net","REDACTED FOR PRIVACY","Vectorhead AB","REDACTED FOR PRIVACY","REDACTED FOR PRIVACY","","REDACTED FOR PRIVACY","Sweden","4bdfedc5b38bd9176ec3ee45c878102d-9838908@contact.gandi.net","REDACTED FOR PRIVACY","REDACTED FOR PRIVACY","REDACTED FOR PRIVACY","REDACTED FOR PRIVACY","REDACTED FOR PRIVACY","REDACTED FOR PRIVACY","REDACTED FOR PRIVACY","REDACTED FOR PRIVACY","REDACTED FOR PRIVACY","4bdfedc5b38bd9176ec3ee45c878102d-9838908@contact.gandi.net","REDACTED FOR PRIVACY","REDACTED FOR PRIVACY","REDACTED FOR PRIVACY","REDACTED FOR PRIVACY","REDACTED FOR PRIVACY","REDACTED FOR PRIVACY","REDACTED FOR PRIVACY","REDACTED FOR PRIVACY","REDACTED FOR PRIVACY","4bdfedc5b38bd9176ec3ee45c878102d-9838908@contact.gandi.net","REDACTED FOR PRIVACY","REDACTED FOR PRIVACY","","","","","","","","","","","ns-123-a.gandi.net","ns-149-c.gandi.net","ns-8-b.gandi.net","","clientTransferProhibited","","",""
"79","playlistpulse.com","2018-10-15 16:02:05","2018-10-14","2018-10-14","2019-10-14","81","Gandi SAS","whois.gandi.net","http://www.gandi.net","REDACTED FOR PRIVACY","","REDACTED FOR PRIVACY","REDACTED FOR PRIVACY","","REDACTED FOR PRIVACY","Sweden","ec9221e9a3eba86c34008bde24a881e4-9839256@contact.gandi.net","REDACTED FOR PRIVACY","REDACTED FOR PRIVACY","REDACTED FOR PRIVACY","REDACTED FOR PRIVACY","REDACTED FOR PRIVACY","REDACTED FOR PRIVACY","REDACTED FOR PRIVACY","REDACTED FOR PRIVACY","REDACTED FOR PRIVACY","ec9221e9a3eba86c34008bde24a881e4-9839256@contact.gandi.net","REDACTED FOR PRIVACY","REDACTED FOR PRIVACY","REDACTED FOR PRIVACY","REDACTED FOR PRIVACY","REDACTED FOR PRIVACY","REDACTED FOR PRIVACY","REDACTED FOR PRIVACY","REDACTED FOR PRIVACY","REDACTED FOR PRIVACY","ec9221e9a3eba86c34008bde24a881e4-9839256@contact.gandi.net","REDACTED FOR PRIVACY","REDACTED FOR PRIVACY","","","","","","","","","","","ns-138-a.gandi.net","ns-149-c.gandi.net","ns-200-b.gandi.net","","clientTransferProhibited","","",""
"80","playtient.com","2018-10-15 17:33:42","2018-10-14","2018-10-14","2019-10-14","1462","One.com A/S","whois.ripn.net","www.one.com","REDACTED FOR PRIVACY","REDACTED FOR PRIVACY","REDACTED FOR PRIVACY","REDACTED FOR PRIVACY","","REDACTED FOR PRIVACY","Sweden","","REDACTED FOR PRIVACY","","REDACTED FOR PRIVACY","REDACTED FOR PRIVACY","REDACTED FOR PRIVACY","REDACTED FOR PRIVACY","","REDACTED FOR PRIVACY","REDACTED FOR PRIVACY","","REDACTED FOR PRIVACY","","Host Master","One.com A/S","Kalvebod Brygge 24","Koebenhavn V","","1560","Denmark","hostmaster@one.com","+45.46907100","","","","","","","","","","","","ns01.one.com","ns02.one.com","","","addPeriod","ok","",""
"81","playtients.com","2018-10-15 17:36:42","2018-10-14","2018-10-14","2019-10-14","1462","One.com A/S","whois.ripn.net","www.one.com","REDACTED FOR PRIVACY","REDACTED FOR PRIVACY","REDACTED FOR PRIVACY","REDACTED FOR PRIVACY","","REDACTED FOR PRIVACY","Sweden","","REDACTED FOR PRIVACY","","REDACTED FOR PRIVACY","REDACTED FOR PRIVACY","REDACTED FOR PRIVACY","REDACTED FOR PRIVACY","","REDACTED FOR PRIVACY","REDACTED FOR PRIVACY","","REDACTED FOR PRIVACY","","Host Master","One.com A/S","Kalvebod Brygge 24","Koebenhavn V","","1560","Denmark","hostmaster@one.com","+45.46907100","","","","","","","","","","","","ns01.one.com","ns02.one.com","","","addPeriod","ok","",""
"82","progress.tips","2018-10-15 18:06:10","2018-10-14","2018-10-14","2019-10-14","2","Network Solutions, LLC","whois.networksolutions.com","http://networksolutions.com","REDACTED FOR PRIVACY","","REDACTED FOR PRIVACY","REDACTED FOR PRIVACY","SE-AB","REDACTED FOR PRIVACY","Sweden","","REDACTED FOR PRIVACY","REDACTED FOR PRIVACY","","","","","","","","","","","","","","","","","","","","","","","","","","","","","","","","","","","addPeriod","clientTransferProhibited","",""
"83","regain-it.com","2018-10-15 16:38:55","2018-10-14","2018-10-14","2019-10-14","1001","Domeneshop AS dba  domainnameshop.com","whois.domainnameshop.com","http://www.domainnameshop.com","Redacted for Privacy Purposes","Regain","Redacted for Privacy Purposes","Redacted for Privacy Purposes","","Redacted for Privacy Purposes","Sweden","g7ct7hg7zhy7@privacy-protection.email","Redacted for Privacy Purposes","","Redacted for Privacy Purposes","Redacted for Privacy Purposes","Redacted for Privacy Purposes","Redacted for Privacy Purposes","","Redacted for Privacy Purposes","Redacted for Privacy Purposes","2p9xbpqekrof@privacy-protection.email","Redacted for Privacy Purposes","","Redacted for Privacy Purposes","Redacted for Privacy Purposes","Redacted for Privacy Purposes","Redacted for Privacy Purposes","","Redacted for Privacy Purposes","Redacted for Privacy Purposes","hostmaster@domeneshop.no","Redacted for Privacy Purposes","Redacted for Privacy Purposes","","","","","","","","","","","ns1.hyp.net","ns2.hyp.net","ns3.hyp.net","","clientTransferProhibited","","",""
"84","religiousviking.com","2018-10-15 16:10:47","2018-10-14","2018-10-14","2019-10-14","1371","AB NameISP","whois.nameisp.com","http://www.nameisp.com","Protected Protected","Shield Whois","Radiovgen 2","Vstra Frlunda","","42147","Sweden","religiousviking.com@shieldwhois.com","+46.104500390","","Protected Protected","Shield Whois","Radiovgen 2","Vstra Frlunda","","42147","Sweden","religiousviking.com@shieldwhois.com","+46.104500390","","Protected Protected","Shield Whois","Radiovgen 2","Vstra Frlunda","","42147","Sweden","religiousviking.com@shieldwhois.com","+46.104500390","","","","","","","","","","","","ns1.misspark.com","ns2.misspark.com","ns3.misspark.com","ns4.misspark.com","clientTransferProhibited","","",""
"85","resydent.com","2018-10-15 16:35:33","2018-10-14","2018-10-14","2019-10-14","1771","DropCatch.com 360 LLC","whois.namebright.com","http://www.dropcatch360.com","Redacted for GDPR privacy","","Redacted for GDPR privacy","Redacted for GDPR privacy","Vaestra Goetaland","Redacted for GDPR privacy","Sweden","","Redacted for GDPR privacy","Redacted for GDPR privacy","Redacted for GDPR privacy","Redacted for GDPR privacy","Redacted for GDPR privacy","Redacted for GDPR privacy","Redacted for GDPR privacy","Redacted for GDPR privacy","Redacted for GDPR privacy","","Redacted for GDPR privacy","Redacted for GDPR privacy","Redacted for GDPR privacy","Redacted for GDPR privacy","Redacted for GDPR privacy","Redacted for GDPR privacy","Redacted for GDPR privacy","Redacted for GDPR privacy","Redacted for GDPR privacy","","Redacted for GDPR privacy","Redacted for GDPR privacy","","","","","","","","","","","ns1.namebrightdns.com","ns2.namebrightdns.com","","","clientTransferProhibited","","",""
"86","riksbaeng.com","2018-10-15 18:30:01","2018-10-14","2018-10-14","2019-10-14","1462","One.com A/S","whois.ripn.net","www.one.com","REDACTED FOR PRIVACY","REDACTED FOR PRIVACY","REDACTED FOR PRIVACY","REDACTED FOR PRIVACY","","REDACTED FOR PRIVACY","Sweden","","REDACTED FOR PRIVACY","","REDACTED FOR PRIVACY","REDACTED FOR PRIVACY","REDACTED FOR PRIVACY","REDACTED FOR PRIVACY","","REDACTED FOR PRIVACY","REDACTED FOR PRIVACY","","REDACTED FOR PRIVACY","","Host Master","One.com A/S","Kalvebod Brygge 24","Koebenhavn V","","1560","Denmark","hostmaster@one.com","+45.46907100","","","","","","","","","","","","ns01.one.com","ns02.one.com","","","addPeriod","ok","",""
"87","sextopplistan.com","2018-10-15 18:30:07","2018-10-14","2018-10-15","2019-10-14","146","GoDaddy.com, LLC","whois.godaddy.com","http://registrar.godaddy.com","","","","","","","Sweden","","","","","","","","","","","","","","","","","","","","","","","","","","","","","","","","","","ns31.domaincontrol.com","ns32.domaincontrol.com","","","clientDeleteProhibited","clientRenewProhibited","clientTransferProhibited","clientUpdateProhibited"
"88","sightseersnairobi.com","2018-10-15 15:50:26","2018-10-14","2018-10-14","2019-10-14","1462","One.com A/S","whois.ripn.net","www.one.com","REDACTED FOR PRIVACY","REDACTED FOR PRIVACY","REDACTED FOR PRIVACY","REDACTED FOR PRIVACY","","REDACTED FOR PRIVACY","Sweden","","REDACTED FOR PRIVACY","","REDACTED FOR PRIVACY","REDACTED FOR PRIVACY","REDACTED FOR PRIVACY","REDACTED FOR PRIVACY","","REDACTED FOR PRIVACY","REDACTED FOR PRIVACY","","REDACTED FOR PRIVACY","","Host Master","One.com A/S","Kalvebod Brygge 24","Koebenhavn V","","1560","Denmark","hostmaster@one.com","+45.46907100","","","","","","","","","","","","ns01.one.com","ns02.one.com","","","addPeriod","ok","",""
"89","skalman.store","2018-10-15 16:07:47","2018-10-14","2018-10-14","2019-10-14","146","GoDaddy.com, LLC","whois.godaddy.com","http://registrar.godaddy.com","","","","","Kalmar","","Sweden","","","","","","","","","","","","","","","","","","","","","","","","","","","","","","","","","","ns31.domaincontrol.com","ns32.domaincontrol.com","","","addPeriod","clientDeleteProhibited","clientRenewProhibited","clientTransferProhibited"
"90","skullez.com","2018-10-15 17:18:23","2018-10-14","2018-10-14","2020-10-14","146","GoDaddy.com, LLC","whois.godaddy.com","http://registrar.godaddy.com","","","","","Vastra Gotaland","","Sweden","","","","","","","","","","","","","","","","","","","","","","","","","","","","","","","","","","ns69.domaincontrol.com","ns70.domaincontrol.com","","","clientDeleteProhibited","clientRenewProhibited","clientTransferProhibited","clientUpdateProhibited"
"91","skyfoxstudio.com","2018-10-15 16:22:38","2018-10-14","2018-10-14","2019-10-14","1462","One.com A/S","whois.ripn.net","www.one.com","REDACTED FOR PRIVACY","REDACTED FOR PRIVACY","REDACTED FOR PRIVACY","REDACTED FOR PRIVACY","","REDACTED FOR PRIVACY","Sweden","","REDACTED FOR PRIVACY","","REDACTED FOR PRIVACY","REDACTED FOR PRIVACY","REDACTED FOR PRIVACY","REDACTED FOR PRIVACY","","REDACTED FOR PRIVACY","REDACTED FOR PRIVACY","","REDACTED FOR PRIVACY","","Host Master","One.com A/S","Kalvebod Brygge 24","Koebenhavn V","","1560","Denmark","hostmaster@one.com","+45.46907100","","","","","","","","","","","","ns01.one.com","ns02.one.com","","","addPeriod","ok","",""
"92","speedrestoration.com","2018-10-15 15:50:18","2018-10-14","2018-10-14","2019-10-14","2","Network Solutions, LLC","whois.networksolutions.com","http://networksolutions.com","Statutory Masking Enabled","Statutory Masking Enabled","Statutory Masking Enabled","Statutory Masking Enabled","Vasterbotten","Statutory Masking Enabled","Sweden","abuse@web.com","Statutory Masking Enabled","Statutory Masking Enabled","Statutory Masking Enabled","Statutory Masking Enabled","Statutory Masking Enabled","Statutory Masking Enabled","Statutory Masking Enabled","Statutory Masking Enabled","Statutory Masking Enabled","abuse@web.com","Statutory Masking Enabled","Statutory Masking Enabled","Statutory Masking Enabled","Statutory Masking Enabled","Statutory Masking Enabled","Statutory Masking Enabled","Statutory Masking Enabled","Statutory Masking Enabled","Statutory Masking Enabled","abuse@web.com","Statutory Masking Enabled","Statutory Masking Enabled","","","","","","","","","","","ns1.eftydns.com","ns2.eftydns.com","","","OK","","",""
"93","startupinstinct.com","2018-10-15 17:57:34","2018-10-14","2018-10-14","2019-10-14","1462","One.com A/S","whois.ripn.net","www.one.com","REDACTED FOR PRIVACY","REDACTED FOR PRIVACY","REDACTED FOR PRIVACY","REDACTED FOR PRIVACY","","REDACTED FOR PRIVACY","Sweden","","REDACTED FOR PRIVACY","","REDACTED FOR PRIVACY","REDACTED FOR PRIVACY","REDACTED FOR PRIVACY","REDACTED FOR PRIVACY","","REDACTED FOR PRIVACY","REDACTED FOR PRIVACY","","REDACTED FOR PRIVACY","","Host Master","One.com A/S","Kalvebod Brygge 24","Koebenhavn V","","1560","Denmark","hostmaster@one.com","+45.46907100","","","","","","","","","","","","ns01.one.com","ns02.one.com","","","addPeriod","ok","",""
"94","storageabc.com","2018-10-15 17:15:31","2018-10-14","2018-10-14","2019-10-14","2","Network Solutions, LLC","whois.networksolutions.com","http://networksolutions.com","Statutory Masking Enabled","Statutory Masking Enabled","Statutory Masking Enabled","Statutory Masking Enabled","Vasterbotten","Statutory Masking Enabled","Sweden","abuse@web.com","Statutory Masking Enabled","Statutory Masking Enabled","Statutory Masking Enabled","Statutory Masking Enabled","Statutory Masking Enabled","Statutory Masking Enabled","Statutory Masking Enabled","Statutory Masking Enabled","Statutory Masking Enabled","abuse@web.com","Statutory Masking Enabled","Statutory Masking Enabled","Statutory Masking Enabled","Statutory Masking Enabled","Statutory Masking Enabled","Statutory Masking Enabled","Statutory Masking Enabled","Statutory Masking Enabled","Statutory Masking Enabled","abuse@web.com","Statutory Masking Enabled","Statutory Masking Enabled","","","","","","","","","","","ns1.eftydns.com","ns2.eftydns.com","","","OK","","",""
"95","studiointuito.com","2018-10-15 18:29:47","2018-10-14","2018-10-14","2019-10-14","1462","One.com A/S","whois.ripn.net","www.one.com","REDACTED FOR PRIVACY","REDACTED FOR PRIVACY","REDACTED FOR PRIVACY","REDACTED FOR PRIVACY","","REDACTED FOR PRIVACY","Sweden","","REDACTED FOR PRIVACY","","REDACTED FOR PRIVACY","REDACTED FOR PRIVACY","REDACTED FOR PRIVACY","REDACTED FOR PRIVACY","","REDACTED FOR PRIVACY","REDACTED FOR PRIVACY","","REDACTED FOR PRIVACY","","Host Master","One.com A/S","Kalvebod Brygge 24","Koebenhavn V","","1560","Denmark","hostmaster@one.com","+45.46907100","","","","","","","","","","","","ns01.one.com","ns02.one.com","","","addPeriod","ok","",""
"96","swappis.net","2018-10-15 16:31:06","2018-10-13","2018-10-13","2019-10-13","1462","One.com A/S","whois.ripn.net","www.one.com","REDACTED FOR PRIVACY","REDACTED FOR PRIVACY","REDACTED FOR PRIVACY","REDACTED FOR PRIVACY","","REDACTED FOR PRIVACY","Sweden","","REDACTED FOR PRIVACY","","REDACTED FOR PRIVACY","REDACTED FOR PRIVACY","REDACTED FOR PRIVACY","REDACTED FOR PRIVACY","","REDACTED FOR PRIVACY","REDACTED FOR PRIVACY","","REDACTED FOR PRIVACY","","Host Master","One.com A/S","Kalvebod Brygge 24","Koebenhavn V","","1560","Denmark","hostmaster@one.com","+45.46907100","","","","","","","","","","","","ns01.one.com","ns02.one.com","","","addPeriod","ok","",""
"97","theethereumnews.com","2018-10-15 16:57:14","2018-10-14","2018-10-14","2020-10-14","146","GoDaddy.com, LLC","whois.godaddy.com","http://registrar.godaddy.com","","","","","UPPLAND","","Sweden","","","","","","","","","","","","","","","","","","","","","","","","","","","","","","","","","","ns31.domaincontrol.com","ns32.domaincontrol.com","","","clientDeleteProhibited","clientRenewProhibited","clientTransferProhibited","clientUpdateProhibited"
"98","tobiaselis.com","2018-10-15 18:38:15","2018-10-14","2018-10-14","2019-10-14","1371","AB NameISP","whois.nameisp.com","http://www.nameisp.com","Protected Protected","Shield Whois","Radiovgen 2","Vstra Frlunda","","42147","Sweden","tobiaselis.com@shieldwhois.com","+46.104500390","","Protected Protected","Shield Whois","Radiovgen 2","Vstra Frlunda","","42147","Sweden","tobiaselis.com@shieldwhois.com","+46.104500390","","Protected Protected","Shield Whois","Radiovgen 2","Vstra Frlunda","","42147","Sweden","tobiaselis.com@shieldwhois.com","+46.104500390","","","","","","","","","","","","ns1.inleed.net","ns2.inleed.net","ns3.inleed.net","ns4.inleed.net","clientTransferProhibited","","",""
"99","uchfonline.com","2018-10-15 18:32:39","2018-10-14","2018-10-14","2019-10-14","1001","Domeneshop AS dba  domainnameshop.com","whois.domainnameshop.com","http://www.domainnameshop.com","Redacted for Privacy Purposes","Urban Combat Hapkido Federation","Redacted for Privacy Purposes","Redacted for Privacy Purposes","","Redacted for Privacy Purposes","Sweden","ztpweri7wcww@privacy-protection.email","Redacted for Privacy Purposes","","Redacted for Privacy Purposes","Redacted for Privacy Purposes","Redacted for Privacy Purposes","Redacted for Privacy Purposes","","Redacted for Privacy Purposes","Redacted for Privacy Purposes","vpufducn7neu@privacy-protection.email","Redacted for Privacy Purposes","","Redacted for Privacy Purposes","Redacted for Privacy Purposes","Redacted for Privacy Purposes","Redacted for Privacy Purposes","","Redacted for Privacy Purposes","Redacted for Privacy Purposes","hostmaster@domeneshop.no","Redacted for Privacy Purposes","Redacted for Privacy Purposes","","","","","","","","","","","ns1.hyp.net","ns2.hyp.net","ns3.hyp.net","","clientTransferProhibited","","",""
"100","vosaria.com","2018-10-15 18:13:11","2018-10-14","2018-10-14","2019-10-14","1462","One.com A/S","whois.ripn.net","www.one.com","REDACTED FOR PRIVACY","REDACTED FOR PRIVACY","REDACTED FOR PRIVACY","REDACTED FOR PRIVACY","","REDACTED FOR PRIVACY","Sweden","","REDACTED FOR PRIVACY","","REDACTED FOR PRIVACY","REDACTED FOR PRIVACY","REDACTED FOR PRIVACY","REDACTED FOR PRIVACY","","REDACTED FOR PRIVACY","REDACTED FOR PRIVACY","","REDACTED FOR PRIVACY","","Host Master","One.com A/S","Kalvebod Brygge 24","Koebenhavn V","","1560","Denmark","hostmaster@one.com","+45.46907100","","","","","","","","","","","","ns01.one.com","ns02.one.com","","","addPeriod","ok","",""
"101","westergrens-ab.com","2018-10-15 15:47:26","2018-10-14","2018-10-14","2019-10-14","1462","One.com A/S","whois.ripn.net","www.one.com","REDACTED FOR PRIVACY","REDACTED FOR PRIVACY","REDACTED FOR PRIVACY","REDACTED FOR PRIVACY","","REDACTED FOR PRIVACY","Sweden","","REDACTED FOR PRIVACY","","REDACTED FOR PRIVACY","REDACTED FOR PRIVACY","REDACTED FOR PRIVACY","REDACTED FOR PRIVACY","","REDACTED FOR PRIVACY","REDACTED FOR PRIVACY","","REDACTED FOR PRIVACY","","Host Master","One.com A/S","Kalvebod Brygge 24","Koebenhavn V","","1560","Denmark","hostmaster@one.com","+45.46907100","","","","","","","","","","","","ns01.one.com","ns02.one.com","","","addPeriod","ok","",""
"102","yourgiftsonline.com","2018-10-15 17:45:43","2018-10-14","2018-10-14","2019-10-14","146","GoDaddy.com, LLC","whois.godaddy.com","http://registrar.godaddy.com","","","","","Stockholms Lan","","Sweden","","","","","","","","","","","","","","","","","","","","","","","","","","","","","","","","","","ns31.domaincontrol.com","ns32.domaincontrol.com","","","clientDeleteProhibited","clientRenewProhibited","clientTransferProhibited","clientUpdateProhibited"
"103","yousifjaafari.com","2018-10-15 17:57:38","2018-10-14","2018-10-14","2019-10-14","146","GoDaddy.com, LLC","whois.godaddy.com","http://registrar.godaddy.com","","","","","Stockholms Lan","","Sweden","","","","","","","","","","","","","","","","","","","","","","","","","","","","","","","","","","ns31.domaincontrol.com","ns32.domaincontrol.com","","","clientDeleteProhibited","clientRenewProhibited","clientTransferProhibited","clientUpdateProhibited"