"num","domain_name","query_time","create_date","update_date","expiry_date","domain_registrar_id","domain_registrar_name","domain_registrar_whois","domain_registrar_url","registrant_name","registrant_company","registrant_address","registrant_city","registrant_state","registrant_zip","registrant_country","registrant_email","registrant_phone","registrant_fax","administrative_name","administrative_company","administrative_address","administrative_city","administrative_state","administrative_zip","administrative_country","administrative_email","administrative_phone","administrative_fax","technical_name","technical_company","technical_address","technical_city","technical_state","technical_zip","technical_country","technical_email","technical_phone","technical_fax","billing_name","billing_company","billing_address","billing_city","billing_state","billing_zip","billing_country","billing_email","billing_phone","billing_fax","name_server_1","name_server_2","name_server_3","name_server_4","domain_status_1","domain_status_2","domain_status_3","domain_status_4"
"1","bythebossjgl.com","2018-10-15 15:52:21","2018-10-14","2018-10-14","2019-10-14","146","GoDaddy.com, LLC","whois.godaddy.com","http://registrar.godaddy.com","BytheBossJGL","BytheBossJGL","","","cojedes","","Venezuela","","","","","","","","","","","","","","","","","","","","","","","","","","","","","","","","","","ns69.domaincontrol.com","ns70.domaincontrol.com","","","OK","","",""
"2","cerebrosweb.club","2018-10-15 17:24:45","2018-10-14","2018-10-14","2019-10-14","146","GoDaddy.com, LLC","whois.godaddy.com","http://registrar.godaddy.com","David Dos Santos","Corporacion DS","Av. Las Colinas, Res. Avilalto","Caracas","","1080","Venezuela","corporacion-ds.net@wix-domains.com","+1.4159496022","","David Dos Santos","Corporacion DS","Av. Las Colinas, Res. Avilalto","Caracas","","1080","Venezuela","corporacion-ds.net@wix-domains.com","+1.4159496022","","David Dos Santos","Corporacion DS","Av. Las Colinas, Res. Avilalto","Caracas","","1080","Venezuela","corporacion-ds.net@wix-domains.com","+1.4159496022","","","","","","","","","","","","ns.inmotionhosting.com","ns2.inmotionhosting.com","","","addPeriod","clientDeleteProhibited","clientRenewProhibited","clientTransferProhibited"
"3","granpremiodelorinoco.com","2018-10-15 17:58:07","2018-10-14","2018-10-14","2019-10-14","146","GoDaddy.com, LLC","whois.godaddy.com","http://registrar.godaddy.com","","","","","Zulia","","Venezuela","","","","","","","","","","","","","","","","","","","","","","","","","","","","","","","","","","ns1.flowpixel.com","ns2.flowpixel.com","","","clientDeleteProhibited","clientRenewProhibited","clientTransferProhibited","clientUpdateProhibited"
"4","greenmarket.today","2018-10-15 17:21:15","2018-10-14","2018-10-14","2019-10-14","146","GoDaddy.com, LLC","whois.godaddy.com","http://registrar.godaddy.com","REDACTED FOR PRIVACY","","REDACTED FOR PRIVACY","REDACTED FOR PRIVACY","NEVADA","REDACTED FOR PRIVACY","Venezuela","","REDACTED FOR PRIVACY","REDACTED FOR PRIVACY","","","","","","","","","","","","","","","","","","","","","","","","","","","","","","","","","","","addPeriod","clientDeleteProhibited","clientRenewProhibited","clientTransferProhibited"
"5","habplus.info","2018-10-15 17:38:38","2018-10-14","2018-10-14","2019-10-14","303","PDR Ltd. d/b/a PublicDomainRegistry.com","whois.publicdomainregistry.com","http://www.publicdomainregistry.com","Habbo","Habbo","Apartamento 0302","San Rafael","Aragua","2107","Venezuela","cooperholos@hotmail.com","584268580797","","zCooper Holos","Habbo","Apartamento 0302","San Rafael","Aragua","2107","Venezuela","cooperholos@hotmail.com","584268580797","","zCooper Holos","Habbo","Apartamento 0302","San Rafael","Aragua","2107","Venezuela","cooperholos@hotmail.com","584268580797","","","","","","","","","","","","superdominios.earth.orderbox-dns.com","superdominios.mars.orderbox-dns.com","superdominios.mercury.orderbox-dns.com","superdominios.venus.orderbox-dns.com","addPeriod","clientTransferProhibited","serverTransferProhibited",""
"6","lentes-inteligentes.com","2018-10-15 16:38:13","2018-10-14","2018-10-14","2019-10-14","1647","Hosting Concepts B.V. dba Openprovider","whois.registrar.eu","http://www.openprovider.com","REDACTED FOR PRIVACY","","REDACTED FOR PRIVACY","REDACTED FOR PRIVACY","maturin","REDACTED FOR PRIVACY","Venezuela","","REDACTED FOR PRIVACY","REDACTED FOR PRIVACY","REDACTED FOR PRIVACY","REDACTED FOR PRIVACY","REDACTED FOR PRIVACY","REDACTED FOR PRIVACY","REDACTED FOR PRIVACY","REDACTED FOR PRIVACY","REDACTED FOR PRIVACY","","REDACTED FOR PRIVACY","REDACTED FOR PRIVACY","REDACTED FOR PRIVACY","REDACTED FOR PRIVACY","REDACTED FOR PRIVACY","REDACTED FOR PRIVACY","REDACTED FOR PRIVACY","REDACTED FOR PRIVACY","REDACTED FOR PRIVACY","","REDACTED FOR PRIVACY","REDACTED FOR PRIVACY","","","","","","","","","","","dns1.sered.net","dns2.sered.net","","","clientTransferProhibited","ok","",""
"7","mariliponce.com","2018-10-15 15:55:02","2018-10-14","2018-10-14","2019-10-14","146","GoDaddy.com, LLC","whois.godaddy.com","http://registrar.godaddy.com","Juan Ponce","Entorno Visual","Urb. La Isabelica","Valencia","Carabobo","2003","Venezuela","jotaeme232@gmail.com","+0.4144949881","","Juan Ponce","Entorno Visual","Urb. La Isabelica","Valencia","Carabobo","2003","Venezuela","jotaeme232@gmail.com","+0.4144949881","","Juan Ponce","Entorno Visual","Urb. La Isabelica","Valencia","Carabobo","2003","Venezuela","jotaeme232@gmail.com","+0.4144949881","","","","","","","","","","","","ns3.puntohost.com","ns4.puntohost.com","","","clientDeleteProhibited","clientRenewProhibited","clientTransferProhibited","clientUpdateProhibited"
"8","pancasero.site","2018-10-15 17:19:47","2018-10-15","2018-10-15","2019-10-15","1647","Hosting Concepts B.V. dba Openprovider","whois.registrar.eu","http://www.openprovider.com","","","","","maturin","","Venezuela","","","","","","","","","","","","","","","","","","","","","","","","","","","","","","","","","","dns1.sered.net","dns2.sered.net","","","addPeriod","clientTransferProhibited","serverTransferProhibited",""
"9","peliculas1mega.com","2018-10-15 17:18:04","2018-10-14","2018-10-14","2019-10-14","146","GoDaddy.com, LLC","whois.godaddy.com","http://registrar.godaddy.com","","","","","dist. capital","","Venezuela","","","","","","","","","","","","","","","","","","","","","","","","","","","","","","","","","","ns4926.banahosting.com","ns4927.banahosting.com","","","clientDeleteProhibited","clientRenewProhibited","clientTransferProhibited","clientUpdateProhibited"
"10","soloagro.net","2018-10-15 17:40:02","2018-10-14","2018-10-14","2020-10-14","146","GoDaddy.com, LLC","whois.godaddy.com","http://registrar.godaddy.com","XAVIER PADRON","FRIOKAA","AV ESTE OESTE N#6 C.I. LOS RIOS GALPON|RIO CHAMA Z.I. NORTE","VALENCIA","CARABOBO","2003","Venezuela","xpadron1@yahoo.com","582418324110","","XAVIER PADRON","FRIOKAA","AV ESTE OESTE N#6 C.I. LOS RIOS GALPON|RIO CHAMA Z.I. NORTE","VALENCIA","CARABOBO","2003","Venezuela","xpadron1@yahoo.com","582418324110","","XAVIER PADRON","FRIOKAA","AV ESTE OESTE N#6 C.I. LOS RIOS GALPON|RIO CHAMA Z.I. NORTE","VALENCIA","CARABOBO","2003","Venezuela","xpadron1@yahoo.com","582418324110","","","","","","","","","","","","ns69.domaincontrol.com","ns70.domaincontrol.com","","","clientDeleteProhibited","clientRenewProhibited","clientTransferProhibited","clientUpdateProhibited"
"11","spartauniformes.com","2018-10-15 15:47:42","2018-10-14","2018-10-14","2019-10-14","146","GoDaddy.com, LLC","whois.godaddy.com","http://registrar.godaddy.com","","","","","Lara","","Venezuela","","","","","","","","","","","","","","","","","","","","","","","","","","","","","","","","","","ns1.lightcreativity.com","ns2.lightcreativity.com","","","clientDeleteProhibited","clientRenewProhibited","clientTransferProhibited","clientUpdateProhibited"