"num","domain_name","query_time","create_date","update_date","expiry_date","domain_registrar_id","domain_registrar_name","domain_registrar_whois","domain_registrar_url","registrant_name","registrant_company","registrant_address","registrant_city","registrant_state","registrant_zip","registrant_country","registrant_email","registrant_phone","registrant_fax","administrative_name","administrative_company","administrative_address","administrative_city","administrative_state","administrative_zip","administrative_country","administrative_email","administrative_phone","administrative_fax","technical_name","technical_company","technical_address","technical_city","technical_state","technical_zip","technical_country","technical_email","technical_phone","technical_fax","billing_name","billing_company","billing_address","billing_city","billing_state","billing_zip","billing_country","billing_email","billing_phone","billing_fax","name_server_1","name_server_2","name_server_3","name_server_4","domain_status_1","domain_status_2","domain_status_3","domain_status_4"
"1","altinoluktatesisat.com","2018-10-11 18:05:26","2018-10-10","2018-10-10","2019-10-10","1636","Hostinger, UAB","whois.hostinger.com","http://www.hostinger.com","HUSEYIN ADEKA","HUSEYIN ADEKA","Pinar Mah. Camlibel Cad. No:102","Istanbul","Sariyer","34406","Turkey","adekahuseyin@gmail.com","+90.5383175973","","HUSEYIN ADEKA","HUSEYIN ADEKA","Pinar Mah. Camlibel Cad. No:102","Istanbul","Sariyer","34406","Turkey","adekahuseyin@gmail.com","+90.5383175973","","HUSEYIN ADEKA","HUSEYIN ADEKA","Pinar Mah. Camlibel Cad. No:102","Istanbul","Sariyer","34406","Turkey","adekahuseyin@gmail.com","+90.5383175973","","","","","","","","","","","","ns17.guzelhosting.com","ns18.guzelhosting.com","","","clientTransferProhibited","","",""
"2","canto.ltd","2018-10-15 17:44:48","2018-10-10","2018-10-15","2023-10-10","1556","Chengdu West Dimension Digital Technology Co., Ltd.","whois.west263.com","http://www.west263.com","Xu Bo Liang","Zhu Hai Yu Pin Yan Zhuang Mao Yi You Xian Gong Si","Guang Dong Sheng Zhu Hai Shi Xiang Zhou Qu","Zhu Hai Shi","GD","519000","China","xubo9009@qq.com","+86.2862778877","+86.7563359009","Xu Bo Liang","Xu Bo Liang","Guang Dong Sheng Zhu Hai Shi Xiang Zhou Qu","Zhu Hai Shi","GD","519000","China","xubo9009@qq.com","+86.2862778877","+86.7563359009","Xu Bo Liang","Xu Bo Liang","Guang Dong Sheng Zhu Hai Shi Xiang Zhou Qu","Zhu Hai Shi","GD","519000","China","xubo9009@qq.com","+86.2862778877","+86.7563359009","","","","","","","","","","","","","","","OK","","",""
"3","cftpj.com","2018-10-15 17:44:17","2018-10-10","2018-10-15","2019-10-10","420","HiChina Zhicheng Technology Limited","grs-whois.hichina.com","http://www.net.cn","","","","","Guangdong","","","","","","","","","","","","","","","","","","","","","","","","","","","","","","","","","","","","dns10.hichina.com","dns9.hichina.com","","","OK","","",""
"4","dingenxinuan.com","2018-10-15 18:30:26","2018-10-10","2018-10-10","2023-10-10","120","Xin Net Technology Corporation","whois.paycenter.com.cn","http://www.xinnet.com","muhaitao","muhaitao","Intersection of Changjiang RoadHong Xi Road, Wujin District, Changzhou, Jiangsu","changzhoushi","jiangsusheng","213000","China","769112022@qq.com","+86.51986539308","+86.51986539308","muhaitao","muhaitao","Intersection of Changjiang RoadHong Xi Road, Wujin District, Changzhou, Jiangsu","changzhoushi","jiangsusheng","213000","China","769112022@qq.com","+86.51986539308","+86.51986539308","muhaitao","muhaitao","Intersection of Changjiang RoadHong Xi Road, Wujin District, Changzhou, Jiangsu","changzhoushi","jiangsusheng","","China","769112022@qq.com","+86.51986539308","+86.51986539308","","","","","","","","","","","ns11.xincache.com","ns12.xincache.com","","","clientHold","","",""
"5","eic-logistics.com","2018-10-15 18:01:00","2018-10-10","2018-10-15","2019-10-10","420","HiChina Zhicheng Technology Limited","grs-whois.hichina.com","http://www.net.cn","","","","","MO","","","","","","","","","","","","","","","","","","","","","","","","","","","","","","","","","","","","dns1.hichina.com","dns2.hichina.com","","","OK","","",""
"6","graceinthedirt.com","2018-10-11 18:56:40","2018-10-10","2018-10-10","2019-10-10","1154","FastDomain Inc.","whois.fastdomain.com","http://www.fastdomain.com","DOMAIN PRIVACY SERVICE FBO REGISTRANT","THE ENDURANCE INTERNATIONAL GROUP, INC.","10 CORPORATE DR, STE 300","BURLINGTON","MASSACHUSETTS","01803","United States","whois@bluehost.com","+1.8017659400","","DOMAIN PRIVACY SERVICE FBO REGISTRANT","THE ENDURANCE INTERNATIONAL GROUP, INC.","10 CORPORATE DR, STE 300","BURLINGTON","MASSACHUSETTS","01803","United States","whois@bluehost.com","+1.8017659400","","DOMAIN PRIVACY SERVICE FBO REGISTRANT","THE ENDURANCE INTERNATIONAL GROUP, INC.","10 CORPORATE DR, STE 300","BURLINGTON","MASSACHUSETTS","01803","United States","whois@bluehost.com","+1.8017659400","","","","","","","","","","","","ns1.bluehost.com","ns2.bluehost.com","","","clientTransferProhibited","","",""
"7","hatmail.space","2018-10-15 11:35:40","2018-10-10","2018-10-15","2019-10-10","1110","FBS Inc.","whois.isimtescil.net","http://www.isimtescil.net","FBS INC / Whoisprotection.biz","FBS INC / Whoisprotection.biz","","","Istanbul","","Turkey","","","","","","","","","","","","","","","","","","","","","","","","","","","","","","","","","","eu.dnsenable.com","tr.dnsenable.com","us.dnsenable.com","","serverTransferProhibited","","",""
"8","hofmeister.team","2018-10-10 18:14:35","2018-10-10","2018-10-10","2019-10-10","141","Cronon AG","whois.cronon.net","http://www.cronon.net","REDACTED FOR PRIVACY","","REDACTED FOR PRIVACY","REDACTED FOR PRIVACY","","REDACTED FOR PRIVACY","Germany","","REDACTED FOR PRIVACY","REDACTED FOR PRIVACY","","","","","","","","","","","","","","","","","","","","","","","","","","","","","","","","","","","addPeriod","","",""
"9","jovitouch.com","2018-10-15 17:00:36","2018-10-10","2018-10-10","2019-10-10","2910","Beijing Brandma International Networking Technology, LTD","","","Zhang Frank","vivo Mobile Communication Co., Ltd","Guangdong Province Dongguan city Changan town BBK Road No283","GUANGZHOUSHI","","523860","CHINA","domain@vivo.com","+86.18680349630","","Zhang Frank","vivo Mobile Communication Co., Ltd","Guangdong Province Dongguan city Changan town BBK Road No283","GUANGZHOUSHI","","523860","CHINA","domain@vivo.com","+86.18680349630","","Zhang Frank","vivo Mobile Communication Co., Ltd","Guangdong Province Dongguan city Changan town BBK Road No283","GUANGZHOUSHI","","523860","CHINA","domain@vivo.com","+86.18680349630","","Zhang Frank","vivo Mobile Communication Co., Ltd","Guangdong Province Dongguan city Changan town BBK Road No283","GUANGZHOUSHI","","523860","CHINA","domain@vivo.com","+86.18680349630","","ns1.brandcloudns.com","ns2.brandcloudns.com","ns3.brandcloudns.com","","Locale","clientDeleteProhibited","clientTransferProhibited","clientUpdateProhibited"
"10","pengwenlong.club","2018-10-15 16:59:22","2018-10-10","2018-10-15","2019-10-10","120","Xin Net Technology Corporation","whois.paycenter.com.cn","http://www.xinnet.com","pengwenlong","pengwenlong","jiangshunantongrugao","BeiJing","jiangshu","226000","China","153092422@qq.com","86 51384312557","86 51384312557","pengwenlong","pengwenlong","jiangshunantongrugao","BeiJing","jiangshu","226000","China","153092422@qq.com","86 0","86 0","pengwenlong","pengwenlong","jiangshunantongrugao","BeiJing","jiangshu","226000","China","153092422@qq.com","86 0","86 0","","","","","","","","","","","f1g1ns1.dnspod.net","f1g1ns2.dnspod.net","","","clientTransferProhibited","clientUpdateProhibited","",""
"11","propertytest.icu","2018-10-15 11:33:51","2018-10-10","2018-10-10","2019-10-10","1068","NameCheap, Inc.","whois.namecheap.com","http://www.namecheap.com","WhoisGuard, Inc.","WhoisGuard, Inc.","","","Panama","","Panama","","","","","","","","","","","","","","","","","","","","","","","","","","","","","","","","","","dns1.registrar-servers.com","dns2.registrar-servers.com","","","addPeriod","clientTransferProhibited","serverTransferProhibited",""
"12","revisionssichere.com","2018-10-11 17:38:11","2018-10-10","2018-10-10","2019-10-10","1154","FastDomain Inc.","whois.fastdomain.com","http://www.fastdomain.com","DOMAIN PRIVACY SERVICE FBO REGISTRANT","THE ENDURANCE INTERNATIONAL GROUP, INC.","10 CORPORATE DR, STE 300","BURLINGTON","MASSACHUSETTS","01803","United States","whois@bluehost.com","+1.8017659400","","DOMAIN PRIVACY SERVICE FBO REGISTRANT","THE ENDURANCE INTERNATIONAL GROUP, INC.","10 CORPORATE DR, STE 300","BURLINGTON","MASSACHUSETTS","01803","United States","whois@bluehost.com","+1.8017659400","","DOMAIN PRIVACY SERVICE FBO REGISTRANT","THE ENDURANCE INTERNATIONAL GROUP, INC.","10 CORPORATE DR, STE 300","BURLINGTON","MASSACHUSETTS","01803","United States","whois@bluehost.com","+1.8017659400","","","","","","","","","","","","ns1.bluehost.com","ns2.bluehost.com","","","clientTransferProhibited","","",""
"13","suishouli.store","2018-10-15 17:16:32","2018-10-10","2018-10-15","2019-10-10","1605","Chengdu Fly-Digital Technology Co., Ltd","whois.sudu.cn","http://www.sudu.cn","hongzhe xu","beijinghongmoke jiyouxiangongsi","bei jing tong zhou qu jiu ke shu xi lu 92 hao","beijing","Beijing","101121","China","pandagx@qq.com","+86.01080876664","","hongzhe xu","beijinghongmoke jiyouxiangongsi","bei jing tong zhou qu jiu ke shu xi lu 92 hao","beijing","Beijing","101121","China","pandagx@qq.com","+86.01080876664","","hongzhe xu","beijinghongmoke jiyouxiangongsi","bei jing tong zhou qu jiu ke shu xi lu 92 hao","beijing","Beijing","101121","China","pandagx@qq.com","+86.01080876664","","hongzhe xu","beijinghongmoke jiyouxiangongsi","bei jing tong zhou qu jiu ke shu xi lu 92 hao","beijing","Beijing","101121","China","pandagx@qq.com","+86.01080876664","","ns11.bigwww.com","ns12.bigwww.com","ns13.bigwww.com","ns14.bigwww.com","serverTransferProhibited","","",""
"14","videozal.biz","2018-10-15 17:20:55","2018-10-10","2018-10-15","2019-10-10","1564","TLD Registrar Solutions Ltd.","whois.tldregistrarsolutions.com","http://www.tldregistrarsolutions.com","Whois Privacy Corp.","Whois Privacy Corp.","","","New Providence","","Bahamas","","","","","","","","","","","","","","","","","","","","","","","","","","","","","","","","","","marty.ns.cloudflare.com","tegan.ns.cloudflare.com","","","clientTransferProhibited","","",""
"15","wnmotorb2b.com","2018-10-15 16:45:47","2018-10-10","2018-10-10","2028-10-10","120","Xin Net Technology Corporation","whois.paycenter.com.cn","http://www.xinnet.com","ZhaoYi","Anhui Wannan Electric Machine Co., Ltd","No. 86 south NanHua road, jingxian county, xuancheng city, anhui province","xuanchengshi","anhuisheng","242500","China","jx_zhaoyi@126.com","+86.5635031931","+86.5635031931","ZhaoYi","Anhui Wannan Electric Machine Co., Ltd","No. 86 south NanHua road, jingxian county, xuancheng city, anhui province","xuanchengshi","anhuisheng","242500","China","jx_zhaoyi@126.com","+86.5635031931","+86.5635031931","ZhaoYi","Anhui Wannan Electric Machine Co., Ltd","No. 86 south NanHua road, jingxian county, xuancheng city, anhui province","xuanchengshi","anhuisheng","","China","jx_zhaoyi@126.com","+86.5635031931","+86.5635031931","","","","","","","","","","","ns11.xincache.com","ns12.xincache.com","","","clientHold","","",""
"16","wnmtechnology.com","2018-10-15 16:51:02","2018-10-10","2018-10-10","2028-10-10","120","Xin Net Technology Corporation","whois.paycenter.com.cn","http://www.xinnet.com","ZhaoYi","Anhui Wannan Electric Machine Co., Ltd","No. 86 south NanHua road, jingxian county, xuancheng city, anhui province","xuanchengshi","anhuisheng","242500","China","jx_zhaoyi@126.com","+86.5635031931","+86.5635031931","ZhaoYi","Anhui Wannan Electric Machine Co., Ltd","No. 86 south NanHua road, jingxian county, xuancheng city, anhui province","xuanchengshi","anhuisheng","242500","China","jx_zhaoyi@126.com","+86.5635031931","+86.5635031931","ZhaoYi","Anhui Wannan Electric Machine Co., Ltd","No. 86 south NanHua road, jingxian county, xuancheng city, anhui province","xuanchengshi","anhuisheng","","China","jx_zhaoyi@126.com","+86.5635031931","+86.5635031931","","","","","","","","","","","ns11.xincache.com","ns12.xincache.com","","","clientHold","","",""
"17","xuzy.club","2018-10-15 16:05:20","2018-10-10","2018-10-15","2019-10-10","120","Xin Net Technology Corporation","whois.paycenter.com.cn","http://www.xinnet.com","XU zhenyin","XUZHENYIN","waigaoqiaotinganlu825nong","pudongxinqu","shanghaishi","200137","China","1050146516@qq.com","+86.2161279372","+86.2161279372","XU zhenyin","XUZHENYIN","waigaoqiaotinganlu825nong","pudongxinqu","shanghaishi","200137","China","1050146516@qq.com","+86.2161279372","+86.2161279372","XU zhenyin","XUZHENYIN","waigaoqiaotinganlu825nong","pudongxinqu","shanghaishi","","China","1050146516@qq.com","+86.2161279372","+86.2161279372","","","","","","","","","","","f1g1ns1.dnspod.net","f1g1ns2.dnspod.net","","","OK","","",""