"num","domain_name","query_time","create_date","update_date","expiry_date","domain_registrar_id","domain_registrar_name","domain_registrar_whois","domain_registrar_url","registrant_name","registrant_company","registrant_address","registrant_city","registrant_state","registrant_zip","registrant_country","registrant_email","registrant_phone","registrant_fax","administrative_name","administrative_company","administrative_address","administrative_city","administrative_state","administrative_zip","administrative_country","administrative_email","administrative_phone","administrative_fax","technical_name","technical_company","technical_address","technical_city","technical_state","technical_zip","technical_country","technical_email","technical_phone","technical_fax","billing_name","billing_company","billing_address","billing_city","billing_state","billing_zip","billing_country","billing_email","billing_phone","billing_fax","name_server_1","name_server_2","name_server_3","name_server_4","domain_status_1","domain_status_2","domain_status_3","domain_status_4"
"1","alphazulusar.com","2018-10-15 17:41:28","2018-10-15","2018-10-15","2019-10-15","52","Deluxe Small Business Sales, Inc. d/b/a Aplus.net","whois.names4ever.com","http://www.aplus.net","TJ Morrow","","13885 S 1300 W","Bluffdale","UT","84065","United States","tcrmorrow@gmail.com","+1.8019959536","","TJ Morrow","","13885 S 1300 W","Bluffdale","UT","84065","United States","tcrmorrow@gmail.com","+1.8019959536","","Aplus.net Internet Services","aplus.net","110 East Broward Boulevard Suite 1650","Fort Lauderdale","FL","33301","United States","dns@cs.aplus.net","+1.8772758763","","","","","","","","","","","","ns1.aplus.net","ns2.aplus.net","ns3.aplus.net","","OK","","",""
"2","deliveringutah.com","2018-10-15 18:16:03","2018-10-15","2018-10-15","2019-10-15","52","Deluxe Small Business Sales, Inc. d/b/a Aplus.net","whois.names4ever.com","http://www.aplus.net","TJ Morrow","","13885 S 1300 W","Bluffdale","UT","84065","United States","tcrmorrow@gmail.com","+1.8019959536","","TJ Morrow","","13885 S 1300 W","Bluffdale","UT","84065","United States","tcrmorrow@gmail.com","+1.8019959536","","Aplus.net Internet Services","aplus.net","110 East Broward Boulevard Suite 1650","Fort Lauderdale","FL","33301","United States","dns@cs.aplus.net","+1.8772758763","","","","","","","","","","","","ns1.meganameservers.com","ns2.meganameservers.com","ns3.meganameservers.com","","OK","","",""
"3","factoringfreight.net","2018-10-15 16:54:40","2018-10-13","2018-10-13","2019-10-13","52","Deluxe Small Business Sales, Inc. d/b/a Aplus.net","whois.names4ever.com","http://www.aplus.net","Brad BCI","","501 Morgan hwy NONE","South Abington","AL","18411","United States","brad@bluegobi.com","+1.5704999696","","Brad BCI","","501 Morgan hwy NONE","South Abington","AL","18411","United States","brad@bluegobi.com","+1.5704999696","","Aplus.net Internet Services","aplus.net","110 East Broward Boulevard Suite 1650","Fort Lauderdale","FL","33301","United States","dns@cs.aplus.net","+1.8772758763","","","","","","","","","","","","ns1.aplus.net","ns2.aplus.net","ns3.aplus.net","","OK","","",""
"4","factoringloan.net","2018-10-15 18:27:29","2018-10-13","2018-10-13","2019-10-13","52","Deluxe Small Business Sales, Inc. d/b/a Aplus.net","whois.names4ever.com","http://www.aplus.net","Brad BCI","","501 Morgan hwy NONE","South Abington","AL","18411","United States","brad@bluegobi.com","+1.5704999696","","Brad BCI","","501 Morgan hwy NONE","South Abington","AL","18411","United States","brad@bluegobi.com","+1.5704999696","","Aplus.net Internet Services","aplus.net","110 East Broward Boulevard Suite 1650","Fort Lauderdale","FL","33301","United States","dns@cs.aplus.net","+1.8772758763","","","","","","","","","","","","ns1.aplus.net","ns2.aplus.net","ns3.aplus.net","","OK","","",""
"5","factoringtrucking.net","2018-10-15 17:54:18","2018-10-13","2018-10-13","2019-10-13","52","Deluxe Small Business Sales, Inc. d/b/a Aplus.net","whois.names4ever.com","http://www.aplus.net","Brad BCI","","501 Morgan hwy NONE","South Abington","AL","18411","United States","brad@bluegobi.com","+1.5704999696","","Brad BCI","","501 Morgan hwy NONE","South Abington","AL","18411","United States","brad@bluegobi.com","+1.5704999696","","Aplus.net Internet Services","aplus.net","110 East Broward Boulevard Suite 1650","Fort Lauderdale","FL","33301","United States","dns@cs.aplus.net","+1.8772758763","","","","","","","","","","","","ns1.aplus.net","ns2.aplus.net","ns3.aplus.net","","OK","","",""
"6","fieldarms.net","2018-10-15 16:17:23","2018-10-14","2018-10-15","2019-10-14","52","Deluxe Small Business Sales, Inc. d/b/a Aplus.net","whois.names4ever.com","http://www.aplus.net","Private Registration","SyncSuite LLC","110 East Broward Boulevard, Suite 1650","Fort Lauderdale","FL","33301","United States","fieldarms.net@domainlistingagent.com","+1.8556242611","","Private Registration","SyncSuite LLC","110 East Broward Boulevard, Suite 1650","Fort Lauderdale","FL","33301","United States","fieldarms.net@domainlistingagent.com","+1.8556242611","","Private Registration","SyncSuite LLC","110 East Broward Boulevard, Suite 1650","Fort Lauderdale","FL","33301","United States","fieldarms.net@domainlistingagent.com","+1.8556242611","","","","","","","","","","","","ns1.aplus.net","ns2.aplus.net","ns3.aplus.net","","OK","","",""
"7","freightfactoringservice.net","2018-10-15 15:56:24","2018-10-13","2018-10-13","2019-10-13","52","Deluxe Small Business Sales, Inc. d/b/a Aplus.net","whois.names4ever.com","http://www.aplus.net","Brad BCI","","501 Morgan hwy NONE","South Abington","AL","18411","United States","brad@bluegobi.com","+1.5704999696","","Brad BCI","","501 Morgan hwy NONE","South Abington","AL","18411","United States","brad@bluegobi.com","+1.5704999696","","Aplus.net Internet Services","aplus.net","110 East Broward Boulevard Suite 1650","Fort Lauderdale","FL","33301","United States","dns@cs.aplus.net","+1.8772758763","","","","","","","","","","","","ns1.aplus.net","ns2.aplus.net","ns3.aplus.net","","OK","","",""
"8","heidibadger.com","2018-10-15 17:20:30","2018-10-14","2018-10-14","2019-10-14","52","Deluxe Small Business Sales, Inc. d/b/a Aplus.net","whois.names4ever.com","http://www.aplus.net","Richard Engen","","3535 Woodbury CT S","Fargo","AL","58103","United States","richardwengen@gmail.com","+1.7013611590","","Richard Engen","","3535 Woodbury CT S","Fargo","AL","58103","United States","richardwengen@gmail.com","+1.7013611590","","Aplus.net Internet Services","aplus.net","110 East Broward Boulevard Suite 1650","Fort Lauderdale","FL","33301","United States","dns@cs.aplus.net","+1.8772758763","","","","","","","","","","","","ns1.aplus.net","ns2.aplus.net","ns3.aplus.net","","OK","","",""
"9","i2iserver.com","2018-10-15 17:03:05","2018-10-14","2018-10-14","2019-10-14","52","Deluxe Small Business Sales, Inc. d/b/a Aplus.net","whois.names4ever.com","http://www.aplus.net","William Ramirez","I2I Productions","PO Box 262","Cedarville","CA","96104","United States","bee@i2iproductions.com","+1.5306001785","+1.8442710915","William Ramirez","I2I Productions","PO Box 262","Cedarville","CA","96104","United States","bee@i2iproductions.com","+1.5306001785","+1.8442710915","William Ramirez","I2I Productions","PO Box 262","Cedarville","CA","96104","United States","bee@i2iproductions.com","+1.5306001785","+1.8442710915","","","","","","","","","","","ns1.vultr.com","ns2.vultr.com","","","clientTransferProhibited","","",""
"10","jamaican-paradise.com","2018-10-15 16:34:38","2018-10-14","2018-10-14","2019-10-14","52","Deluxe Small Business Sales, Inc. d/b/a Aplus.net","whois.names4ever.com","http://www.aplus.net","TheNetWorksNow TheNetWorksNow","","6900 Cliffdale Rd","Fayetteville","NC","28314","United States","info@tnwn.net","+1.8883967771","+1.8772707996","TheNetWorksNow TheNetWorksNow","","6900 Cliffdale Rd","Fayetteville","NC","28314","United States","info@tnwn.net","+1.8883967771","+1.8772707996","Aplus.net Internet Services","aplus.net","110 East Broward Boulevard Suite 1650","Fort Lauderdale","FL","33301","United States","dns@cs.aplus.net","+1.8772758763","","","","","","","","","","","","ns1.aplus.net","ns2.aplus.net","ns3.aplus.net","","OK","","",""
"11","plasma4energy.com","2018-10-15 17:29:21","2018-10-15","2018-10-15","2019-10-15","52","Deluxe Small Business Sales, Inc. d/b/a Aplus.net","whois.names4ever.com","http://www.aplus.net","Paul Russ","Personal","122 Blackburns Ford Drive","Stepehens City","AL","22655","United States","pauleruss@gmail.com","+1.5712782001","","Paul Russ","Personal","122 Blackburns Ford Drive","Stepehens City","AL","22655","United States","pauleruss@gmail.com","+1.5712782001","","Aplus.net Internet Services","aplus.net","110 East Broward Boulevard Suite 1650","Fort Lauderdale","FL","33301","United States","dns@cs.aplus.net","+1.8772758763","","","","","","","","","","","","ns1.aplus.net","ns2.aplus.net","ns3.aplus.net","","OK","","",""
"12","presentingutah.com","2018-10-15 17:35:25","2018-10-15","2018-10-15","2019-10-15","52","Deluxe Small Business Sales, Inc. d/b/a Aplus.net","whois.names4ever.com","http://www.aplus.net","TJ Morrow","","13885 S 1300 W","Bluffdale","UT","84065","United States","tcrmorrow@gmail.com","+1.8019959536","","TJ Morrow","","13885 S 1300 W","Bluffdale","UT","84065","United States","tcrmorrow@gmail.com","+1.8019959536","","Aplus.net Internet Services","aplus.net","110 East Broward Boulevard Suite 1650","Fort Lauderdale","FL","33301","United States","dns@cs.aplus.net","+1.8772758763","","","","","","","","","","","","ns1.aplus.net","ns2.aplus.net","ns3.aplus.net","","OK","","",""
"13","prideplumbing247.com","2018-10-15 18:07:09","2018-10-15","2018-10-15","2019-10-15","52","Deluxe Small Business Sales, Inc. d/b/a Aplus.net","whois.names4ever.com","http://www.aplus.net","Sarkis Muradyan","Pride Plumbing","12164 LULL STREET","North Hollywood","CA","91605","United States","sarkismuradyan@yahoo.com","+1.8184331691","","Sarkis Muradyan","Pride Plumbing","12164 LULL STREET","North Hollywood","CA","91605","United States","sarkismuradyan@yahoo.com","+1.8184331691","","Aplus.net Internet Services","aplus.net","110 East Broward Boulevard Suite 1650","Fort Lauderdale","FL","33301","United States","dns@cs.aplus.net","+1.8772758763","","","","","","","","","","","","ns1.aplus.net","ns2.aplus.net","ns3.aplus.net","","OK","","",""
"14","truthandbeauty.net","2018-10-15 16:01:50","2018-10-14","2018-10-14","2019-10-14","52","Deluxe Small Business Sales, Inc. d/b/a Aplus.net","whois.names4ever.com","http://www.aplus.net","Eric Love","","12666 Louise Lane","Garden Grove","CA","92841","United States","eric@ericlove.net","+1.7149330917","","Eric Love","","12666 Louise Lane","Garden Grove","CA","92841","United States","eric@ericlove.net","+1.7149330917","","Aplus.net Internet Services","aplus.net","110 East Broward Boulevard Suite 1650","Fort Lauderdale","FL","33301","United States","dns@cs.aplus.net","+1.8772758763","","","","","","","","","","","","ns1.aplus.net","ns2.aplus.net","ns3.aplus.net","","OK","","",""
"15","truthandbeautysalons.net","2018-10-15 17:23:49","2018-10-14","2018-10-14","2019-10-14","52","Deluxe Small Business Sales, Inc. d/b/a Aplus.net","whois.names4ever.com","http://www.aplus.net","Eric Love","","12666 Louise Lane","Garden Grove","CA","92841","United States","eric@ericlove.net","+1.7149330917","","Eric Love","","12666 Louise Lane","Garden Grove","CA","92841","United States","eric@ericlove.net","+1.7149330917","","Aplus.net Internet Services","aplus.net","110 East Broward Boulevard Suite 1650","Fort Lauderdale","FL","33301","United States","dns@cs.aplus.net","+1.8772758763","","","","","","","","","","","","ns1.meganameservers.com","ns2.meganameservers.com","ns3.meganameservers.com","","OK","","",""
"16","truthandbeautysalonsuites.net","2018-10-15 16:59:31","2018-10-14","2018-10-14","2019-10-14","52","Deluxe Small Business Sales, Inc. d/b/a Aplus.net","whois.names4ever.com","http://www.aplus.net","Eric Love","","12666 Louise Lane","Garden Grove","CA","92841","United States","eric@ericlove.net","+1.7149330917","","Eric Love","","12666 Louise Lane","Garden Grove","CA","92841","United States","eric@ericlove.net","+1.7149330917","","Aplus.net Internet Services","aplus.net","110 East Broward Boulevard Suite 1650","Fort Lauderdale","FL","33301","United States","dns@cs.aplus.net","+1.8772758763","","","","","","","","","","","","ns1.meganameservers.com","ns2.meganameservers.com","ns3.meganameservers.com","","OK","","",""