"num","domain_name","query_time","create_date","update_date","expiry_date","domain_registrar_id","domain_registrar_name","domain_registrar_whois","domain_registrar_url","registrant_name","registrant_company","registrant_address","registrant_city","registrant_state","registrant_zip","registrant_country","registrant_email","registrant_phone","registrant_fax","administrative_name","administrative_company","administrative_address","administrative_city","administrative_state","administrative_zip","administrative_country","administrative_email","administrative_phone","administrative_fax","technical_name","technical_company","technical_address","technical_city","technical_state","technical_zip","technical_country","technical_email","technical_phone","technical_fax","billing_name","billing_company","billing_address","billing_city","billing_state","billing_zip","billing_country","billing_email","billing_phone","billing_fax","name_server_1","name_server_2","name_server_3","name_server_4","domain_status_1","domain_status_2","domain_status_3","domain_status_4"
"1","artreseller.com","2018-10-15 17:30:43","2018-10-14","2018-10-14","2019-10-14","1660","Domainshype.com, Inc.","whois.domainshype.com","http://www.domainshype.com","This Domain For Sale Worldwide 339 222 5132","Buydomains.com","738 Main Street, #389","Waltham","Massachusetts","02451","United States","brokerage@buydomains.com","+1.3392225132","+1.7818392801","This Domain For Sale Worldwide 339 222 5132","Buydomains.com","738 Main Street, #389","Waltham","Massachusetts","02451","United States","brokerage@buydomains.com","+1.3392225132","+1.7818392801","This Domain For Sale Worldwide 339 222 5132","Buydomains.com","738 Main Street, #389","Waltham","Massachusetts","02451","United States","brokerage@buydomains.com","+1.3392225132","+1.7818392801","","","","","","","","","","","ns.buydomains.com","this-domain-for-sale.com","","","clientTransferProhibited","","",""
"2","bbgphotography.com","2018-10-15 17:06:22","2018-10-14","2018-10-14","2019-10-14","1660","Domainshype.com, Inc.","whois.domainshype.com","http://www.domainshype.com","This Domain For Sale Worldwide 339 222 5132","Buydomains.com","738 Main Street, #389","Waltham","Massachusetts","02451","United States","brokerage@buydomains.com","+1.3392225132","+1.7818392801","This Domain For Sale Worldwide 339 222 5132","Buydomains.com","738 Main Street, #389","Waltham","Massachusetts","02451","United States","brokerage@buydomains.com","+1.3392225132","+1.7818392801","This Domain For Sale Worldwide 339 222 5132","Buydomains.com","738 Main Street, #389","Waltham","Massachusetts","02451","United States","brokerage@buydomains.com","+1.3392225132","+1.7818392801","","","","","","","","","","","ns.buydomains.com","this-domain-for-sale.com","","","clientTransferProhibited","","",""
"3","bedbugs-solution.com","2018-10-15 18:04:17","2018-10-14","2018-10-14","2019-10-14","1660","Domainshype.com, Inc.","whois.domainshype.com","http://www.domainshype.com","Mohammed Imran","","Buyerchoice03","Chennai","Tamil Nadu","600014","India","buyerchoice03@gmail.com","+91.9941382550","","Mohammed Imran","","Buyerchoice03","Chennai","Tamil Nadu","600014","India","buyerchoice03@gmail.com","+91.9941382550","","Mohammed Imran","","Buyerchoice03","Chennai","Tamil Nadu","600014","India","buyerchoice03@gmail.com","+91.9941382550","","","","","","","","","","","","ns1.sgp40.siteground.asia","ns2.sgp40.siteground.asia","","","clientTransferProhibited","","",""
"4","beershopy.com","2018-10-15 16:32:12","2018-10-14","2018-10-14","2019-10-14","1660","Domainshype.com, Inc.","whois.domainshype.com","http://www.domainshype.com","Domain Admin","Privacy Protect, LLC (PrivacyProtect.org)","10 Corporate Drive","Burlington","MA","01803","United States","contact@privacyprotect.org","+1.8022274003","","Domain Admin","Privacy Protect, LLC (PrivacyProtect.org)","10 Corporate Drive","Burlington","MA","01803","United States","contact@privacyprotect.org","+1.8022274003","","Domain Admin","Privacy Protect, LLC (PrivacyProtect.org)","10 Corporate Drive","Burlington","MA","01803","United States","contact@privacyprotect.org","+1.8022274003","","","","","","","","","","","","dns1.bluehost.in","dns2.bluehost.in","dns3.bluehost.in","dns4.bluehost.in","clientTransferProhibited","","",""
"5","bharimobile.com","2018-10-15 16:47:31","2018-10-14","2018-10-14","2019-10-14","1660","Domainshype.com, Inc.","whois.domainshype.com","http://www.domainshype.com","Domain Admin","Privacy Protect, LLC (PrivacyProtect.org)","10 Corporate Drive","Burlington","MA","01803","United States","contact@privacyprotect.org","+1.8022274003","","Domain Admin","Privacy Protect, LLC (PrivacyProtect.org)","10 Corporate Drive","Burlington","MA","01803","United States","contact@privacyprotect.org","+1.8022274003","","Domain Admin","Privacy Protect, LLC (PrivacyProtect.org)","10 Corporate Drive","Burlington","MA","01803","United States","contact@privacyprotect.org","+1.8022274003","","","","","","","","","","","","dns1.bluehost.in","dns2.bluehost.in","dns3.bluehost.in","dns4.bluehost.in","clientTransferProhibited","","",""
"6","buyfreshdata.net","2018-10-15 17:08:14","2018-10-14","2018-10-14","2019-10-14","1660","Domainshype.com, Inc.","whois.domainshype.com","http://www.domainshype.com","Daf","paratwada.net","amravati","amravati","Maharashtra","444805","India","dafdxb@gmail.com","+91.7773993332","","Daf","paratwada.net","amravati","amravati","Maharashtra","444805","India","dafdxb@gmail.com","+91.7773993332","","Daf","paratwada.net","amravati","amravati","Maharashtra","444805","India","dafdxb@gmail.com","+91.7773993332","","","","","","","","","","","","ns1.bh-in-30.webhostbox.net","ns2.bh-in-30.webhostbox.net","","","clientTransferProhibited","","",""
"7","caremuktisoftware.com","2018-10-15 17:23:34","2018-10-14","2018-10-14","2021-10-14","1660","Domainshype.com, Inc.","whois.domainshype.com","http://www.domainshype.com","Domain Admin","Privacy Protect, LLC (PrivacyProtect.org)","10 Corporate Drive","Burlington","MA","01803","United States","contact@privacyprotect.org","+1.8022274003","","Domain Admin","Privacy Protect, LLC (PrivacyProtect.org)","10 Corporate Drive","Burlington","MA","01803","United States","contact@privacyprotect.org","+1.8022274003","","Domain Admin","Privacy Protect, LLC (PrivacyProtect.org)","10 Corporate Drive","Burlington","MA","01803","United States","contact@privacyprotect.org","+1.8022274003","","","","","","","","","","","","ns1.md-in-47.webhostbox.net","ns2.md-in-47.webhostbox.net","","","clientTransferProhibited","","",""
"8","cocktailwala.com","2018-10-15 17:00:11","2018-10-14","2018-10-14","2019-10-14","1660","Domainshype.com, Inc.","whois.domainshype.com","http://www.domainshype.com","Domain Admin","Privacy Protect, LLC (PrivacyProtect.org)","10 Corporate Drive","Burlington","MA","01803","United States","contact@privacyprotect.org","+1.8022274003","","Domain Admin","Privacy Protect, LLC (PrivacyProtect.org)","10 Corporate Drive","Burlington","MA","01803","United States","contact@privacyprotect.org","+1.8022274003","","Domain Admin","Privacy Protect, LLC (PrivacyProtect.org)","10 Corporate Drive","Burlington","MA","01803","United States","contact@privacyprotect.org","+1.8022274003","","","","","","","","","","","","dns1.bluehost.in","dns2.bluehost.in","dns3.bluehost.in","dns4.bluehost.in","clientTransferProhibited","","",""
"9","darucart.com","2018-10-15 16:01:59","2018-10-14","2018-10-14","2019-10-14","1660","Domainshype.com, Inc.","whois.domainshype.com","http://www.domainshype.com","Domain Admin","Privacy Protect, LLC (PrivacyProtect.org)","10 Corporate Drive","Burlington","MA","01803","United States","contact@privacyprotect.org","+1.8022274003","","Domain Admin","Privacy Protect, LLC (PrivacyProtect.org)","10 Corporate Drive","Burlington","MA","01803","United States","contact@privacyprotect.org","+1.8022274003","","Domain Admin","Privacy Protect, LLC (PrivacyProtect.org)","10 Corporate Drive","Burlington","MA","01803","United States","contact@privacyprotect.org","+1.8022274003","","","","","","","","","","","","dns1.bluehost.in","dns2.bluehost.in","dns3.bluehost.in","dns4.bluehost.in","clientTransferProhibited","","",""
"10","deaconqa.com","2018-10-15 16:51:38","2018-10-14","2018-10-14","2020-10-14","1660","Domainshype.com, Inc.","whois.domainshype.com","http://www.domainshype.com","Domain Admin","Privacy Protect, LLC (PrivacyProtect.org)","10 Corporate Drive","Burlington","MA","01803","United States","contact@privacyprotect.org","+1.8022274003","","Domain Admin","Privacy Protect, LLC (PrivacyProtect.org)","10 Corporate Drive","Burlington","MA","01803","United States","contact@privacyprotect.org","+1.8022274003","","Domain Admin","Privacy Protect, LLC (PrivacyProtect.org)","10 Corporate Drive","Burlington","MA","01803","United States","contact@privacyprotect.org","+1.8022274003","","","","","","","","","","","","ns1.md-in-44.webhostbox.net","ns2.md-in-44.webhostbox.net","","","clientTransferProhibited","","",""
"11","dentalphotographyassociation.com","2018-10-15 16:46:13","2018-10-14","2018-10-14","2023-10-14","1660","Domainshype.com, Inc.","whois.domainshype.com","http://www.domainshype.com","Mayur Davda","Liquid canvas","206,Aum Clinic,Omprakash arcade,Ambedkar garden,Chembur,Mumbai,M aharashtra 400071,","Mumbai","Maharashtra","400071","India","davdamayur@gmail.com","+91.9920420317","","Mayur Davda","Liquid canvas","206,Aum Clinic,Omprakash arcade,Ambedkar garden,Chembur,Mumbai,M aharashtra 400071,","Mumbai","Maharashtra","400071","India","davdamayur@gmail.com","+91.9920420317","","Mayur Davda","Liquid canvas","206,Aum Clinic,Omprakash arcade,Ambedkar garden,Chembur,Mumbai,M aharashtra 400071,","Mumbai","Maharashtra","400071","India","davdamayur@gmail.com","+91.9920420317","","","","","","","","","","","","dns1.hostgator.in","dns2.hostgator.in","dns3.hostgator.in","dns4.hostgator.in","clientTransferProhibited","","",""
"12","dentalphotographyassociation.net","2018-10-15 17:39:48","2018-10-14","2018-10-14","2019-10-14","1660","Domainshype.com, Inc.","whois.domainshype.com","http://www.domainshype.com","Mayur Davda","Liquid canvas","206,Aum Clinic,Omprakash arcade,Ambedkar garden,Chembur,Mumbai,M aharashtra 400071,","Mumbai","Maharashtra","400071","India","davdamayur@gmail.com","+91.9920420317","","Mayur Davda","Liquid canvas","206,Aum Clinic,Omprakash arcade,Ambedkar garden,Chembur,Mumbai,M aharashtra 400071,","Mumbai","Maharashtra","400071","India","davdamayur@gmail.com","+91.9920420317","","Mayur Davda","Liquid canvas","206,Aum Clinic,Omprakash arcade,Ambedkar garden,Chembur,Mumbai,M aharashtra 400071,","Mumbai","Maharashtra","400071","India","davdamayur@gmail.com","+91.9920420317","","","","","","","","","","","","dns1.hostgator.in","dns2.hostgator.in","dns3.hostgator.in","dns4.hostgator.in","clientTransferProhibited","","",""
"13","designscalligraphy.com","2018-10-15 17:13:57","2018-10-14","2018-10-14","2019-10-14","1660","Domainshype.com, Inc.","whois.domainshype.com","http://www.domainshype.com","This Domain For Sale Worldwide 339 222 5132","Buydomains.com","738 Main Street, #389","Waltham","Massachusetts","02451","United States","brokerage@buydomains.com","+1.3392225132","+1.7818392801","This Domain For Sale Worldwide 339 222 5132","Buydomains.com","738 Main Street, #389","Waltham","Massachusetts","02451","United States","brokerage@buydomains.com","+1.3392225132","+1.7818392801","This Domain For Sale Worldwide 339 222 5132","Buydomains.com","738 Main Street, #389","Waltham","Massachusetts","02451","United States","brokerage@buydomains.com","+1.3392225132","+1.7818392801","","","","","","","","","","","ns.buydomains.com","this-domain-for-sale.com","","","clientTransferProhibited","","",""
"14","directdecorations.com","2018-10-15 15:59:25","2018-10-14","2018-10-14","2019-10-14","1660","Domainshype.com, Inc.","whois.domainshype.com","http://www.domainshype.com","This Domain For Sale Worldwide 339 222 5132","Buydomains.com","738 Main Street, #389","Waltham","Massachusetts","02451","United States","brokerage@buydomains.com","+1.3392225132","+1.7818392801","This Domain For Sale Worldwide 339 222 5132","Buydomains.com","738 Main Street, #389","Waltham","Massachusetts","02451","United States","brokerage@buydomains.com","+1.3392225132","+1.7818392801","This Domain For Sale Worldwide 339 222 5132","Buydomains.com","738 Main Street, #389","Waltham","Massachusetts","02451","United States","brokerage@buydomains.com","+1.3392225132","+1.7818392801","","","","","","","","","","","ns.buydomains.com","this-domain-for-sale.com","","","clientTransferProhibited","","",""
"15","echoesoftravel.com","2018-10-15 18:32:38","2018-10-14","2018-10-14","2021-10-14","1660","Domainshype.com, Inc.","whois.domainshype.com","http://www.domainshype.com","Domain Admin","Privacy Protect, LLC (PrivacyProtect.org)","10 Corporate Drive","Burlington","MA","01803","United States","contact@privacyprotect.org","+1.8022274003","","Domain Admin","Privacy Protect, LLC (PrivacyProtect.org)","10 Corporate Drive","Burlington","MA","01803","United States","contact@privacyprotect.org","+1.8022274003","","Domain Admin","Privacy Protect, LLC (PrivacyProtect.org)","10 Corporate Drive","Burlington","MA","01803","United States","contact@privacyprotect.org","+1.8022274003","","","","","","","","","","","","ns1.cp-in-14.webhostbox.net","ns2.cp-in-14.webhostbox.net","","","clientTransferProhibited","","",""
"16","editor-journalajst.com","2018-10-15 16:26:11","2018-10-14","2018-10-14","2019-10-14","1660","Domainshype.com, Inc.","whois.domainshype.com","http://www.domainshype.com","Vasanthi","","kalaigarnagar villupuram","Villupuram","Tamil Nadu","605105","India","dr.mani.vibu@gmail.com","+91.9715636983","","Vasanthi","","kalaigarnagar villupuram","Villupuram","Tamil Nadu","605105","India","dr.mani.vibu@gmail.com","+91.9715636983","","Vasanthi","","kalaigarnagar villupuram","Villupuram","Tamil Nadu","605105","India","dr.mani.vibu@gmail.com","+91.9715636983","","","","","","","","","","","","dns1.hostgator.in","dns2.hostgator.in","dns3.hostgator.in","dns4.hostgator.in","clientTransferProhibited","","",""
"17","eduinnow.com","2018-10-15 18:09:59","2018-10-14","2018-10-14","2023-10-14","1660","Domainshype.com, Inc.","whois.domainshype.com","http://www.domainshype.com","Dr. Swapnali Anil Dhandar","","G001 Mera homes Segehalli Bangalore Karnataka","Bangalore","Karnataka","560067","India","dr.swapnalianil@gmail.com","+91.9148783613","","Dr. Swapnali Anil Dhandar","","G001 Mera homes Segehalli Bangalore Karnataka","Bangalore","Karnataka","560067","India","dr.swapnalianil@gmail.com","+91.9148783613","","Dr. Swapnali Anil Dhandar","","G001 Mera homes Segehalli Bangalore Karnataka","Bangalore","Karnataka","560067","India","dr.swapnalianil@gmail.com","+91.9148783613","","","","","","","","","","","","ns1.plesk-web10.webhostbox.net","ns2.plesk-web10.webhostbox.net","","","clientTransferProhibited","","",""
"18","flowersnbulbs.com","2018-10-15 17:22:53","2018-10-14","2018-10-14","2020-10-14","1660","Domainshype.com, Inc.","whois.domainshype.com","http://www.domainshype.com","Domain Admin","Privacy Protect, LLC (PrivacyProtect.org)","10 Corporate Drive","Burlington","MA","01803","United States","contact@privacyprotect.org","+1.8022274003","","Domain Admin","Privacy Protect, LLC (PrivacyProtect.org)","10 Corporate Drive","Burlington","MA","01803","United States","contact@privacyprotect.org","+1.8022274003","","Domain Admin","Privacy Protect, LLC (PrivacyProtect.org)","10 Corporate Drive","Burlington","MA","01803","United States","contact@privacyprotect.org","+1.8022274003","","","","","","","","","","","","dns1.bluehost.in","dns2.bluehost.in","dns3.bluehost.in","dns4.bluehost.in","clientTransferProhibited","","",""
"19","garmenttrimmings.com","2018-10-15 17:50:49","2018-10-14","2018-10-14","2019-10-14","1660","Domainshype.com, Inc.","whois.domainshype.com","http://www.domainshype.com","This Domain For Sale Worldwide 339 222 5132","Buydomains.com","738 Main Street, #389","Waltham","Massachusetts","02451","United States","brokerage@buydomains.com","+1.3392225132","+1.7818392801","This Domain For Sale Worldwide 339 222 5132","Buydomains.com","738 Main Street, #389","Waltham","Massachusetts","02451","United States","brokerage@buydomains.com","+1.3392225132","+1.7818392801","This Domain For Sale Worldwide 339 222 5132","Buydomains.com","738 Main Street, #389","Waltham","Massachusetts","02451","United States","brokerage@buydomains.com","+1.3392225132","+1.7818392801","","","","","","","","","","","ns.buydomains.com","this-domain-for-sale.com","","","clientTransferProhibited","","",""
"20","grefipuls.com","2018-10-15 18:32:30","2018-10-15","2018-10-15","2019-10-15","1660","Domainshype.com, Inc.","whois.domainshype.com","http://www.domainshype.com","Domain Admin","Privacy Protect, LLC (PrivacyProtect.org)","10 Corporate Drive","Burlington","MA","01803","United States","contact@privacyprotect.org","+1.8022274003","","Domain Admin","Privacy Protect, LLC (PrivacyProtect.org)","10 Corporate Drive","Burlington","MA","01803","United States","contact@privacyprotect.org","+1.8022274003","","Domain Admin","Privacy Protect, LLC (PrivacyProtect.org)","10 Corporate Drive","Burlington","MA","01803","United States","contact@privacyprotect.org","+1.8022274003","","","","","","","","","","","","ns1.md-in-14.webhostbox.net","ns2.md-in-14.webhostbox.net","","","clientTransferProhibited","","",""
"21","info-ijcrls.com","2018-10-15 18:07:17","2018-10-14","2018-10-14","2019-10-14","1660","Domainshype.com, Inc.","whois.domainshype.com","http://www.domainshype.com","Vasanthi","","kalaigarnagar villupuram","Villupuram","Tamil Nadu","605105","India","dr.mani.vibu@gmail.com","+91.9715636983","","Vasanthi","","kalaigarnagar villupuram","Villupuram","Tamil Nadu","605105","India","dr.mani.vibu@gmail.com","+91.9715636983","","Vasanthi","","kalaigarnagar villupuram","Villupuram","Tamil Nadu","605105","India","dr.mani.vibu@gmail.com","+91.9715636983","","","","","","","","","","","","dns1.hostgator.in","dns2.hostgator.in","dns3.hostgator.in","dns4.hostgator.in","clientTransferProhibited","","",""
"22","inspiringceleb.com","2018-10-15 17:11:54","2018-10-14","2018-10-14","2019-10-14","1660","Domainshype.com, Inc.","whois.domainshype.com","http://www.domainshype.com","Dheeraj Gakhar","","House No 13 Street No 5 New Moti Nagar","Karnal","Haryana","132001","India","dheeraj.gakhar@outlook.com","+91.8981236403","","Dheeraj Gakhar","","House No 13 Street No 5 New Moti Nagar","Karnal","Haryana","132001","India","dheeraj.gakhar@outlook.com","+91.8981236403","","Dheeraj Gakhar","","House No 13 Street No 5 New Moti Nagar","Karnal","Haryana","132001","India","dheeraj.gakhar@outlook.com","+91.8981236403","","","","","","","","","","","","ns1.cp-in-9.webhostbox.net","ns2.cp-in-9.webhostbox.net","","","clientTransferProhibited","","",""
"23","kushalproperties.com","2018-10-15 16:03:55","2018-10-14","2018-10-14","2019-10-14","1660","Domainshype.com, Inc.","whois.domainshype.com","http://www.domainshype.com","Domain Admin","Privacy Protect, LLC (PrivacyProtect.org)","10 Corporate Drive","Burlington","MA","01803","United States","contact@privacyprotect.org","+1.8022274003","","Domain Admin","Privacy Protect, LLC (PrivacyProtect.org)","10 Corporate Drive","Burlington","MA","01803","United States","contact@privacyprotect.org","+1.8022274003","","Domain Admin","Privacy Protect, LLC (PrivacyProtect.org)","10 Corporate Drive","Burlington","MA","01803","United States","contact@privacyprotect.org","+1.8022274003","","","","","","","","","","","","ns1.bh-in-28.webhostbox.net","ns2.bh-in-28.webhostbox.net","","","clientTransferProhibited","","",""
"24","leathercraftz.com","2018-10-15 16:22:26","2018-10-14","2018-10-14","2019-10-14","1660","Domainshype.com, Inc.","whois.domainshype.com","http://www.domainshype.com","Domain Admin","Privacy Protect, LLC (PrivacyProtect.org)","10 Corporate Drive","Burlington","MA","01803","United States","contact@privacyprotect.org","+1.8022274003","","Domain Admin","Privacy Protect, LLC (PrivacyProtect.org)","10 Corporate Drive","Burlington","MA","01803","United States","contact@privacyprotect.org","+1.8022274003","","Domain Admin","Privacy Protect, LLC (PrivacyProtect.org)","10 Corporate Drive","Burlington","MA","01803","United States","contact@privacyprotect.org","+1.8022274003","","","","","","","","","","","","ns1.cs-mum-16.hostgatorwebservers.com","ns2.cs-mum-16.hostgatorwebservers.com","","","clientTransferProhibited","","",""
"25","lusciousfeather.com","2018-10-15 18:33:01","2018-10-14","2018-10-14","2019-10-14","1660","Domainshype.com, Inc.","whois.domainshype.com","http://www.domainshype.com","Nikhil Kapoor","","323 5  Kaliyan tola Chowk","Lucknow","Uttar Pradesh","226003","India","nkapoor.kapoor11@gmail.com","+91.8707067701","","Nikhil Kapoor","","323 5  Kaliyan tola Chowk","Lucknow","Uttar Pradesh","226003","India","nkapoor.kapoor11@gmail.com","+91.8707067701","","Nikhil Kapoor","","323 5  Kaliyan tola Chowk","Lucknow","Uttar Pradesh","226003","India","nkapoor.kapoor11@gmail.com","+91.8707067701","","","","","","","","","","","","wns13.hostgator.in","wns14.hostgator.in","","","clientTransferProhibited","","",""
"26","marathasamajnashik.com","2018-10-15 16:59:57","2018-10-14","2018-10-14","2019-10-14","1660","Domainshype.com, Inc.","whois.domainshype.com","http://www.domainshype.com","Chetan  More","","Near  maharudhra hanuman mandhir shramiknagar nashik","Nashik","Other","422012","India","morechetan.it.engg@gmail.com","+91.8308944490","","Chetan  More","","Near  maharudhra hanuman mandhir shramiknagar nashik","Nashik","Other","422012","India","morechetan.it.engg@gmail.com","+91.8308944490","","Chetan  More","","Near  maharudhra hanuman mandhir shramiknagar nashik","Nashik","Other","422012","India","morechetan.it.engg@gmail.com","+91.8308944490","","","","","","","","","","","","dns1.hostgator.in","dns2.hostgator.in","dns3.hostgator.in","dns4.hostgator.in","clientTransferProhibited","","",""
"27","outdoorjerseys.com","2018-10-15 18:30:23","2018-10-14","2018-10-14","2019-10-14","1660","Domainshype.com, Inc.","whois.domainshype.com","http://www.domainshype.com","This Domain For Sale Worldwide 339 222 5132","Buydomains.com","738 Main Street, #389","Waltham","Massachusetts","02451","United States","brokerage@buydomains.com","+1.3392225132","+1.7818392801","This Domain For Sale Worldwide 339 222 5132","Buydomains.com","738 Main Street, #389","Waltham","Massachusetts","02451","United States","brokerage@buydomains.com","+1.3392225132","+1.7818392801","This Domain For Sale Worldwide 339 222 5132","Buydomains.com","738 Main Street, #389","Waltham","Massachusetts","02451","United States","brokerage@buydomains.com","+1.3392225132","+1.7818392801","","","","","","","","","","","ns.buydomains.com","this-domain-for-sale.com","","","clientTransferProhibited","","",""
"28","sangeetaonline.com","2018-10-15 17:50:27","2018-10-14","2018-10-14","2019-10-14","1660","Domainshype.com, Inc.","whois.domainshype.com","http://www.domainshype.com","Sangeeta Balwant","","116 832 Rawatpur Gaon","Kanpur","Uttar Pradesh","208019","India","sangeeta.balwant33@gmail.com","+91.8303018206","","Sangeeta Balwant","","116 832 Rawatpur Gaon","Kanpur","Uttar Pradesh","208019","India","sangeeta.balwant33@gmail.com","+91.8303018206","","Sangeeta Balwant","","116 832 Rawatpur Gaon","Kanpur","Uttar Pradesh","208019","India","sangeeta.balwant33@gmail.com","+91.8303018206","","","","","","","","","","","","ns1.md-in-58.webhostbox.net","ns2.md-in-58.webhostbox.net","","","clientTransferProhibited","","",""
"29","serenefutureenergy.com","2018-10-15 17:02:41","2018-10-14","2018-10-15","2019-10-14","1660","Domainshype.com, Inc.","whois.domainshype.com","http://www.domainshype.com","Clement Ruzario","","Mumbai","Vasai","Maharashtra","401201","India","ruzarioclement1@gmail.com","+91.7875280993","","Clement Ruzario","","Mumbai","Vasai","Maharashtra","401201","India","ruzarioclement1@gmail.com","+91.7875280993","","Clement Ruzario","","Mumbai","Vasai","Maharashtra","401201","India","ruzarioclement1@gmail.com","+91.7875280993","","","","","","","","","","","","1539520462-wp.hostgator.in","1539520463-wp.hostgator.in","","","clientTransferProhibited","","",""
"30","shakeouts.com","2018-10-15 17:26:38","2018-10-14","2018-10-14","2019-10-14","1660","Domainshype.com, Inc.","whois.domainshype.com","http://www.domainshype.com","This Domain For Sale Worldwide 339 222 5132","Buydomains.com","738 Main Street, #389","Waltham","Massachusetts","02451","United States","brokerage@buydomains.com","+1.3392225132","+1.7818392801","This Domain For Sale Worldwide 339 222 5132","Buydomains.com","738 Main Street, #389","Waltham","Massachusetts","02451","United States","brokerage@buydomains.com","+1.3392225132","+1.7818392801","This Domain For Sale Worldwide 339 222 5132","Buydomains.com","738 Main Street, #389","Waltham","Massachusetts","02451","United States","brokerage@buydomains.com","+1.3392225132","+1.7818392801","","","","","","","","","","","ns.buydomains.com","this-domain-for-sale.com","","","clientTransferProhibited","","",""
"31","shetimantra.com","2018-10-15 16:05:36","2018-10-14","2018-10-14","2019-10-14","1660","Domainshype.com, Inc.","whois.domainshype.com","http://www.domainshype.com","Hornbill Softwares","","Wagheshwar Nagar","Pune","Maharashtra","412207","India","hornbillsoftdrive@gmail.com","+91.8087982266","","Hornbill Softwares","","Wagheshwar Nagar","Pune","Maharashtra","412207","India","hornbillsoftdrive@gmail.com","+91.8087982266","","Hornbill Softwares","","Wagheshwar Nagar","Pune","Maharashtra","412207","India","hornbillsoftdrive@gmail.com","+91.8087982266","","","","","","","","","","","","ns1.md-in-80.hostgatorwebservers.com","ns2.md-in-80.hostgatorwebservers.com","","","clientTransferProhibited","","",""
"32","stylishmechanic.com","2018-10-15 18:16:09","2018-10-14","2018-10-14","2019-10-14","1660","Domainshype.com, Inc.","whois.domainshype.com","http://www.domainshype.com","Domain Admin","Privacy Protect, LLC (PrivacyProtect.org)","10 Corporate Drive","Burlington","MA","01803","United States","contact@privacyprotect.org","+1.8022274003","","Domain Admin","Privacy Protect, LLC (PrivacyProtect.org)","10 Corporate Drive","Burlington","MA","01803","United States","contact@privacyprotect.org","+1.8022274003","","Domain Admin","Privacy Protect, LLC (PrivacyProtect.org)","10 Corporate Drive","Burlington","MA","01803","United States","contact@privacyprotect.org","+1.8022274003","","","","","","","","","","","","ns1.md-ht-7.hostgatorwebservers.com","ns2.md-ht-7.hostgatorwebservers.com","","","clientTransferProhibited","","",""
"33","thecreativecocktailmag.com","2018-10-15 16:26:19","2018-10-14","2018-10-14","2019-10-14","1660","Domainshype.com, Inc.","whois.domainshype.com","http://www.domainshype.com","Domain Admin","Privacy Protect, LLC (PrivacyProtect.org)","10 Corporate Drive","Burlington","MA","01803","United States","contact@privacyprotect.org","+1.8022274003","","Domain Admin","Privacy Protect, LLC (PrivacyProtect.org)","10 Corporate Drive","Burlington","MA","01803","United States","contact@privacyprotect.org","+1.8022274003","","Domain Admin","Privacy Protect, LLC (PrivacyProtect.org)","10 Corporate Drive","Burlington","MA","01803","United States","contact@privacyprotect.org","+1.8022274003","","","","","","","","","","","","ns1.md-in-56.webhostbox.net","ns2.md-in-56.webhostbox.net","","","clientTransferProhibited","","",""
"34","thekewala.com","2018-10-15 17:27:45","2018-10-14","2018-10-14","2019-10-14","1660","Domainshype.com, Inc.","whois.domainshype.com","http://www.domainshype.com","Domain Admin","Privacy Protect, LLC (PrivacyProtect.org)","10 Corporate Drive","Burlington","MA","01803","United States","contact@privacyprotect.org","+1.8022274003","","Domain Admin","Privacy Protect, LLC (PrivacyProtect.org)","10 Corporate Drive","Burlington","MA","01803","United States","contact@privacyprotect.org","+1.8022274003","","Domain Admin","Privacy Protect, LLC (PrivacyProtect.org)","10 Corporate Drive","Burlington","MA","01803","United States","contact@privacyprotect.org","+1.8022274003","","","","","","","","","","","","dns1.bluehost.in","dns2.bluehost.in","dns3.bluehost.in","dns4.bluehost.in","clientTransferProhibited","","",""
"35","ukvisasapplications.com","2018-10-15 16:51:48","2018-10-15","2018-10-15","2019-10-15","1660","Domainshype.com, Inc.","whois.domainshype.com","http://www.domainshype.com","toni emmanuel","","banaswadi ombr layout","bangalore","Other","560043","India","admin@sitewebexpert.com","+91.9986249941","","toni emmanuel","","banaswadi ombr layout","bangalore","Other","560043","India","admin@sitewebexpert.com","+91.9986249941","","toni emmanuel","","banaswadi ombr layout","bangalore","Other","560043","India","admin@sitewebexpert.com","+91.9986249941","","","","","","","","","","","","ns1.md-in-34.webhostbox.net","ns2.md-in-34.webhostbox.net","","","clientTransferProhibited","","",""
"36","wineshopy.com","2018-10-15 17:29:17","2018-10-14","2018-10-14","2019-10-14","1660","Domainshype.com, Inc.","whois.domainshype.com","http://www.domainshype.com","Domain Admin","Privacy Protect, LLC (PrivacyProtect.org)","10 Corporate Drive","Burlington","MA","01803","United States","contact@privacyprotect.org","+1.8022274003","","Domain Admin","Privacy Protect, LLC (PrivacyProtect.org)","10 Corporate Drive","Burlington","MA","01803","United States","contact@privacyprotect.org","+1.8022274003","","Domain Admin","Privacy Protect, LLC (PrivacyProtect.org)","10 Corporate Drive","Burlington","MA","01803","United States","contact@privacyprotect.org","+1.8022274003","","","","","","","","","","","","dns1.bluehost.in","dns2.bluehost.in","dns3.bluehost.in","dns4.bluehost.in","clientTransferProhibited","","",""