"num","domain_name","query_time","create_date","update_date","expiry_date","domain_registrar_id","domain_registrar_name","domain_registrar_whois","domain_registrar_url","registrant_name","registrant_company","registrant_address","registrant_city","registrant_state","registrant_zip","registrant_country","registrant_email","registrant_phone","registrant_fax","administrative_name","administrative_company","administrative_address","administrative_city","administrative_state","administrative_zip","administrative_country","administrative_email","administrative_phone","administrative_fax","technical_name","technical_company","technical_address","technical_city","technical_state","technical_zip","technical_country","technical_email","technical_phone","technical_fax","billing_name","billing_company","billing_address","billing_city","billing_state","billing_zip","billing_country","billing_email","billing_phone","billing_fax","name_server_1","name_server_2","name_server_3","name_server_4","domain_status_1","domain_status_2","domain_status_3","domain_status_4"
"1","aquasubsea.com","2018-10-15 18:02:52","2018-10-14","2018-10-14","2019-10-14","1001","Domeneshop AS dba  domainnameshop.com","whois.domainnameshop.com","http://www.domainnameshop.com","Redacted for Privacy Purposes","AQUASUBSEA AS","Redacted for Privacy Purposes","Redacted for Privacy Purposes","","Redacted for Privacy Purposes","Norway","badmv2qusmts@privacy-protection.email","Redacted for Privacy Purposes","","Redacted for Privacy Purposes","Redacted for Privacy Purposes","Redacted for Privacy Purposes","Redacted for Privacy Purposes","","Redacted for Privacy Purposes","Redacted for Privacy Purposes","sksxp649yfts@privacy-protection.email","Redacted for Privacy Purposes","","Redacted for Privacy Purposes","Redacted for Privacy Purposes","Redacted for Privacy Purposes","Redacted for Privacy Purposes","","Redacted for Privacy Purposes","Redacted for Privacy Purposes","hostmaster@domeneshop.no","Redacted for Privacy Purposes","Redacted for Privacy Purposes","","","","","","","","","","","ns1.hyp.net","ns2.hyp.net","ns3.hyp.net","","clientTransferProhibited","","",""
"2","audundahl.com","2018-10-15 17:08:18","2018-10-14","2018-10-14","2019-10-14","1001","Domeneshop AS dba  domainnameshop.com","whois.domainnameshop.com","http://www.domainnameshop.com","Redacted for Privacy Purposes","","Redacted for Privacy Purposes","Redacted for Privacy Purposes","","Redacted for Privacy Purposes","Norway","ob2v7tbjwggb@privacy-protection.email","Redacted for Privacy Purposes","","Redacted for Privacy Purposes","","Redacted for Privacy Purposes","Redacted for Privacy Purposes","","Redacted for Privacy Purposes","Redacted for Privacy Purposes","greupmwysz9s@privacy-protection.email","Redacted for Privacy Purposes","","Redacted for Privacy Purposes","Redacted for Privacy Purposes","Redacted for Privacy Purposes","Redacted for Privacy Purposes","","Redacted for Privacy Purposes","Redacted for Privacy Purposes","hostmaster@domeneshop.no","Redacted for Privacy Purposes","Redacted for Privacy Purposes","","","","","","","","","","","ns1.hyp.net","ns2.hyp.net","ns3.hyp.net","","clientTransferProhibited","","",""
"3","diamantdeal.com","2018-10-15 17:18:01","2018-10-14","2018-10-14","2019-10-14","1001","Domeneshop AS dba  domainnameshop.com","whois.domainnameshop.com","http://www.domainnameshop.com","Redacted for Privacy Purposes","MISSK.NO AS Katinka Cecilie Meidell","Redacted for Privacy Purposes","Redacted for Privacy Purposes","","Redacted for Privacy Purposes","Norway","nekn4kthtavn@privacy-protection.email","Redacted for Privacy Purposes","","Redacted for Privacy Purposes","Redacted for Privacy Purposes","Redacted for Privacy Purposes","Redacted for Privacy Purposes","","Redacted for Privacy Purposes","Redacted for Privacy Purposes","ofskab934n2b@privacy-protection.email","Redacted for Privacy Purposes","","Redacted for Privacy Purposes","Redacted for Privacy Purposes","Redacted for Privacy Purposes","Redacted for Privacy Purposes","","Redacted for Privacy Purposes","Redacted for Privacy Purposes","hostmaster@domeneshop.no","Redacted for Privacy Purposes","Redacted for Privacy Purposes","","","","","","","","","","","ns1.hyp.net","ns2.hyp.net","ns3.hyp.net","","clientTransferProhibited","","",""
"4","diamantsmykkekupp.com","2018-10-15 16:32:43","2018-10-14","2018-10-14","2019-10-14","1001","Domeneshop AS dba  domainnameshop.com","whois.domainnameshop.com","http://www.domainnameshop.com","Redacted for Privacy Purposes","MISSK.NO AS Katinka Cecilie Meidell","Redacted for Privacy Purposes","Redacted for Privacy Purposes","","Redacted for Privacy Purposes","Norway","65v8n3nqqfdh@privacy-protection.email","Redacted for Privacy Purposes","","Redacted for Privacy Purposes","Redacted for Privacy Purposes","Redacted for Privacy Purposes","Redacted for Privacy Purposes","","Redacted for Privacy Purposes","Redacted for Privacy Purposes","yfzk7zq8d6mz@privacy-protection.email","Redacted for Privacy Purposes","","Redacted for Privacy Purposes","Redacted for Privacy Purposes","Redacted for Privacy Purposes","Redacted for Privacy Purposes","","Redacted for Privacy Purposes","Redacted for Privacy Purposes","hostmaster@domeneshop.no","Redacted for Privacy Purposes","Redacted for Privacy Purposes","","","","","","","","","","","ns1.hyp.net","ns2.hyp.net","ns3.hyp.net","","clientTransferProhibited","","",""
"5","drinkbeermakepeace.com","2018-10-15 15:48:06","2018-10-14","2018-10-14","2019-10-14","1001","Domeneshop AS dba  domainnameshop.com","whois.domainnameshop.com","http://www.domainnameshop.com","Redacted for Privacy Purposes","SAGENE INDUSTRIER H.E.THORESEN","Redacted for Privacy Purposes","Redacted for Privacy Purposes","","Redacted for Privacy Purposes","Norway","beqwonchezq2@privacy-protection.email","Redacted for Privacy Purposes","","Redacted for Privacy Purposes","Redacted for Privacy Purposes","Redacted for Privacy Purposes","Redacted for Privacy Purposes","","Redacted for Privacy Purposes","Redacted for Privacy Purposes","6pmjvzpbcihn@privacy-protection.email","Redacted for Privacy Purposes","","Redacted for Privacy Purposes","Redacted for Privacy Purposes","Redacted for Privacy Purposes","Redacted for Privacy Purposes","","Redacted for Privacy Purposes","Redacted for Privacy Purposes","hostmaster@domeneshop.no","Redacted for Privacy Purposes","Redacted for Privacy Purposes","","","","","","","","","","","ns1.hyp.net","ns2.hyp.net","ns3.hyp.net","","clientTransferProhibited","","",""
"6","energikontakt.com","2018-10-15 16:38:45","2018-10-14","2018-10-14","2019-10-14","1001","Domeneshop AS dba  domainnameshop.com","whois.domainnameshop.com","http://www.domainnameshop.com","Redacted for Privacy Purposes","","Redacted for Privacy Purposes","Redacted for Privacy Purposes","","Redacted for Privacy Purposes","Norway","u4bxhawravje@privacy-protection.email","Redacted for Privacy Purposes","","Redacted for Privacy Purposes","","Redacted for Privacy Purposes","Redacted for Privacy Purposes","","Redacted for Privacy Purposes","Redacted for Privacy Purposes","idzkekctfy93@privacy-protection.email","Redacted for Privacy Purposes","","Redacted for Privacy Purposes","Redacted for Privacy Purposes","Redacted for Privacy Purposes","Redacted for Privacy Purposes","","Redacted for Privacy Purposes","Redacted for Privacy Purposes","hostmaster@domeneshop.no","Redacted for Privacy Purposes","Redacted for Privacy Purposes","","","","","","","","","","","ns1.hyp.net","ns2.hyp.net","ns3.hyp.net","","clientTransferProhibited","","",""
"7","fastshifting.com","2018-10-15 18:23:17","2018-10-14","2018-10-14","2019-10-14","1001","Domeneshop AS dba  domainnameshop.com","whois.domainnameshop.com","http://www.domainnameshop.com","Redacted for Privacy Purposes","PUBLIKATOR NORDLIE Tor Egil Nordlie","Redacted for Privacy Purposes","Redacted for Privacy Purposes","","Redacted for Privacy Purposes","Norway","yeimhj5trbe6@privacy-protection.email","Redacted for Privacy Purposes","","Redacted for Privacy Purposes","Redacted for Privacy Purposes","Redacted for Privacy Purposes","Redacted for Privacy Purposes","","Redacted for Privacy Purposes","Redacted for Privacy Purposes","w7hte4cssdyy@privacy-protection.email","Redacted for Privacy Purposes","","Redacted for Privacy Purposes","Redacted for Privacy Purposes","Redacted for Privacy Purposes","Redacted for Privacy Purposes","","Redacted for Privacy Purposes","Redacted for Privacy Purposes","hostmaster@domeneshop.no","Redacted for Privacy Purposes","Redacted for Privacy Purposes","","","","","","","","","","","ns1.hyp.net","ns2.hyp.net","ns3.hyp.net","","clientTransferProhibited","","",""
"8","jlolsrud.site","2018-10-15 16:43:50","2018-10-14","2018-10-14","2019-10-14","1001","Domeneshop AS dba  domainnameshop.com","whois.domainnameshop.com","http://www.domainnameshop.com","","","","","","","Norway","","","","","","","","","","","","","","","","","","","","","","","","","","","","","","","","","","ns1.hyp.net","ns2.hyp.net","ns3.hyp.net","","addPeriod","clientTransferProhibited","serverTransferProhibited",""
"9","madebybucharest.com","2018-10-15 17:44:58","2018-10-14","2018-10-14","2019-10-14","1001","Domeneshop AS dba  domainnameshop.com","whois.domainnameshop.com","http://www.domainnameshop.com","Redacted for Privacy Purposes","SVENSSON BUTIKK- OG HOTELLUTVIKLING","Redacted for Privacy Purposes","Redacted for Privacy Purposes","","Redacted for Privacy Purposes","Norway","xkijpgsuyrr7@privacy-protection.email","Redacted for Privacy Purposes","","Redacted for Privacy Purposes","Redacted for Privacy Purposes","Redacted for Privacy Purposes","Redacted for Privacy Purposes","","Redacted for Privacy Purposes","Redacted for Privacy Purposes","mrkwv8duoeha@privacy-protection.email","Redacted for Privacy Purposes","","Redacted for Privacy Purposes","Redacted for Privacy Purposes","Redacted for Privacy Purposes","Redacted for Privacy Purposes","","Redacted for Privacy Purposes","Redacted for Privacy Purposes","hostmaster@domeneshop.no","Redacted for Privacy Purposes","Redacted for Privacy Purposes","","","","","","","","","","","ns1.hyp.net","ns2.hyp.net","ns3.hyp.net","","clientTransferProhibited","","",""
"10","magnetpoesi.com","2018-10-15 15:50:49","2018-10-14","2018-10-14","2019-10-14","1001","Domeneshop AS dba  domainnameshop.com","whois.domainnameshop.com","http://www.domainnameshop.com","Redacted for Privacy Purposes","","Redacted for Privacy Purposes","Redacted for Privacy Purposes","","Redacted for Privacy Purposes","Norway","d3drk8qsnpww@privacy-protection.email","Redacted for Privacy Purposes","","Redacted for Privacy Purposes","","Redacted for Privacy Purposes","Redacted for Privacy Purposes","","Redacted for Privacy Purposes","Redacted for Privacy Purposes","7pydrbfjwexd@privacy-protection.email","Redacted for Privacy Purposes","","Redacted for Privacy Purposes","Redacted for Privacy Purposes","Redacted for Privacy Purposes","Redacted for Privacy Purposes","","Redacted for Privacy Purposes","Redacted for Privacy Purposes","hostmaster@domeneshop.no","Redacted for Privacy Purposes","Redacted for Privacy Purposes","","","","","","","","","","","ns1.hyp.net","ns2.hyp.net","ns3.hyp.net","","clientTransferProhibited","","",""
"11","makelovedrinkbeer.com","2018-10-15 16:50:44","2018-10-14","2018-10-14","2019-10-14","1001","Domeneshop AS dba  domainnameshop.com","whois.domainnameshop.com","http://www.domainnameshop.com","Redacted for Privacy Purposes","SAGENE INDUSTRIER H.E.THORESEN","Redacted for Privacy Purposes","Redacted for Privacy Purposes","","Redacted for Privacy Purposes","Norway","sknye6hzkgqa@privacy-protection.email","Redacted for Privacy Purposes","","Redacted for Privacy Purposes","Redacted for Privacy Purposes","Redacted for Privacy Purposes","Redacted for Privacy Purposes","","Redacted for Privacy Purposes","Redacted for Privacy Purposes","crmqpdcarh3z@privacy-protection.email","Redacted for Privacy Purposes","","Redacted for Privacy Purposes","Redacted for Privacy Purposes","Redacted for Privacy Purposes","Redacted for Privacy Purposes","","Redacted for Privacy Purposes","Redacted for Privacy Purposes","hostmaster@domeneshop.no","Redacted for Privacy Purposes","Redacted for Privacy Purposes","","","","","","","","","","","ns1.hyp.net","ns2.hyp.net","ns3.hyp.net","","clientTransferProhibited","","",""
"12","medicalplacebo.com","2018-10-15 17:20:50","2018-10-14","2018-10-14","2019-10-14","1001","Domeneshop AS dba  domainnameshop.com","whois.domainnameshop.com","http://www.domainnameshop.com","Redacted for Privacy Purposes","JENSEN","Redacted for Privacy Purposes","Redacted for Privacy Purposes","","Redacted for Privacy Purposes","Norway","bqnu3usf3ndw@privacy-protection.email","Redacted for Privacy Purposes","","Redacted for Privacy Purposes","Redacted for Privacy Purposes","Redacted for Privacy Purposes","Redacted for Privacy Purposes","","Redacted for Privacy Purposes","Redacted for Privacy Purposes","psq6akxrsnyb@privacy-protection.email","Redacted for Privacy Purposes","","Redacted for Privacy Purposes","Redacted for Privacy Purposes","Redacted for Privacy Purposes","Redacted for Privacy Purposes","","Redacted for Privacy Purposes","Redacted for Privacy Purposes","hostmaster@domeneshop.no","Redacted for Privacy Purposes","Redacted for Privacy Purposes","","","","","","","","","","","ns1.hyp.net","ns2.hyp.net","ns3.hyp.net","","clientTransferProhibited","","",""
"13","medisinskplacebo.com","2018-10-15 16:51:10","2018-10-14","2018-10-14","2019-10-14","1001","Domeneshop AS dba  domainnameshop.com","whois.domainnameshop.com","http://www.domainnameshop.com","Redacted for Privacy Purposes","JENSEN","Redacted for Privacy Purposes","Redacted for Privacy Purposes","","Redacted for Privacy Purposes","Norway","zezrjxuksbh5@privacy-protection.email","Redacted for Privacy Purposes","","Redacted for Privacy Purposes","Redacted for Privacy Purposes","Redacted for Privacy Purposes","Redacted for Privacy Purposes","","Redacted for Privacy Purposes","Redacted for Privacy Purposes","b7jorgeew9pr@privacy-protection.email","Redacted for Privacy Purposes","","Redacted for Privacy Purposes","Redacted for Privacy Purposes","Redacted for Privacy Purposes","Redacted for Privacy Purposes","","Redacted for Privacy Purposes","Redacted for Privacy Purposes","hostmaster@domeneshop.no","Redacted for Privacy Purposes","Redacted for Privacy Purposes","","","","","","","","","","","ns1.hyp.net","ns2.hyp.net","ns3.hyp.net","","clientTransferProhibited","","",""
"14","mtdb.today","2018-10-15 17:51:25","2018-10-14","2018-10-14","2019-10-14","1001","Domeneshop AS dba  domainnameshop.com","whois.domainnameshop.com","http://www.domainnameshop.com","REDACTED FOR PRIVACY","","REDACTED FOR PRIVACY","REDACTED FOR PRIVACY","","REDACTED FOR PRIVACY","Norway","","REDACTED FOR PRIVACY","REDACTED FOR PRIVACY","","","","","","","","","","","","","","","","","","","","","","","","","","","","","","","","","","","addPeriod","clientTransferProhibited","",""
"15","nesteside.com","2018-10-15 17:32:52","2018-10-14","2018-10-14","2019-10-14","1001","Domeneshop AS dba  domainnameshop.com","whois.domainnameshop.com","http://www.domainnameshop.com","Redacted for Privacy Purposes","EUROPEAN PUBLISHING SERVICES LTD","Redacted for Privacy Purposes","Redacted for Privacy Purposes","","Redacted for Privacy Purposes","Norway","oi4bhcw8pp3y@privacy-protection.email","Redacted for Privacy Purposes","","Redacted for Privacy Purposes","Redacted for Privacy Purposes","Redacted for Privacy Purposes","Redacted for Privacy Purposes","","Redacted for Privacy Purposes","Redacted for Privacy Purposes","7nzkpx6h897z@privacy-protection.email","Redacted for Privacy Purposes","","Redacted for Privacy Purposes","Redacted for Privacy Purposes","Redacted for Privacy Purposes","Redacted for Privacy Purposes","","Redacted for Privacy Purposes","Redacted for Privacy Purposes","hostmaster@domeneshop.no","Redacted for Privacy Purposes","Redacted for Privacy Purposes","","","","","","","","","","","ns1.hyp.net","ns2.hyp.net","ns3.hyp.net","","clientTransferProhibited","","",""
"16","norwade.com","2018-10-15 17:21:09","2018-10-14","2018-10-14","2019-10-14","1001","Domeneshop AS dba  domainnameshop.com","whois.domainnameshop.com","http://www.domainnameshop.com","Redacted for Privacy Purposes","","Redacted for Privacy Purposes","Redacted for Privacy Purposes","","Redacted for Privacy Purposes","Norway","chyftprub5my@privacy-protection.email","Redacted for Privacy Purposes","","Redacted for Privacy Purposes","","Redacted for Privacy Purposes","Redacted for Privacy Purposes","","Redacted for Privacy Purposes","Redacted for Privacy Purposes","eq7vk69qefcn@privacy-protection.email","Redacted for Privacy Purposes","","Redacted for Privacy Purposes","Redacted for Privacy Purposes","Redacted for Privacy Purposes","Redacted for Privacy Purposes","","Redacted for Privacy Purposes","Redacted for Privacy Purposes","hostmaster@domeneshop.no","Redacted for Privacy Purposes","Redacted for Privacy Purposes","","","","","","","","","","","ns1.hyp.net","ns2.hyp.net","ns3.hyp.net","","clientTransferProhibited","","",""
"17","oana.online","2018-10-15 17:39:19","2018-10-14","2018-10-14","2019-10-14","1001","Domeneshop AS dba  domainnameshop.com","whois.domainnameshop.com","http://www.domainnameshop.com","Jean Pehr Svensson","SVENSSON BUTIKK- OG HOTELLUTVIKLING","Postboks 43 Furuset","OSLO","","1001","Norway","jeanpehr@hotmail.com","+47.47831701","","Jean Pehr Svensson","SVENSSON BUTIKK- OG HOTELLUTVIKLING","Postboks 43 Furuset","OSLO","","1001","Norway","jeanpehr@hotmail.com","+47.47831701","","Domeneshop Hostmaster","DOMENESHOP AS","Christian Krohgs gate 16","Oslo","","0186","Norway","hostmaster@domeneshop.no","+47.22943333","+47.22943334","","","","","","","","","","","ns1.hyp.net","ns2.hyp.net","ns3.hyp.net","","addPeriod","clientTransferProhibited","serverTransferProhibited",""
"18","oles-itservice.com","2018-10-15 16:13:11","2018-10-15","2018-10-15","2019-10-15","1001","Domeneshop AS dba  domainnameshop.com","whois.domainnameshop.com","http://www.domainnameshop.com","Redacted for Privacy Purposes","","Redacted for Privacy Purposes","Redacted for Privacy Purposes","","Redacted for Privacy Purposes","Norway","xmf94fztr75e@privacy-protection.email","Redacted for Privacy Purposes","","Redacted for Privacy Purposes","","Redacted for Privacy Purposes","Redacted for Privacy Purposes","","Redacted for Privacy Purposes","Redacted for Privacy Purposes","9jmhgvsjwwem@privacy-protection.email","Redacted for Privacy Purposes","","Redacted for Privacy Purposes","Redacted for Privacy Purposes","Redacted for Privacy Purposes","Redacted for Privacy Purposes","","Redacted for Privacy Purposes","Redacted for Privacy Purposes","hostmaster@domeneshop.no","Redacted for Privacy Purposes","Redacted for Privacy Purposes","","","","","","","","","","","ns1.hyp.net","ns2.hyp.net","ns3.hyp.net","","clientTransferProhibited","","",""
"19","placebomedicin.com","2018-10-15 16:37:47","2018-10-14","2018-10-14","2019-10-14","1001","Domeneshop AS dba  domainnameshop.com","whois.domainnameshop.com","http://www.domainnameshop.com","Redacted for Privacy Purposes","JENSEN","Redacted for Privacy Purposes","Redacted for Privacy Purposes","","Redacted for Privacy Purposes","Norway","nvztsty5zt5x@privacy-protection.email","Redacted for Privacy Purposes","","Redacted for Privacy Purposes","Redacted for Privacy Purposes","Redacted for Privacy Purposes","Redacted for Privacy Purposes","","Redacted for Privacy Purposes","Redacted for Privacy Purposes","2ccawnw6q7x9@privacy-protection.email","Redacted for Privacy Purposes","","Redacted for Privacy Purposes","Redacted for Privacy Purposes","Redacted for Privacy Purposes","Redacted for Privacy Purposes","","Redacted for Privacy Purposes","Redacted for Privacy Purposes","hostmaster@domeneshop.no","Redacted for Privacy Purposes","Redacted for Privacy Purposes","","","","","","","","","","","ns1.hyp.net","ns2.hyp.net","ns3.hyp.net","","clientTransferProhibited","","",""
"20","placebomedisin.com","2018-10-15 16:28:21","2018-10-14","2018-10-14","2019-10-14","1001","Domeneshop AS dba  domainnameshop.com","whois.domainnameshop.com","http://www.domainnameshop.com","Redacted for Privacy Purposes","JENSEN","Redacted for Privacy Purposes","Redacted for Privacy Purposes","","Redacted for Privacy Purposes","Norway","myh7m3ymuyz4@privacy-protection.email","Redacted for Privacy Purposes","","Redacted for Privacy Purposes","Redacted for Privacy Purposes","Redacted for Privacy Purposes","Redacted for Privacy Purposes","","Redacted for Privacy Purposes","Redacted for Privacy Purposes","akhimr9pvoyv@privacy-protection.email","Redacted for Privacy Purposes","","Redacted for Privacy Purposes","Redacted for Privacy Purposes","Redacted for Privacy Purposes","Redacted for Privacy Purposes","","Redacted for Privacy Purposes","Redacted for Privacy Purposes","hostmaster@domeneshop.no","Redacted for Privacy Purposes","Redacted for Privacy Purposes","","","","","","","","","","","ns1.hyp.net","ns2.hyp.net","ns3.hyp.net","","clientTransferProhibited","","",""
"21","placebomedizin.com","2018-10-15 16:56:24","2018-10-14","2018-10-14","2019-10-14","1001","Domeneshop AS dba  domainnameshop.com","whois.domainnameshop.com","http://www.domainnameshop.com","Redacted for Privacy Purposes","JENSEN","Redacted for Privacy Purposes","Redacted for Privacy Purposes","","Redacted for Privacy Purposes","Norway","4eqjn2rinfbv@privacy-protection.email","Redacted for Privacy Purposes","","Redacted for Privacy Purposes","Redacted for Privacy Purposes","Redacted for Privacy Purposes","Redacted for Privacy Purposes","","Redacted for Privacy Purposes","Redacted for Privacy Purposes","hrf55mwkmdrj@privacy-protection.email","Redacted for Privacy Purposes","","Redacted for Privacy Purposes","Redacted for Privacy Purposes","Redacted for Privacy Purposes","Redacted for Privacy Purposes","","Redacted for Privacy Purposes","Redacted for Privacy Purposes","hostmaster@domeneshop.no","Redacted for Privacy Purposes","Redacted for Privacy Purposes","","","","","","","","","","","ns1.hyp.net","ns2.hyp.net","ns3.hyp.net","","clientTransferProhibited","","",""
"22","prosjekt-elektro.com","2018-10-15 17:23:02","2018-10-14","2018-10-14","2019-10-14","1001","Domeneshop AS dba  domainnameshop.com","whois.domainnameshop.com","http://www.domainnameshop.com","Redacted for Privacy Purposes","STRAND GROUP AS","Redacted for Privacy Purposes","Redacted for Privacy Purposes","","Redacted for Privacy Purposes","Norway","bobfgwh4eka2@privacy-protection.email","Redacted for Privacy Purposes","","Redacted for Privacy Purposes","Redacted for Privacy Purposes","Redacted for Privacy Purposes","Redacted for Privacy Purposes","","Redacted for Privacy Purposes","Redacted for Privacy Purposes","3ajmumrewqzo@privacy-protection.email","Redacted for Privacy Purposes","","Redacted for Privacy Purposes","Redacted for Privacy Purposes","Redacted for Privacy Purposes","Redacted for Privacy Purposes","","Redacted for Privacy Purposes","Redacted for Privacy Purposes","hostmaster@domeneshop.no","Redacted for Privacy Purposes","Redacted for Privacy Purposes","","","","","","","","","","","ns1.hyp.net","ns2.hyp.net","ns3.hyp.net","","clientTransferProhibited","","",""
"23","prosjekt-ventilasjon.com","2018-10-15 17:47:58","2018-10-14","2018-10-14","2019-10-14","1001","Domeneshop AS dba  domainnameshop.com","whois.domainnameshop.com","http://www.domainnameshop.com","Redacted for Privacy Purposes","STRAND GROUP AS","Redacted for Privacy Purposes","Redacted for Privacy Purposes","","Redacted for Privacy Purposes","Norway","e2iznbcjbfuk@privacy-protection.email","Redacted for Privacy Purposes","","Redacted for Privacy Purposes","Redacted for Privacy Purposes","Redacted for Privacy Purposes","Redacted for Privacy Purposes","","Redacted for Privacy Purposes","Redacted for Privacy Purposes","gajeiex4sssd@privacy-protection.email","Redacted for Privacy Purposes","","Redacted for Privacy Purposes","Redacted for Privacy Purposes","Redacted for Privacy Purposes","Redacted for Privacy Purposes","","Redacted for Privacy Purposes","Redacted for Privacy Purposes","hostmaster@domeneshop.no","Redacted for Privacy Purposes","Redacted for Privacy Purposes","","","","","","","","","","","ns1.hyp.net","ns2.hyp.net","ns3.hyp.net","","clientTransferProhibited","","",""
"24","prosjektelektro.com","2018-10-15 16:20:08","2018-10-14","2018-10-14","2019-10-14","1001","Domeneshop AS dba  domainnameshop.com","whois.domainnameshop.com","http://www.domainnameshop.com","Redacted for Privacy Purposes","STRAND GROUP AS","Redacted for Privacy Purposes","Redacted for Privacy Purposes","","Redacted for Privacy Purposes","Norway","twa63fjsjbag@privacy-protection.email","Redacted for Privacy Purposes","","Redacted for Privacy Purposes","Redacted for Privacy Purposes","Redacted for Privacy Purposes","Redacted for Privacy Purposes","","Redacted for Privacy Purposes","Redacted for Privacy Purposes","zud9tet4uggh@privacy-protection.email","Redacted for Privacy Purposes","","Redacted for Privacy Purposes","Redacted for Privacy Purposes","Redacted for Privacy Purposes","Redacted for Privacy Purposes","","Redacted for Privacy Purposes","Redacted for Privacy Purposes","hostmaster@domeneshop.no","Redacted for Privacy Purposes","Redacted for Privacy Purposes","","","","","","","","","","","ns1.hyp.net","ns2.hyp.net","ns3.hyp.net","","clientTransferProhibited","","",""
"25","prosjektventilasjon.com","2018-10-15 17:38:41","2018-10-14","2018-10-14","2019-10-14","1001","Domeneshop AS dba  domainnameshop.com","whois.domainnameshop.com","http://www.domainnameshop.com","Redacted for Privacy Purposes","STRAND GROUP AS","Redacted for Privacy Purposes","Redacted for Privacy Purposes","","Redacted for Privacy Purposes","Norway","fkta4axmsmru@privacy-protection.email","Redacted for Privacy Purposes","","Redacted for Privacy Purposes","Redacted for Privacy Purposes","Redacted for Privacy Purposes","Redacted for Privacy Purposes","","Redacted for Privacy Purposes","Redacted for Privacy Purposes","nur85eftay64@privacy-protection.email","Redacted for Privacy Purposes","","Redacted for Privacy Purposes","Redacted for Privacy Purposes","Redacted for Privacy Purposes","Redacted for Privacy Purposes","","Redacted for Privacy Purposes","Redacted for Privacy Purposes","hostmaster@domeneshop.no","Redacted for Privacy Purposes","Redacted for Privacy Purposes","","","","","","","","","","","ns1.hyp.net","ns2.hyp.net","ns3.hyp.net","","clientTransferProhibited","","",""
"26","regain-it.com","2018-10-15 16:38:55","2018-10-14","2018-10-14","2019-10-14","1001","Domeneshop AS dba  domainnameshop.com","whois.domainnameshop.com","http://www.domainnameshop.com","Redacted for Privacy Purposes","Regain","Redacted for Privacy Purposes","Redacted for Privacy Purposes","","Redacted for Privacy Purposes","Sweden","g7ct7hg7zhy7@privacy-protection.email","Redacted for Privacy Purposes","","Redacted for Privacy Purposes","Redacted for Privacy Purposes","Redacted for Privacy Purposes","Redacted for Privacy Purposes","","Redacted for Privacy Purposes","Redacted for Privacy Purposes","2p9xbpqekrof@privacy-protection.email","Redacted for Privacy Purposes","","Redacted for Privacy Purposes","Redacted for Privacy Purposes","Redacted for Privacy Purposes","Redacted for Privacy Purposes","","Redacted for Privacy Purposes","Redacted for Privacy Purposes","hostmaster@domeneshop.no","Redacted for Privacy Purposes","Redacted for Privacy Purposes","","","","","","","","","","","ns1.hyp.net","ns2.hyp.net","ns3.hyp.net","","clientTransferProhibited","","",""
"27","skyrecruitement.com","2018-10-15 16:14:14","2018-10-14","2018-10-14","2019-10-14","1001","Domeneshop AS dba  domainnameshop.com","whois.domainnameshop.com","http://www.domainnameshop.com","Redacted for Privacy Purposes","SKY REKRUTTERING AS","Redacted for Privacy Purposes","Redacted for Privacy Purposes","","Redacted for Privacy Purposes","Norway","373pvhzt5yt3@privacy-protection.email","Redacted for Privacy Purposes","","Redacted for Privacy Purposes","Redacted for Privacy Purposes","Redacted for Privacy Purposes","Redacted for Privacy Purposes","","Redacted for Privacy Purposes","Redacted for Privacy Purposes","sou3znhyphbd@privacy-protection.email","Redacted for Privacy Purposes","","Redacted for Privacy Purposes","Redacted for Privacy Purposes","Redacted for Privacy Purposes","Redacted for Privacy Purposes","","Redacted for Privacy Purposes","Redacted for Privacy Purposes","hostmaster@domeneshop.no","Redacted for Privacy Purposes","Redacted for Privacy Purposes","","","","","","","","","","","ns1.hyp.net","ns2.hyp.net","ns3.hyp.net","","clientTransferProhibited","","",""
"28","skystringer.com","2018-10-15 18:35:05","2018-10-14","2018-10-14","2019-10-14","1001","Domeneshop AS dba  domainnameshop.com","whois.domainnameshop.com","http://www.domainnameshop.com","Redacted for Privacy Purposes","SKY REKRUTTERING AS","Redacted for Privacy Purposes","Redacted for Privacy Purposes","","Redacted for Privacy Purposes","Norway","mewkcnxuq7vv@privacy-protection.email","Redacted for Privacy Purposes","","Redacted for Privacy Purposes","Redacted for Privacy Purposes","Redacted for Privacy Purposes","Redacted for Privacy Purposes","","Redacted for Privacy Purposes","Redacted for Privacy Purposes","3nn2eqjgm2rg@privacy-protection.email","Redacted for Privacy Purposes","","Redacted for Privacy Purposes","Redacted for Privacy Purposes","Redacted for Privacy Purposes","Redacted for Privacy Purposes","","Redacted for Privacy Purposes","Redacted for Privacy Purposes","hostmaster@domeneshop.no","Redacted for Privacy Purposes","Redacted for Privacy Purposes","","","","","","","","","","","ns1.hyp.net","ns2.hyp.net","ns3.hyp.net","","clientTransferProhibited","","",""
"29","stableit.net","2018-10-15 16:38:03","2018-10-14","2018-10-14","2019-10-14","1001","Domeneshop AS dba  domainnameshop.com","whois.domainnameshop.com","http://www.domainnameshop.com","Redacted for Privacy Purposes","","Redacted for Privacy Purposes","Redacted for Privacy Purposes","","Redacted for Privacy Purposes","Norway","a6j6koab9hmi@privacy-protection.email","Redacted for Privacy Purposes","","Redacted for Privacy Purposes","","Redacted for Privacy Purposes","Redacted for Privacy Purposes","","Redacted for Privacy Purposes","Redacted for Privacy Purposes","rxp7nggcmbov@privacy-protection.email","Redacted for Privacy Purposes","","Redacted for Privacy Purposes","Redacted for Privacy Purposes","Redacted for Privacy Purposes","Redacted for Privacy Purposes","","Redacted for Privacy Purposes","Redacted for Privacy Purposes","hostmaster@domeneshop.no","Redacted for Privacy Purposes","Redacted for Privacy Purposes","","","","","","","","","","","ns1.hyp.net","ns2.hyp.net","ns3.hyp.net","","clientTransferProhibited","","",""
"30","stableitservices.com","2018-10-15 18:29:59","2018-10-14","2018-10-14","2019-10-14","1001","Domeneshop AS dba  domainnameshop.com","whois.domainnameshop.com","http://www.domainnameshop.com","Redacted for Privacy Purposes","","Redacted for Privacy Purposes","Redacted for Privacy Purposes","","Redacted for Privacy Purposes","Norway","jqntuwb8rjrg@privacy-protection.email","Redacted for Privacy Purposes","","Redacted for Privacy Purposes","","Redacted for Privacy Purposes","Redacted for Privacy Purposes","","Redacted for Privacy Purposes","Redacted for Privacy Purposes","vysxv9vysebn@privacy-protection.email","Redacted for Privacy Purposes","","Redacted for Privacy Purposes","Redacted for Privacy Purposes","Redacted for Privacy Purposes","Redacted for Privacy Purposes","","Redacted for Privacy Purposes","Redacted for Privacy Purposes","hostmaster@domeneshop.no","Redacted for Privacy Purposes","Redacted for Privacy Purposes","","","","","","","","","","","ns1.hyp.net","ns2.hyp.net","ns3.hyp.net","","clientTransferProhibited","","",""
"31","uchfonline.com","2018-10-15 18:32:39","2018-10-14","2018-10-14","2019-10-14","1001","Domeneshop AS dba  domainnameshop.com","whois.domainnameshop.com","http://www.domainnameshop.com","Redacted for Privacy Purposes","Urban Combat Hapkido Federation","Redacted for Privacy Purposes","Redacted for Privacy Purposes","","Redacted for Privacy Purposes","Sweden","ztpweri7wcww@privacy-protection.email","Redacted for Privacy Purposes","","Redacted for Privacy Purposes","Redacted for Privacy Purposes","Redacted for Privacy Purposes","Redacted for Privacy Purposes","","Redacted for Privacy Purposes","Redacted for Privacy Purposes","vpufducn7neu@privacy-protection.email","Redacted for Privacy Purposes","","Redacted for Privacy Purposes","Redacted for Privacy Purposes","Redacted for Privacy Purposes","Redacted for Privacy Purposes","","Redacted for Privacy Purposes","Redacted for Privacy Purposes","hostmaster@domeneshop.no","Redacted for Privacy Purposes","Redacted for Privacy Purposes","","","","","","","","","","","ns1.hyp.net","ns2.hyp.net","ns3.hyp.net","","clientTransferProhibited","","",""
"32","vagleddsjalvhjalp.com","2018-10-15 17:02:37","2018-10-14","2018-10-14","2019-10-14","1001","Domeneshop AS dba  domainnameshop.com","whois.domainnameshop.com","http://www.domainnameshop.com","Redacted for Privacy Purposes","Explorable AS","Redacted for Privacy Purposes","Redacted for Privacy Purposes","","Redacted for Privacy Purposes","Norway","fui4qc3ynt4b@privacy-protection.email","Redacted for Privacy Purposes","","Redacted for Privacy Purposes","Redacted for Privacy Purposes","Redacted for Privacy Purposes","Redacted for Privacy Purposes","","Redacted for Privacy Purposes","Redacted for Privacy Purposes","mtszr6dg7xxv@privacy-protection.email","Redacted for Privacy Purposes","","Redacted for Privacy Purposes","Redacted for Privacy Purposes","Redacted for Privacy Purposes","Redacted for Privacy Purposes","","Redacted for Privacy Purposes","Redacted for Privacy Purposes","hostmaster@domeneshop.no","Redacted for Privacy Purposes","Redacted for Privacy Purposes","","","","","","","","","","","ns1.hyp.net","ns2.hyp.net","ns3.hyp.net","","clientTransferProhibited","","",""
"33","vejledet.com","2018-10-15 18:08:45","2018-10-14","2018-10-14","2019-10-14","1001","Domeneshop AS dba  domainnameshop.com","whois.domainnameshop.com","http://www.domainnameshop.com","Redacted for Privacy Purposes","Explorable AS","Redacted for Privacy Purposes","Redacted for Privacy Purposes","","Redacted for Privacy Purposes","Norway","khayueabrs5n@privacy-protection.email","Redacted for Privacy Purposes","","Redacted for Privacy Purposes","Redacted for Privacy Purposes","Redacted for Privacy Purposes","Redacted for Privacy Purposes","","Redacted for Privacy Purposes","Redacted for Privacy Purposes","c5scm7v7amvu@privacy-protection.email","Redacted for Privacy Purposes","","Redacted for Privacy Purposes","Redacted for Privacy Purposes","Redacted for Privacy Purposes","Redacted for Privacy Purposes","","Redacted for Privacy Purposes","Redacted for Privacy Purposes","hostmaster@domeneshop.no","Redacted for Privacy Purposes","Redacted for Privacy Purposes","","","","","","","","","","","ns1.hyp.net","ns2.hyp.net","ns3.hyp.net","","clientTransferProhibited","","",""
"34","vejledetselvhjalp.com","2018-10-15 16:59:19","2018-10-14","2018-10-14","2019-10-14","1001","Domeneshop AS dba  domainnameshop.com","whois.domainnameshop.com","http://www.domainnameshop.com","Redacted for Privacy Purposes","Explorable AS","Redacted for Privacy Purposes","Redacted for Privacy Purposes","","Redacted for Privacy Purposes","Norway","qf7ikmekotfb@privacy-protection.email","Redacted for Privacy Purposes","","Redacted for Privacy Purposes","Redacted for Privacy Purposes","Redacted for Privacy Purposes","Redacted for Privacy Purposes","","Redacted for Privacy Purposes","Redacted for Privacy Purposes","y9etwbrc8adk@privacy-protection.email","Redacted for Privacy Purposes","","Redacted for Privacy Purposes","Redacted for Privacy Purposes","Redacted for Privacy Purposes","Redacted for Privacy Purposes","","Redacted for Privacy Purposes","Redacted for Privacy Purposes","hostmaster@domeneshop.no","Redacted for Privacy Purposes","Redacted for Privacy Purposes","","","","","","","","","","","ns1.hyp.net","ns2.hyp.net","ns3.hyp.net","","clientTransferProhibited","","",""
"35","vikingwarriror.com","2018-10-15 17:20:25","2018-10-14","2018-10-14","2019-10-14","1001","Domeneshop AS dba  domainnameshop.com","whois.domainnameshop.com","http://www.domainnameshop.com","Redacted for Privacy Purposes","ESKIL AS","Redacted for Privacy Purposes","Redacted for Privacy Purposes","","Redacted for Privacy Purposes","Norway","tovzgfuas7ef@privacy-protection.email","Redacted for Privacy Purposes","","Redacted for Privacy Purposes","Redacted for Privacy Purposes","Redacted for Privacy Purposes","Redacted for Privacy Purposes","","Redacted for Privacy Purposes","Redacted for Privacy Purposes","ar7w9yn9kmqs@privacy-protection.email","Redacted for Privacy Purposes","","Redacted for Privacy Purposes","Redacted for Privacy Purposes","Redacted for Privacy Purposes","Redacted for Privacy Purposes","","Redacted for Privacy Purposes","Redacted for Privacy Purposes","hostmaster@domeneshop.no","Redacted for Privacy Purposes","Redacted for Privacy Purposes","","","","","","","","","","","ns1.hyp.net","ns2.hyp.net","ns3.hyp.net","","clientTransferProhibited","","",""
"36","xn--gullogslv-r8a.gold","2018-10-15 15:55:07","2018-10-14","2018-10-14","2019-10-14","1001","Domeneshop AS dba  domainnameshop.com","whois.domainnameshop.com","http://www.domainnameshop.com","REDACTED FOR PRIVACY","GSN CONSULTING NATTEN","REDACTED FOR PRIVACY","REDACTED FOR PRIVACY","","REDACTED FOR PRIVACY","Norway","","REDACTED FOR PRIVACY","REDACTED FOR PRIVACY","","","","","","","","","","","","","","","","","","","","","","","","","","","","","","","","","","","addPeriod","clientTransferProhibited","",""
"37","xn--md-1ia.tech","2018-10-15 18:40:50","2018-10-14","2018-10-14","2019-10-14","1001","Domeneshop AS dba  domainnameshop.com","whois.domainnameshop.com","http://www.domainnameshop.com","GSN CONSULTING NATTEN","GSN CONSULTING NATTEN","","","","","Norway","","","","","","","","","","","","","","","","","","","","","","","","","","","","","","","","","","ns1.hyp.net","ns2.hyp.net","ns3.hyp.net","","addPeriod","clientTransferProhibited","serverTransferProhibited",""
"38","xn--vejledetselvhjlp-7ob.com","2018-10-15 16:07:29","2018-10-14","2018-10-14","2019-10-14","1001","Domeneshop AS dba  domainnameshop.com","whois.domainnameshop.com","http://www.domainnameshop.com","Redacted for Privacy Purposes","Explorable AS","Redacted for Privacy Purposes","Redacted for Privacy Purposes","","Redacted for Privacy Purposes","Norway","46qhxnapob9z@privacy-protection.email","Redacted for Privacy Purposes","","Redacted for Privacy Purposes","Redacted for Privacy Purposes","Redacted for Privacy Purposes","Redacted for Privacy Purposes","","Redacted for Privacy Purposes","Redacted for Privacy Purposes","sgnkzdswr3n3@privacy-protection.email","Redacted for Privacy Purposes","","Redacted for Privacy Purposes","Redacted for Privacy Purposes","Redacted for Privacy Purposes","Redacted for Privacy Purposes","","Redacted for Privacy Purposes","Redacted for Privacy Purposes","hostmaster@domeneshop.no","Redacted for Privacy Purposes","Redacted for Privacy Purposes","","","","","","","","","","","ns1.hyp.net","ns2.hyp.net","ns3.hyp.net","","clientTransferProhibited","","",""
"39","xn--vgleddsjlvhjlp-5hbhe.com","2018-10-15 16:01:02","2018-10-14","2018-10-14","2019-10-14","1001","Domeneshop AS dba  domainnameshop.com","whois.domainnameshop.com","http://www.domainnameshop.com","Redacted for Privacy Purposes","Explorable AS","Redacted for Privacy Purposes","Redacted for Privacy Purposes","","Redacted for Privacy Purposes","Norway","ctnug4j4gz8q@privacy-protection.email","Redacted for Privacy Purposes","","Redacted for Privacy Purposes","Redacted for Privacy Purposes","Redacted for Privacy Purposes","Redacted for Privacy Purposes","","Redacted for Privacy Purposes","Redacted for Privacy Purposes","sar2idcttdt6@privacy-protection.email","Redacted for Privacy Purposes","","Redacted for Privacy Purposes","Redacted for Privacy Purposes","Redacted for Privacy Purposes","Redacted for Privacy Purposes","","Redacted for Privacy Purposes","Redacted for Privacy Purposes","hostmaster@domeneshop.no","Redacted for Privacy Purposes","Redacted for Privacy Purposes","","","","","","","","","","","ns1.hyp.net","ns2.hyp.net","ns3.hyp.net","","clientTransferProhibited","","",""