"num","domain_name","query_time","create_date","update_date","expiry_date","domain_registrar_id","domain_registrar_name","domain_registrar_whois","domain_registrar_url","registrant_name","registrant_company","registrant_address","registrant_city","registrant_state","registrant_zip","registrant_country","registrant_email","registrant_phone","registrant_fax","administrative_name","administrative_company","administrative_address","administrative_city","administrative_state","administrative_zip","administrative_country","administrative_email","administrative_phone","administrative_fax","technical_name","technical_company","technical_address","technical_city","technical_state","technical_zip","technical_country","technical_email","technical_phone","technical_fax","billing_name","billing_company","billing_address","billing_city","billing_state","billing_zip","billing_country","billing_email","billing_phone","billing_fax","name_server_1","name_server_2","name_server_3","name_server_4","domain_status_1","domain_status_2","domain_status_3","domain_status_4"
"1","ahfys.com","2018-10-15 17:20:30","2018-10-14","2018-10-14","2019-10-14","1831","DropCatch.com 420 LLC","whois.namebright.com","http://www.dropcatch720.com","jinxin yang","yangjinxin","tongzhouqu,fujiansheng,xiamenshi,quanzhoulu112hao","beijing","BEIJING","101100","China","jimmyxieyong1995@gmail.com","+1.86232303121","","jinxin yang","yangjinxin","tongzhouqu,fujiansheng,xiamenshi,quanzhoulu112hao","beijing","BEIJING","101100","China","jimmyxieyong1995@gmail.com","+1.86232303121","","jinxin yang","yangjinxin","tongzhouqu,fujiansheng,xiamenshi,quanzhoulu112hao","beijing","BEIJING","101100","China","jimmyxieyong1995@gmail.com","+1.86232303121","","","","","","","","","","","","jm1.dns.com","jm2.dns.com","","","clientTransferProhibited","","",""
"2","charttees.com","2018-10-15 17:41:39","2018-10-14","2018-10-14","2019-10-14","1831","DropCatch.com 420 LLC","whois.namebright.com","http://www.dropcatch720.com","Domain Admin / This Domain is For Sale","HugeDomains.com","2635 Walnut Street","Denver","CO","80205","United States","domains@hugedomains.com","+1.3038930552","","Domain Admin / This Domain is For Sale","HugeDomains.com","2635 Walnut Street","Denver","CO","80205","United States","domains@hugedomains.com","+1.3038930552","","Domain Admin / This Domain is For Sale","HugeDomains.com","2635 Walnut Street","Denver","CO","80205","United States","domains@hugedomains.com","+1.3038930552","","","","","","","","","","","","nsg1.namebrightdns.com","nsg2.namebrightdns.com","","","clientTransferProhibited","","",""
"3","cherokeerain.com","2018-10-15 17:05:04","2018-10-14","2018-10-14","2019-10-14","1831","DropCatch.com 420 LLC","whois.namebright.com","http://www.dropcatch720.com","Domain Admin / This Domain is For Sale","HugeDomains.com","2635 Walnut Street","Denver","CO","80205","United States","domains@hugedomains.com","+1.3038930552","","Domain Admin / This Domain is For Sale","HugeDomains.com","2635 Walnut Street","Denver","CO","80205","United States","domains@hugedomains.com","+1.3038930552","","Domain Admin / This Domain is For Sale","HugeDomains.com","2635 Walnut Street","Denver","CO","80205","United States","domains@hugedomains.com","+1.3038930552","","","","","","","","","","","","nsg1.namebrightdns.com","nsg2.namebrightdns.com","","","clientTransferProhibited","","",""
"4","feixingquan.com","2018-10-15 15:50:40","2018-10-14","2018-10-14","2019-10-14","1831","DropCatch.com 420 LLC","whois.namebright.com","http://www.dropcatch720.com","dai jiajia","","Beijing chaoyang district sea Yang road no. 776","Beijing","Beijing","100020","China","daijiajia2344@163.com","+86.18521798287","","dai jiajia","","Beijing chaoyang district sea Yang road no. 776","Beijing","Beijing","100020","China","daijiajia2344@163.com","+86.18521798287","","dai jiajia","","Beijing chaoyang district sea Yang road no. 776","Beijing","Beijing","100020","China","daijiajia2344@163.com","+86.18521798287","","","","","","","","","","","","","","","","clientTransferProhibited","","",""
"5","fsyouming.com","2018-10-15 15:52:29","2018-10-14","2018-10-14","2019-10-14","1831","DropCatch.com 420 LLC","whois.namebright.com","http://www.dropcatch720.com","Redacted for GDPR privacy","","Redacted for GDPR privacy","Redacted for GDPR privacy","Fujian","Redacted for GDPR privacy","China","","Redacted for GDPR privacy","Redacted for GDPR privacy","Redacted for GDPR privacy","Redacted for GDPR privacy","Redacted for GDPR privacy","Redacted for GDPR privacy","Redacted for GDPR privacy","Redacted for GDPR privacy","Redacted for GDPR privacy","","Redacted for GDPR privacy","Redacted for GDPR privacy","Redacted for GDPR privacy","Redacted for GDPR privacy","Redacted for GDPR privacy","Redacted for GDPR privacy","Redacted for GDPR privacy","Redacted for GDPR privacy","Redacted for GDPR privacy","","Redacted for GDPR privacy","Redacted for GDPR privacy","","","","","","","","","","","v1.juming-xz.com","v1.xz-juming.com","","","clientTransferProhibited","","",""
"6","genericpillshop.com","2018-10-15 17:38:20","2018-10-14","2018-10-14","2019-10-14","1831","DropCatch.com 420 LLC","whois.namebright.com","http://www.dropcatch720.com","Domain Admin / This Domain is For Sale","HugeDomains.com","2635 Walnut Street","Denver","CO","80205","United States","domains@hugedomains.com","+1.3038930552","","Domain Admin / This Domain is For Sale","HugeDomains.com","2635 Walnut Street","Denver","CO","80205","United States","domains@hugedomains.com","+1.3038930552","","Domain Admin / This Domain is For Sale","HugeDomains.com","2635 Walnut Street","Denver","CO","80205","United States","domains@hugedomains.com","+1.3038930552","","","","","","","","","","","","nsg1.namebrightdns.com","nsg2.namebrightdns.com","","","clientTransferProhibited","","",""
"7","panichome.com","2018-10-15 16:04:23","2018-10-14","2018-10-14","2019-10-14","1831","DropCatch.com 420 LLC","whois.namebright.com","http://www.dropcatch720.com","Domain Admin / This Domain is For Sale","HugeDomains.com","2635 Walnut Street","Denver","CO","80205","United States","domains@hugedomains.com","+1.3038930552","","Domain Admin / This Domain is For Sale","HugeDomains.com","2635 Walnut Street","Denver","CO","80205","United States","domains@hugedomains.com","+1.3038930552","","Domain Admin / This Domain is For Sale","HugeDomains.com","2635 Walnut Street","Denver","CO","80205","United States","domains@hugedomains.com","+1.3038930552","","","","","","","","","","","","nsg1.namebrightdns.com","nsg2.namebrightdns.com","","","clientTransferProhibited","","",""
"8","solocooking.com","2018-10-15 18:03:35","2018-10-14","2018-10-14","2019-10-14","1831","DropCatch.com 420 LLC","whois.namebright.com","http://www.dropcatch720.com","Domain Admin / This Domain is For Sale","HugeDomains.com","2635 Walnut Street","Denver","CO","80205","United States","domains@hugedomains.com","+1.3038930552","","Domain Admin / This Domain is For Sale","HugeDomains.com","2635 Walnut Street","Denver","CO","80205","United States","domains@hugedomains.com","+1.3038930552","","Domain Admin / This Domain is For Sale","HugeDomains.com","2635 Walnut Street","Denver","CO","80205","United States","domains@hugedomains.com","+1.3038930552","","","","","","","","","","","","nsg1.namebrightdns.com","nsg2.namebrightdns.com","","","clientTransferProhibited","","",""
"9","spacewan.com","2018-10-15 17:42:57","2018-10-14","2018-10-14","2019-10-14","1831","DropCatch.com 420 LLC","whois.namebright.com","http://www.dropcatch720.com","Domain Admin / This Domain is For Sale","HugeDomains.com","2635 Walnut Street","Denver","CO","80205","United States","domains@hugedomains.com","+1.3038930552","","Domain Admin / This Domain is For Sale","HugeDomains.com","2635 Walnut Street","Denver","CO","80205","United States","domains@hugedomains.com","+1.3038930552","","Domain Admin / This Domain is For Sale","HugeDomains.com","2635 Walnut Street","Denver","CO","80205","United States","domains@hugedomains.com","+1.3038930552","","","","","","","","","","","","nsg1.namebrightdns.com","nsg2.namebrightdns.com","","","clientTransferProhibited","","",""