"num","domain_name","query_time","create_date","update_date","expiry_date","domain_registrar_id","domain_registrar_name","domain_registrar_whois","domain_registrar_url","registrant_name","registrant_company","registrant_address","registrant_city","registrant_state","registrant_zip","registrant_country","registrant_email","registrant_phone","registrant_fax","administrative_name","administrative_company","administrative_address","administrative_city","administrative_state","administrative_zip","administrative_country","administrative_email","administrative_phone","administrative_fax","technical_name","technical_company","technical_address","technical_city","technical_state","technical_zip","technical_country","technical_email","technical_phone","technical_fax","billing_name","billing_company","billing_address","billing_city","billing_state","billing_zip","billing_country","billing_email","billing_phone","billing_fax","name_server_1","name_server_2","name_server_3","name_server_4","domain_status_1","domain_status_2","domain_status_3","domain_status_4"
"1","artuuu.com","2018-10-15 17:02:33","2018-10-14","2018-10-14","2019-10-14","2803","DropCatch.com 1044 LLC","whois.namebright.com","http://www.dropcatch1044.com","Redacted for GDPR privacy","","Redacted for GDPR privacy","Redacted for GDPR privacy","Fujian","Redacted for GDPR privacy","China","","Redacted for GDPR privacy","Redacted for GDPR privacy","Redacted for GDPR privacy","Redacted for GDPR privacy","Redacted for GDPR privacy","Redacted for GDPR privacy","Redacted for GDPR privacy","Redacted for GDPR privacy","Redacted for GDPR privacy","","Redacted for GDPR privacy","Redacted for GDPR privacy","Redacted for GDPR privacy","Redacted for GDPR privacy","Redacted for GDPR privacy","Redacted for GDPR privacy","Redacted for GDPR privacy","Redacted for GDPR privacy","Redacted for GDPR privacy","","Redacted for GDPR privacy","Redacted for GDPR privacy","","","","","","","","","","","v1.juming-xz.com","v1.xz-juming.com","","","clientTransferProhibited","","",""
"2","avenuesiteyonetimi.com","2018-10-15 15:58:44","2018-10-14","2018-10-14","2019-10-14","2803","DropCatch.com 1044 LLC","whois.namebright.com","http://www.dropcatch1044.com","This domain was caught by DropCatch.com","www.DropCatch.com","2635 Walnut Street","Denver","CO","80205","United States","support@dropcatch.com","+1.3035029098","","This domain was caught by DropCatch.com","www.DropCatch.com","2635 Walnut Street","Denver","CO","80205","United States","support@dropcatch.com","+1.3035029098","","This domain was caught by DropCatch.com","www.DropCatch.com","2635 Walnut Street","Denver","CO","80205","United States","support@dropcatch.com","+1.3035029098","","","","","","","","","","","","nsg1.namebrightdns.com","nsg2.namebrightdns.com","","","clientTransferProhibited","","",""
"3","excursioncuba.com","2018-10-15 17:57:17","2018-10-14","2018-10-14","2019-10-14","2803","DropCatch.com 1044 LLC","whois.namebright.com","http://www.dropcatch1044.com","Domain Admin / This Domain is For Sale","HugeDomains.com","2635 Walnut Street","Denver","CO","80205","United States","domains@hugedomains.com","+1.3038930552","","Domain Admin / This Domain is For Sale","HugeDomains.com","2635 Walnut Street","Denver","CO","80205","United States","domains@hugedomains.com","+1.3038930552","","Domain Admin / This Domain is For Sale","HugeDomains.com","2635 Walnut Street","Denver","CO","80205","United States","domains@hugedomains.com","+1.3038930552","","","","","","","","","","","","nsg1.namebrightdns.com","nsg2.namebrightdns.com","","","clientTransferProhibited","","",""
"4","nobbystocker.com","2018-10-15 15:58:55","2018-10-14","2018-10-14","2019-10-14","2803","DropCatch.com 1044 LLC","whois.namebright.com","http://www.dropcatch1044.com","Domain Admin / This Domain is For Sale","HugeDomains.com","2635 Walnut Street","Denver","CO","80205","United States","domains@hugedomains.com","+1.3038930552","","Domain Admin / This Domain is For Sale","HugeDomains.com","2635 Walnut Street","Denver","CO","80205","United States","domains@hugedomains.com","+1.3038930552","","Domain Admin / This Domain is For Sale","HugeDomains.com","2635 Walnut Street","Denver","CO","80205","United States","domains@hugedomains.com","+1.3038930552","","","","","","","","","","","","nsg1.namebrightdns.com","nsg2.namebrightdns.com","","","clientTransferProhibited","","",""
"5","pentoxide.com","2018-10-15 17:48:57","2018-10-14","2018-10-14","2019-10-14","2803","DropCatch.com 1044 LLC","whois.namebright.com","http://www.dropcatch1044.com","Isaac Goldstein","DOMAIN FOR SALE CHECK AFTERNIC.COM","Level 39, One Exchange Square, 8 Connaught Place","Hong Kong","NNO","0000","Hong Kong","domains@isaacgoldstein.com","+420.777866662","","Isaac Goldstein","DOMAIN FOR SALE CHECK AFTERNIC.COM","Level 39, One Exchange Square, 8 Connaught Place","Hong Kong","NNO","0000","Hong Kong","domains@isaacgoldstein.com","+420.777866662","","Isaac Goldstein","DOMAIN FOR SALE CHECK AFTERNIC.COM","Level 39, One Exchange Square, 8 Connaught Place","Hong Kong","NNO","0000","Hong Kong","domains@isaacgoldstein.com","+420.777866662","","","","","","","","","","","","ns1.mfk1.com","ns2.mfk1.com","","","clientTransferProhibited","","",""
"6","vbpwg.com","2018-10-15 16:07:37","2018-10-14","2018-10-14","2019-10-14","2803","DropCatch.com 1044 LLC","whois.namebright.com","http://www.dropcatch1044.com","qi hu","huqi","huangpuqu,wufunong,78nong","shanghai","SHANGHAI","200000","China","15910878468@163.com","+1.8615910878468","","qi hu","huqi","huangpuqu,wufunong,78nong","shanghai","SHANGHAI","200000","China","15910878468@163.com","+1.8615910878468","","qi hu","huqi","huangpuqu,wufunong,78nong","shanghai","SHANGHAI","200000","China","15910878468@163.com","+1.8615910878468","","","","","","","","","","","","jm1.dns.com","jm2.dns.com","","","clientTransferProhibited","","",""
"7","youcanseethedifference.com","2018-10-15 18:13:02","2018-10-14","2018-10-14","2019-10-14","2803","DropCatch.com 1044 LLC","whois.namebright.com","http://www.dropcatch1044.com","DANNY SULLIVAN","","150 CHANEY CT","NEW KENSINGTON","PA","15068","United States","danny9@gmail.com","+1.7244728872","","DANNY SULLIVAN","","150 CHANEY CT","NEW KENSINGTON","PA","15068","United States","danny9@gmail.com","+1.7244728872","","DANNY SULLIVAN","","150 CHANEY CT","NEW KENSINGTON","PA","15068","United States","danny9@gmail.com","+1.7244728872","","","","","","","","","","","","","","","","clientTransferProhibited","","",""