"num","domain_name","query_time","create_date","update_date","expiry_date","domain_registrar_id","domain_registrar_name","domain_registrar_whois","domain_registrar_url","registrant_name","registrant_company","registrant_address","registrant_city","registrant_state","registrant_zip","registrant_country","registrant_email","registrant_phone","registrant_fax","administrative_name","administrative_company","administrative_address","administrative_city","administrative_state","administrative_zip","administrative_country","administrative_email","administrative_phone","administrative_fax","technical_name","technical_company","technical_address","technical_city","technical_state","technical_zip","technical_country","technical_email","technical_phone","technical_fax","billing_name","billing_company","billing_address","billing_city","billing_state","billing_zip","billing_country","billing_email","billing_phone","billing_fax","name_server_1","name_server_2","name_server_3","name_server_4","domain_status_1","domain_status_2","domain_status_3","domain_status_4"
"1","brunchkitchen.com","2018-10-15 18:39:25","2018-10-14","2018-10-14","2019-10-14","1929","DropCatch.com 449 LLC","whois.namebright.com","http://www.dropcatch449.com","Domain Admin / This Domain is For Sale","HugeDomains.com","2635 Walnut Street","Denver","CO","80205","United States","domains@hugedomains.com","+1.3038930552","","Domain Admin / This Domain is For Sale","HugeDomains.com","2635 Walnut Street","Denver","CO","80205","United States","domains@hugedomains.com","+1.3038930552","","Domain Admin / This Domain is For Sale","HugeDomains.com","2635 Walnut Street","Denver","CO","80205","United States","domains@hugedomains.com","+1.3038930552","","","","","","","","","","","","nsg1.namebrightdns.com","nsg2.namebrightdns.com","","","clientTransferProhibited","","",""
"2","nolottery.com","2018-10-15 17:41:39","2018-10-14","2018-10-14","2019-10-14","1929","DropCatch.com 449 LLC","whois.namebright.com","http://www.dropcatch449.com","Joshua Eisenhower","","517 E High St","Elizabethtown","PA","17022","United States","ikehook@gmail.com","+1.7177238559","","Joshua Eisenhower","","517 E High St","Elizabethtown","PA","17022","United States","ikehook@gmail.com","+1.7177238559","","Joshua Eisenhower","","517 E High St","Elizabethtown","PA","17022","United States","ikehook@gmail.com","+1.7177238559","","","","","","","","","","","","ns1.uniregistrymarket.link","ns2.uniregistrymarket.link","","","clientTransferProhibited","","",""
"3","pensionprogram.com","2018-10-15 18:03:24","2018-10-14","2018-10-14","2019-10-14","1929","DropCatch.com 449 LLC","whois.namebright.com","http://www.dropcatch449.com","Domain Admin / This Domain is For Sale","HugeDomains.com","2635 Walnut Street","Denver","CO","80205","United States","domains@hugedomains.com","+1.3038930552","","Domain Admin / This Domain is For Sale","HugeDomains.com","2635 Walnut Street","Denver","CO","80205","United States","domains@hugedomains.com","+1.3038930552","","Domain Admin / This Domain is For Sale","HugeDomains.com","2635 Walnut Street","Denver","CO","80205","United States","domains@hugedomains.com","+1.3038930552","","","","","","","","","","","","nsg1.namebrightdns.com","nsg2.namebrightdns.com","","","clientTransferProhibited","","",""
"4","plantedlocally.com","2018-10-15 17:24:03","2018-10-14","2018-10-14","2019-10-14","1929","DropCatch.com 449 LLC","whois.namebright.com","http://www.dropcatch449.com","Domain Admin / This Domain is For Sale","HugeDomains.com","2635 Walnut Street","Denver","CO","80205","United States","domains@hugedomains.com","+1.3038930552","","Domain Admin / This Domain is For Sale","HugeDomains.com","2635 Walnut Street","Denver","CO","80205","United States","domains@hugedomains.com","+1.3038930552","","Domain Admin / This Domain is For Sale","HugeDomains.com","2635 Walnut Street","Denver","CO","80205","United States","domains@hugedomains.com","+1.3038930552","","","","","","","","","","","","nsg1.namebrightdns.com","nsg2.namebrightdns.com","","","clientTransferProhibited","","",""
"5","spectraland.com","2018-10-15 17:04:48","2018-10-14","2018-10-14","2019-10-14","1929","DropCatch.com 449 LLC","whois.namebright.com","http://www.dropcatch449.com","Domain Admin / This Domain is For Sale","HugeDomains.com","2635 Walnut Street","Denver","CO","80205","United States","domains@hugedomains.com","+1.3038930552","","Domain Admin / This Domain is For Sale","HugeDomains.com","2635 Walnut Street","Denver","CO","80205","United States","domains@hugedomains.com","+1.3038930552","","Domain Admin / This Domain is For Sale","HugeDomains.com","2635 Walnut Street","Denver","CO","80205","United States","domains@hugedomains.com","+1.3038930552","","","","","","","","","","","","nsg1.namebrightdns.com","nsg2.namebrightdns.com","","","clientTransferProhibited","","",""
"6","xinwangzhi.com","2018-10-15 16:25:38","2018-10-14","2018-10-14","2019-10-14","1929","DropCatch.com 449 LLC","whois.namebright.com","http://www.dropcatch449.com","Liang Tianwen","","gongshu","Hangzhou","Zhejiang Sheng","310012","China","domain@qiangmi.com","+86.15158195712","","Liang Tianwen","","gongshu","Hangzhou","Zhejiang Sheng","310012","China","domain@qiangmi.com","+86.15158195712","","Liang Tianwen","","gongshu","Hangzhou","Zhejiang Sheng","310012","China","domain@qiangmi.com","+86.15158195712","","","","","","","","","","","","","","","","clientTransferProhibited","","",""