"num","domain_name","query_time","create_date","update_date","expiry_date","domain_registrar_id","domain_registrar_name","domain_registrar_whois","domain_registrar_url","registrant_name","registrant_company","registrant_address","registrant_city","registrant_state","registrant_zip","registrant_country","registrant_email","registrant_phone","registrant_fax","administrative_name","administrative_company","administrative_address","administrative_city","administrative_state","administrative_zip","administrative_country","administrative_email","administrative_phone","administrative_fax","technical_name","technical_company","technical_address","technical_city","technical_state","technical_zip","technical_country","technical_email","technical_phone","technical_fax","billing_name","billing_company","billing_address","billing_city","billing_state","billing_zip","billing_country","billing_email","billing_phone","billing_fax","name_server_1","name_server_2","name_server_3","name_server_4","domain_status_1","domain_status_2","domain_status_3","domain_status_4"
"1","360gglm.com","2018-10-15 17:00:18","2018-10-14","2018-10-14","2019-10-14","1265","enom375, Incorporated","whois.enom375.com","http://www.enom375.com","Jianfeng Wu","","Luyang District, Fortune Plaza No. 1107 First","Hefeishi","ANHUISHENG","230001","China","temp@juming.com","+1.864009972996","","Jianfeng Wu","","Luyang District, Fortune Plaza No. 1107 First","Hefeishi","ANHUISHENG","230001","China","temp@juming.com","+1.864009972996","","Jianfeng Wu","","Luyang District, Fortune Plaza No. 1107 First","Hefeishi","ANHUISHENG","230001","China","temp@juming.com","+1.864009972996","","","","","","","","","","","","s1.juming.com","s2.juming.com","","","OK","","",""
"2","85retaildesign.com","2018-10-15 16:48:25","2018-10-14","2018-10-14","2019-10-14","1265","enom375, Incorporated","whois.enom375.com","http://www.enom375.com","New Ventures Services, Corp","New Ventures Services, Corp","PO BOX 459 Drums","Drums","PA","18222","United States","admin@newvcorp.com","+1.8558971723","","New Ventures Services, Corp","New Ventures Services, Corp","PO BOX 459 Drums","Drums","PA","18222","United States","admin@newvcorp.com","+1.8558971723","","New Ventures Services, Corp","New Ventures Services, Corp","PO BOX 459 Drums","Drums","PA","18222","United States","admin@newvcorp.com","+1.8558971723","","","","","","","","","","","","ns1626.ztomy.com","ns2626.ztomy.com","","","OK","","",""
"3","besociallyepic.com","2018-10-15 16:51:31","2018-10-14","2018-10-14","2019-10-14","1265","enom375, Incorporated","whois.enom375.com","http://www.enom375.com","New Ventures Services, Corp","New Ventures Services, Corp","PO BOX 459 Drums","Drums","PA","18222","United States","admin@newvcorp.com","+1.8558971723","","New Ventures Services, Corp","New Ventures Services, Corp","PO BOX 459 Drums","Drums","PA","18222","United States","admin@newvcorp.com","+1.8558971723","","New Ventures Services, Corp","New Ventures Services, Corp","PO BOX 459 Drums","Drums","PA","18222","United States","admin@newvcorp.com","+1.8558971723","","","","","","","","","","","","ns1626.ztomy.com","ns2626.ztomy.com","","","OK","","",""
"4","byekick.com","2018-10-15 17:12:07","2018-10-14","2018-10-14","2019-10-14","1265","enom375, Incorporated","whois.enom375.com","http://www.enom375.com","New Ventures Services, Corp","New Ventures Services, Corp","PO BOX 459 Drums","Drums","PA","18222","United States","admin@newvcorp.com","+1.8558971723","","New Ventures Services, Corp","New Ventures Services, Corp","PO BOX 459 Drums","Drums","PA","18222","United States","admin@newvcorp.com","+1.8558971723","","New Ventures Services, Corp","New Ventures Services, Corp","PO BOX 459 Drums","Drums","PA","18222","United States","admin@newvcorp.com","+1.8558971723","","","","","","","","","","","","ns1626.ztomy.com","ns2626.ztomy.com","","","OK","","",""
"5","cadizwebcams.com","2018-10-15 16:53:43","2018-10-14","2018-10-14","2019-10-14","1265","enom375, Incorporated","whois.enom375.com","http://www.enom375.com","PERFECT PRIVACY, LLC","","12808 Gran Bay Pkwy West","Jacksonville","FL","32258","United States","21geevp6imhu5b5gajl1q29et3@domaindiscreet.com","+1.9027492701","","PERFECT PRIVACY, LLC","","12808 Gran Bay Pkwy West","Jacksonville","FL","32258","United States","21geevp6imhu5b5gajl1q29et3@domaindiscreet.com","+1.9027492701","","PERFECT PRIVACY, LLC","","12808 Gran Bay Pkwy West","Jacksonville","FL","32258","United States","21geevp6imhu5b5gajl1q29et3@domaindiscreet.com","+1.9027492701","","","","","","","","","","","","ns15.above.com","ns16.above.com","","","OK","","",""
"6","clearhai.com","2018-10-15 18:32:18","2018-10-14","2018-10-14","2019-10-14","1265","enom375, Incorporated","whois.enom375.com","http://www.enom375.com","New Ventures Services, Corp","New Ventures Services, Corp","PO BOX 459 Drums","Drums","PA","18222","United States","admin@newvcorp.com","+1.8558971723","","New Ventures Services, Corp","New Ventures Services, Corp","PO BOX 459 Drums","Drums","PA","18222","United States","admin@newvcorp.com","+1.8558971723","","New Ventures Services, Corp","New Ventures Services, Corp","PO BOX 459 Drums","Drums","PA","18222","United States","admin@newvcorp.com","+1.8558971723","","","","","","","","","","","","ns1626.ztomy.com","ns2626.ztomy.com","","","OK","","",""
"7","debt-counseling-assistance.com","2018-10-15 17:17:44","2018-10-14","2018-10-14","2019-10-14","1265","enom375, Incorporated","whois.enom375.com","http://www.enom375.com","New Ventures Services, Corp","New Ventures Services, Corp","PO BOX 459 Drums","Drums","PA","18222","United States","admin@newvcorp.com","+1.8558971723","","New Ventures Services, Corp","New Ventures Services, Corp","PO BOX 459 Drums","Drums","PA","18222","United States","admin@newvcorp.com","+1.8558971723","","New Ventures Services, Corp","New Ventures Services, Corp","PO BOX 459 Drums","Drums","PA","18222","United States","admin@newvcorp.com","+1.8558971723","","","","","","","","","","","","ns1626.ztomy.com","ns2626.ztomy.com","","","OK","","",""
"8","everyday-hairstyles.com","2018-10-15 17:30:32","2018-10-14","2018-10-14","2019-10-14","1265","enom375, Incorporated","whois.enom375.com","http://www.enom375.com","New Ventures Services, Corp","New Ventures Services, Corp","PO BOX 459 Drums","Drums","PA","18222","United States","admin@newvcorp.com","+1.8558971723","","New Ventures Services, Corp","New Ventures Services, Corp","PO BOX 459 Drums","Drums","PA","18222","United States","admin@newvcorp.com","+1.8558971723","","New Ventures Services, Corp","New Ventures Services, Corp","PO BOX 459 Drums","Drums","PA","18222","United States","admin@newvcorp.com","+1.8558971723","","","","","","","","","","","","ns1626.ztomy.com","ns2626.ztomy.com","","","OK","","",""
"9","festivalparkiowa.com","2018-10-15 16:53:36","2018-10-14","2018-10-14","2019-10-14","1265","enom375, Incorporated","whois.enom375.com","http://www.enom375.com","New Ventures Services, Corp","New Ventures Services, Corp","PO BOX 459 Drums","Drums","PA","18222","United States","admin@newvcorp.com","+1.8558971723","","New Ventures Services, Corp","New Ventures Services, Corp","PO BOX 459 Drums","Drums","PA","18222","United States","admin@newvcorp.com","+1.8558971723","","New Ventures Services, Corp","New Ventures Services, Corp","PO BOX 459 Drums","Drums","PA","18222","United States","admin@newvcorp.com","+1.8558971723","","","","","","","","","","","","ns1626.ztomy.com","ns2626.ztomy.com","","","OK","","",""
"10","get-rota.com","2018-10-15 17:42:55","2018-10-14","2018-10-14","2019-10-14","1265","enom375, Incorporated","whois.enom375.com","http://www.enom375.com","New Ventures Services, Corp","New Ventures Services, Corp","PO BOX 459 Drums","Drums","PA","18222","United States","admin@newvcorp.com","+1.8558971723","","New Ventures Services, Corp","New Ventures Services, Corp","PO BOX 459 Drums","Drums","PA","18222","United States","admin@newvcorp.com","+1.8558971723","","New Ventures Services, Corp","New Ventures Services, Corp","PO BOX 459 Drums","Drums","PA","18222","United States","admin@newvcorp.com","+1.8558971723","","","","","","","","","","","","ns1626.ztomy.com","ns2626.ztomy.com","","","OK","","",""
"11","heavenmusicltd.com","2018-10-15 16:29:37","2018-10-14","2018-10-14","2019-10-14","1265","enom375, Incorporated","whois.enom375.com","http://www.enom375.com","New Ventures Services, Corp","New Ventures Services, Corp","PO BOX 459 Drums","Drums","PA","18222","United States","admin@newvcorp.com","+1.8558971723","","New Ventures Services, Corp","New Ventures Services, Corp","PO BOX 459 Drums","Drums","PA","18222","United States","admin@newvcorp.com","+1.8558971723","","New Ventures Services, Corp","New Ventures Services, Corp","PO BOX 459 Drums","Drums","PA","18222","United States","admin@newvcorp.com","+1.8558971723","","","","","","","","","","","","ns1626.ztomy.com","ns2626.ztomy.com","","","OK","","",""
"12","hotpopcars.com","2018-10-15 16:19:12","2018-10-14","2018-10-14","2019-10-14","1265","enom375, Incorporated","whois.enom375.com","http://www.enom375.com","New Ventures Services, Corp","New Ventures Services, Corp","PO BOX 459 Drums","Drums","PA","18222","United States","admin@newvcorp.com","+1.8558971723","","New Ventures Services, Corp","New Ventures Services, Corp","PO BOX 459 Drums","Drums","PA","18222","United States","admin@newvcorp.com","+1.8558971723","","New Ventures Services, Corp","New Ventures Services, Corp","PO BOX 459 Drums","Drums","PA","18222","United States","admin@newvcorp.com","+1.8558971723","","","","","","","","","","","","ns1626.ztomy.com","ns2626.ztomy.com","","","OK","","",""
"13","hpbuildings.com","2018-10-15 16:28:35","2018-10-14","2018-10-14","2019-10-14","1265","enom375, Incorporated","whois.enom375.com","http://www.enom375.com","Jianfeng Wu","","Luyang District, Fortune Plaza No. 1107 First","Hefeishi","ANHUISHENG","230001","China","temp@juming.com","+1.864009972996","","Jianfeng Wu","","Luyang District, Fortune Plaza No. 1107 First","Hefeishi","ANHUISHENG","230001","China","temp@juming.com","+1.864009972996","","Jianfeng Wu","","Luyang District, Fortune Plaza No. 1107 First","Hefeishi","ANHUISHENG","230001","China","temp@juming.com","+1.864009972996","","","","","","","","","","","","s1.juming.com","s2.juming.com","","","OK","","",""
"14","hyhtc.com","2018-10-15 18:13:07","2018-10-14","2018-10-15","2019-10-14","1265","enom375, Incorporated","whois.enom375.com","http://www.enom375.com","qi hu","huqi","huangpuqu,wufunong,78nong","shanghai","shanghai","200000","China","15910878468@163.com","+86.15910878468","+86.15910878468","qi hu","huqi","huangpuqu,wufunong,78nong","shanghai","shanghai","200000","China","15910878468@163.com","+86.15910878468","+86.15910878468","qi hu","huqi","huangpuqu,wufunong,78nong","shanghai","shanghai","200000","China","15910878468@163.com","+86.15910878468","+86.15910878468","","","","","","","","","","","s1.juming.com","s2.juming.com","","","OK","","",""
"15","jdbwh.com","2018-10-15 18:15:55","2018-10-14","2018-10-15","2019-10-14","1265","enom375, Incorporated","whois.enom375.com","http://www.enom375.com","qi hu","huqi","huangpuqu,wufunong,78nong","shanghai","shanghai","200000","China","15910878468@163.com","+86.15910878468","+86.15910878468","qi hu","huqi","huangpuqu,wufunong,78nong","shanghai","shanghai","200000","China","15910878468@163.com","+86.15910878468","+86.15910878468","qi hu","huqi","huangpuqu,wufunong,78nong","shanghai","shanghai","200000","China","15910878468@163.com","+86.15910878468","+86.15910878468","","","","","","","","","","","s1.juming.com","s2.juming.com","","","OK","","",""
"16","liverumours.com","2018-10-15 15:49:00","2018-10-14","2018-10-14","2019-10-14","1265","enom375, Incorporated","whois.enom375.com","http://www.enom375.com","New Ventures Services, Corp","New Ventures Services, Corp","PO BOX 459 Drums","Drums","PA","18222","United States","admin@newvcorp.com","+1.8558971723","","New Ventures Services, Corp","New Ventures Services, Corp","PO BOX 459 Drums","Drums","PA","18222","United States","admin@newvcorp.com","+1.8558971723","","New Ventures Services, Corp","New Ventures Services, Corp","PO BOX 459 Drums","Drums","PA","18222","United States","admin@newvcorp.com","+1.8558971723","","","","","","","","","","","","ns1626.ztomy.com","ns2626.ztomy.com","","","OK","","",""
"17","mechanicsgear.com","2018-10-15 17:04:58","2018-10-14","2018-10-15","2019-10-14","1265","enom375, Incorporated","whois.enom375.com","http://www.enom375.com","Khalid Mahmood","","PostBox 2460 136 Aurganzeb Road","SIALKOT","Punjab","51310","Pakistan","topafex@gmail.com","+92.3216144100","+92.523258210","Khalid Mahmood","","PostBox 2460 136 Aurganzeb Road","SIALKOT","Punjab","51310","Pakistan","topafex@gmail.com","+92.3216144100","+92.523258210","Domain Admin","Network Solutions","13861 Sunrise Valley Dr","Herndon","VA","20170","United States","ollntld405@networksolutions.com","+1.7036685203","","","","","","","","","","","","dns1.register.com","dns2.register.com","","","OK","","",""
"18","mybethesdadentist.com","2018-10-15 17:02:52","2018-10-14","2018-10-14","2019-10-14","1265","enom375, Incorporated","whois.enom375.com","http://www.enom375.com","New Ventures Services, Corp","New Ventures Services, Corp","PO BOX 459 Drums","Drums","PA","18222","United States","admin@newvcorp.com","+1.8558971723","","New Ventures Services, Corp","New Ventures Services, Corp","PO BOX 459 Drums","Drums","PA","18222","United States","admin@newvcorp.com","+1.8558971723","","New Ventures Services, Corp","New Ventures Services, Corp","PO BOX 459 Drums","Drums","PA","18222","United States","admin@newvcorp.com","+1.8558971723","","","","","","","","","","","","ns1626.ztomy.com","ns2626.ztomy.com","","","OK","","",""
"19","openkhana.net","2018-10-15 16:53:50","2018-10-13","2018-10-15","2019-10-13","1265","enom375, Incorporated","whois.enom375.com","http://www.enom375.com","rongxian mu","murongxian","zunyixian,shanpenzhen,dagucun,baiyanggangzu","zunyi","guizhou","563100","China","seo123321@outlook.com","+86.13076962198","+86.13076962198","rongxian mu","murongxian","zunyixian,shanpenzhen,dagucun,baiyanggangzu","zunyi","guizhou","563100","China","seo123321@outlook.com","+86.13076962198","+86.13076962198","rongxian mu","murongxian","zunyixian,shanpenzhen,dagucun,baiyanggangzu","zunyi","guizhou","563100","China","seo123321@outlook.com","+86.13076962198","+86.13076962198","","","","","","","","","","","s1.juming.com","s2.juming.com","","","OK","","",""
"20","red-red.com","2018-10-15 17:51:41","2018-10-14","2018-10-14","2019-10-14","1265","enom375, Incorporated","whois.enom375.com","http://www.enom375.com","New Ventures Services, Corp","New Ventures Services, Corp","PO BOX 459 Drums","Drums","PA","18222","United States","admin@newvcorp.com","+1.8558971723","","New Ventures Services, Corp","New Ventures Services, Corp","PO BOX 459 Drums","Drums","PA","18222","United States","admin@newvcorp.com","+1.8558971723","","New Ventures Services, Corp","New Ventures Services, Corp","PO BOX 459 Drums","Drums","PA","18222","United States","admin@newvcorp.com","+1.8558971723","","","","","","","","","","","","ns1626.ztomy.com","ns2626.ztomy.com","","","OK","","",""
"21","shamozao.com","2018-10-15 18:25:53","2018-10-14","2018-10-15","2019-10-14","1265","enom375, Incorporated","whois.enom375.com","http://www.enom375.com","zhiting ou","ouzhiting","suixixian,suichengzhen,chanzhucun,656hao","zhanjiang","guangdong","524300","China","phtechjmw@gmail.com","+86.13250268058","+86.13250268058","zhiting ou","ouzhiting","suixixian,suichengzhen,chanzhucun,656hao","zhanjiang","guangdong","524300","China","phtechjmw@gmail.com","+86.13250268058","+86.13250268058","zhiting ou","ouzhiting","suixixian,suichengzhen,chanzhucun,656hao","zhanjiang","guangdong","524300","China","phtechjmw@gmail.com","+86.13250268058","+86.13250268058","","","","","","","","","","","s1.juming.com","s2.juming.com","","","OK","","",""
"22","temusado.com","2018-10-15 17:02:02","2018-10-14","2018-10-15","2019-10-14","1265","enom375, Incorporated","whois.enom375.com","http://www.enom375.com","PERFECT PRIVACY, LLC","","12808 Gran Bay Pkwy West","Jacksonville","FL","32258","United States","21geevp6imhu5b5gajl1q29et3@domaindiscreet.com","+1.9027492701","","PERFECT PRIVACY, LLC","","12808 Gran Bay Pkwy West","Jacksonville","FL","32258","United States","21geevp6imhu5b5gajl1q29et3@domaindiscreet.com","+1.9027492701","","PERFECT PRIVACY, LLC","","12808 Gran Bay Pkwy West","Jacksonville","FL","32258","United States","21geevp6imhu5b5gajl1q29et3@domaindiscreet.com","+1.9027492701","","","","","","","","","","","","ns15.above.com","ns16.above.com","","","OK","","",""
"23","topanimeguide.com","2018-10-15 18:27:17","2018-10-14","2018-10-14","2019-10-14","1265","enom375, Incorporated","whois.enom375.com","http://www.enom375.com","New Ventures Services, Corp","New Ventures Services, Corp","PO BOX 459 Drums","Drums","PA","18222","United States","admin@newvcorp.com","+1.8558971723","","New Ventures Services, Corp","New Ventures Services, Corp","PO BOX 459 Drums","Drums","PA","18222","United States","admin@newvcorp.com","+1.8558971723","","New Ventures Services, Corp","New Ventures Services, Corp","PO BOX 459 Drums","Drums","PA","18222","United States","admin@newvcorp.com","+1.8558971723","","","","","","","","","","","","ns1626.ztomy.com","ns2626.ztomy.com","","","OK","","",""
"24","whcjzk.com","2018-10-15 18:39:35","2018-10-14","2018-10-14","2019-10-14","1265","enom375, Incorporated","whois.enom375.com","http://www.enom375.com","Jianfeng Wu","","Luyang District, Fortune Plaza No. 1107 First","Hefeishi","ANHUISHENG","230001","China","temp@juming.com","+1.864009972996","","Jianfeng Wu","","Luyang District, Fortune Plaza No. 1107 First","Hefeishi","ANHUISHENG","230001","China","temp@juming.com","+1.864009972996","","Jianfeng Wu","","Luyang District, Fortune Plaza No. 1107 First","Hefeishi","ANHUISHENG","230001","China","temp@juming.com","+1.864009972996","","","","","","","","","","","","s1.juming.com","s2.juming.com","","","OK","","",""
"25","youngchristianlife.com","2018-10-15 17:09:39","2018-10-14","2018-10-14","2019-10-14","1265","enom375, Incorporated","whois.enom375.com","http://www.enom375.com","New Ventures Services, Corp","New Ventures Services, Corp","PO BOX 459 Drums","Drums","PA","18222","United States","admin@newvcorp.com","+1.8558971723","","New Ventures Services, Corp","New Ventures Services, Corp","PO BOX 459 Drums","Drums","PA","18222","United States","admin@newvcorp.com","+1.8558971723","","New Ventures Services, Corp","New Ventures Services, Corp","PO BOX 459 Drums","Drums","PA","18222","United States","admin@newvcorp.com","+1.8558971723","","","","","","","","","","","","ns1626.ztomy.com","ns2626.ztomy.com","","","OK","","",""
"26","yuanyimiaopu.com","2018-10-15 17:15:07","2018-10-14","2018-10-14","2019-10-14","1265","enom375, Incorporated","whois.enom375.com","http://www.enom375.com","Jianfeng Wu","","Luyang District, Fortune Plaza No. 1107 First","Hefeishi","ANHUISHENG","230001","China","temp@juming.com","+1.864009972996","","Jianfeng Wu","","Luyang District, Fortune Plaza No. 1107 First","Hefeishi","ANHUISHENG","230001","China","temp@juming.com","+1.864009972996","","Jianfeng Wu","","Luyang District, Fortune Plaza No. 1107 First","Hefeishi","ANHUISHENG","230001","China","temp@juming.com","+1.864009972996","","","","","","","","","","","","s1.juming.com","s2.juming.com","","","OK","","",""