"num","domain_name","query_time","create_date","update_date","expiry_date","domain_registrar_id","domain_registrar_name","domain_registrar_whois","domain_registrar_url","registrant_name","registrant_company","registrant_address","registrant_city","registrant_state","registrant_zip","registrant_country","registrant_email","registrant_phone","registrant_fax","administrative_name","administrative_company","administrative_address","administrative_city","administrative_state","administrative_zip","administrative_country","administrative_email","administrative_phone","administrative_fax","technical_name","technical_company","technical_address","technical_city","technical_state","technical_zip","technical_country","technical_email","technical_phone","technical_fax","billing_name","billing_company","billing_address","billing_city","billing_state","billing_zip","billing_country","billing_email","billing_phone","billing_fax","name_server_1","name_server_2","name_server_3","name_server_4","domain_status_1","domain_status_2","domain_status_3","domain_status_4"
"1","anjhome.com","2018-10-15 15:50:44","2018-10-14","2018-10-14","2019-10-14","1050","Enom4, Inc.","whois.enom4.com","http://www.enom4.com","New Ventures Services, Corp","New Ventures Services, Corp","PO BOX 459 Drums","Drums","PA","18222","United States","admin@newvcorp.com","+1.8558971723","","New Ventures Services, Corp","New Ventures Services, Corp","PO BOX 459 Drums","Drums","PA","18222","United States","admin@newvcorp.com","+1.8558971723","","New Ventures Services, Corp","New Ventures Services, Corp","PO BOX 459 Drums","Drums","PA","18222","United States","admin@newvcorp.com","+1.8558971723","","","","","","","","","","","","ns1626.ztomy.com","ns2626.ztomy.com","","","OK","","",""
"2","antaijiagu.com","2018-10-15 15:58:22","2018-10-14","2018-10-14","2019-10-14","1050","Enom4, Inc.","whois.enom4.com","http://www.enom4.com","Jianfeng Wu","","Luyang District, Fortune Plaza No. 1107 First","Hefeishi","ANHUISHENG","230001","China","temp@juming.com","+1.864009972996","","Jianfeng Wu","","Luyang District, Fortune Plaza No. 1107 First","Hefeishi","ANHUISHENG","230001","China","temp@juming.com","+1.864009972996","","Jianfeng Wu","","Luyang District, Fortune Plaza No. 1107 First","Hefeishi","ANHUISHENG","230001","China","temp@juming.com","+1.864009972996","","","","","","","","","","","","s1.juming.com","s2.juming.com","","","OK","","",""
"3","atsounds.com","2018-10-15 16:34:15","2018-10-14","2018-10-14","2019-10-14","1050","Enom4, Inc.","whois.enom4.com","http://www.enom4.com","New Ventures Services, Corp","New Ventures Services, Corp","PO BOX 459 Drums","Drums","PA","18222","United States","admin@newvcorp.com","+1.8558971723","","New Ventures Services, Corp","New Ventures Services, Corp","PO BOX 459 Drums","Drums","PA","18222","United States","admin@newvcorp.com","+1.8558971723","","New Ventures Services, Corp","New Ventures Services, Corp","PO BOX 459 Drums","Drums","PA","18222","United States","admin@newvcorp.com","+1.8558971723","","","","","","","","","","","","ns1626.ztomy.com","ns2626.ztomy.com","","","OK","","",""
"4","bmgeek.com","2018-10-15 16:32:22","2018-10-14","2018-10-14","2019-10-14","1050","Enom4, Inc.","whois.enom4.com","http://www.enom4.com","New Ventures Services, Corp","New Ventures Services, Corp","PO BOX 459 Drums","Drums","PA","18222","United States","admin@newvcorp.com","+1.8558971723","","New Ventures Services, Corp","New Ventures Services, Corp","PO BOX 459 Drums","Drums","PA","18222","United States","admin@newvcorp.com","+1.8558971723","","New Ventures Services, Corp","New Ventures Services, Corp","PO BOX 459 Drums","Drums","PA","18222","United States","admin@newvcorp.com","+1.8558971723","","","","","","","","","","","","ns1626.ztomy.com","ns2626.ztomy.com","","","OK","","",""
"5","caycanh168.com","2018-10-15 17:41:42","2018-10-14","2018-10-15","2019-10-14","1050","Enom4, Inc.","whois.enom4.com","http://www.enom4.com","Jan Everno","The Management Group II","2885 Sanford Ave SW 29892","Grandville","MI","49418","United States","janeverno@gmail.com","+1.8056662322","","Jan Everno","","2885 Sanford Ave SW 29892","Grandville","MI","49418","United States","janeverno@gmail.com","+1.8056662322","","Jan Everno","","2885 Sanford Ave SW 29892","Grandville","MI","49418","United States","janeverno@gmail.com","+1.8056662322","","","","","","","","","","","","ns1.dnsnuts.com","ns2.dnsnuts.com","","","OK","","",""
"6","concordemobiles.com","2018-10-15 17:15:02","2018-10-14","2018-10-14","2019-10-14","1050","Enom4, Inc.","whois.enom4.com","http://www.enom4.com","New Ventures Services, Corp","New Ventures Services, Corp","PO BOX 459 Drums","Drums","PA","18222","United States","admin@newvcorp.com","+1.8558971723","","New Ventures Services, Corp","New Ventures Services, Corp","PO BOX 459 Drums","Drums","PA","18222","United States","admin@newvcorp.com","+1.8558971723","","New Ventures Services, Corp","New Ventures Services, Corp","PO BOX 459 Drums","Drums","PA","18222","United States","admin@newvcorp.com","+1.8558971723","","","","","","","","","","","","ns1626.ztomy.com","ns2626.ztomy.com","","","OK","","",""
"7","coolclassicautos.com","2018-10-15 18:26:38","2018-10-14","2018-10-14","2019-10-14","1050","Enom4, Inc.","whois.enom4.com","http://www.enom4.com","New Ventures Services, Corp","New Ventures Services, Corp","PO BOX 459 Drums","Drums","PA","18222","United States","admin@newvcorp.com","+1.8558971723","","New Ventures Services, Corp","New Ventures Services, Corp","PO BOX 459 Drums","Drums","PA","18222","United States","admin@newvcorp.com","+1.8558971723","","New Ventures Services, Corp","New Ventures Services, Corp","PO BOX 459 Drums","Drums","PA","18222","United States","admin@newvcorp.com","+1.8558971723","","","","","","","","","","","","ns1626.ztomy.com","ns2626.ztomy.com","","","OK","","",""
"8","daikuan7.com","2018-10-15 17:11:07","2018-10-14","2018-10-14","2019-10-14","1050","Enom4, Inc.","whois.enom4.com","http://www.enom4.com","Domain Administrator","XZ.COM","602, 56 Guanri Road, Software Park II","Xiamen","FUJIAN","361008","China","support@xz.com","+1.865925990220","","Domain Administrator","XZ.COM","602, 56 Guanri Road, Software Park II","Xiamen","FUJIAN","361008","China","support@xz.com","+1.865925990220","","Domain Administrator","XZ.COM","602, 56 Guanri Road, Software Park II","Xiamen","FUJIAN","361008","China","support@xz.com","+1.865925990220","","","","","","","","","","","","ns1.xz.com","ns2.xz.com","","","OK","","",""
"9","devup.net","2018-10-15 18:41:16","2018-10-13","2018-10-14","2019-10-13","1050","Enom4, Inc.","whois.enom4.com","http://www.enom4.com","Jan Everno","The Management Group II","2885 Sanford Ave SW 29892","Grandville","MI","49418","United States","janeverno@gmail.com","+1.8056662322","","Jan Everno","","2885 Sanford Ave SW 29892","Grandville","MI","49418","United States","janeverno@gmail.com","+1.8056662322","","Jan Everno","","2885 Sanford Ave SW 29892","Grandville","MI","49418","United States","janeverno@gmail.com","+1.8056662322","","","","","","","","","","","","ns1.dnsnuts.com","ns2.dnsnuts.com","","","OK","","",""
"10","dynamicsounds1.com","2018-10-15 17:14:28","2018-10-14","2018-10-14","2019-10-14","1050","Enom4, Inc.","whois.enom4.com","http://www.enom4.com","New Ventures Services, Corp","New Ventures Services, Corp","PO BOX 459 Drums","Drums","PA","18222","United States","admin@newvcorp.com","+1.8558971723","","New Ventures Services, Corp","New Ventures Services, Corp","PO BOX 459 Drums","Drums","PA","18222","United States","admin@newvcorp.com","+1.8558971723","","New Ventures Services, Corp","New Ventures Services, Corp","PO BOX 459 Drums","Drums","PA","18222","United States","admin@newvcorp.com","+1.8558971723","","","","","","","","","","","","ns1626.ztomy.com","ns2626.ztomy.com","","","OK","","",""
"11","eurosailuk.com","2018-10-15 17:42:34","2018-10-14","2018-10-15","2019-10-14","1050","Enom4, Inc.","whois.enom4.com","http://www.enom4.com","jianfeng wu","hefeijumingwangluokejiyouxiangongsi","shushanqu,zhengwuqu,zhidiguangchang,Czuo,29ceng","hefei","anhui","230000","China","temp@juming.com","+86.4009972996","+86.4009972996","jianfeng wu","hefeijumingwangluokejiyouxiangongsi","shushanqu,zhengwuqu,zhidiguangchang,Czuo,29ceng","hefei","anhui","230000","China","temp@juming.com","+86.4009972996","+86.4009972996","jianfeng wu","hefeijumingwangluokejiyouxiangongsi","shushanqu,zhengwuqu,zhidiguangchang,Czuo,29ceng","hefei","anhui","230000","China","temp@juming.com","+86.4009972996","+86.4009972996","","","","","","","","","","","s1.juming.com","s2.juming.com","","","OK","","",""
"12","geekygnomegames.com","2018-10-15 17:47:51","2018-10-14","2018-10-14","2019-10-14","1050","Enom4, Inc.","whois.enom4.com","http://www.enom4.com","New Ventures Services, Corp","New Ventures Services, Corp","PO BOX 459 Drums","Drums","PA","18222","United States","admin@newvcorp.com","+1.8558971723","","New Ventures Services, Corp","New Ventures Services, Corp","PO BOX 459 Drums","Drums","PA","18222","United States","admin@newvcorp.com","+1.8558971723","","New Ventures Services, Corp","New Ventures Services, Corp","PO BOX 459 Drums","Drums","PA","18222","United States","admin@newvcorp.com","+1.8558971723","","","","","","","","","","","","ns1626.ztomy.com","ns2626.ztomy.com","","","OK","","",""
"13","hdgang99.com","2018-10-15 15:50:10","2018-10-14","2018-10-14","2019-10-14","1050","Enom4, Inc.","whois.enom4.com","http://www.enom4.com","PERFECT PRIVACY, LLC","","12808 Gran Bay Pkwy West","Jacksonville","FL","32258","United States","ea1dku38hmgbd8og9fh5ng7uvb@domaindiscreet.com","+1.9027492701","","PERFECT PRIVACY, LLC","","12808 Gran Bay Pkwy West","Jacksonville","FL","32258","United States","ea1dku38hmgbd8og9fh5ng7uvb@domaindiscreet.com","+1.9027492701","","PERFECT PRIVACY, LLC","","12808 Gran Bay Pkwy West","Jacksonville","FL","32258","United States","ea1dku38hmgbd8og9fh5ng7uvb@domaindiscreet.com","+1.9027492701","","","","","","","","","","","","ns15.above.com","ns16.above.com","","","OK","","",""
"14","icravebollywood.com","2018-10-15 16:50:38","2018-10-14","2018-10-14","2019-10-14","1050","Enom4, Inc.","whois.enom4.com","http://www.enom4.com","New Ventures Services, Corp","New Ventures Services, Corp","PO BOX 459 Drums","Drums","PA","18222","United States","admin@newvcorp.com","+1.8558971723","","New Ventures Services, Corp","New Ventures Services, Corp","PO BOX 459 Drums","Drums","PA","18222","United States","admin@newvcorp.com","+1.8558971723","","New Ventures Services, Corp","New Ventures Services, Corp","PO BOX 459 Drums","Drums","PA","18222","United States","admin@newvcorp.com","+1.8558971723","","","","","","","","","","","","ns1626.ztomy.com","ns2626.ztomy.com","","","OK","","",""
"15","indiesitcom.com","2018-10-15 17:02:05","2018-10-14","2018-10-14","2019-10-14","1050","Enom4, Inc.","whois.enom4.com","http://www.enom4.com","New Ventures Services, Corp","New Ventures Services, Corp","PO BOX 459 Drums","Drums","PA","18222","United States","admin@newvcorp.com","+1.8558971723","","New Ventures Services, Corp","New Ventures Services, Corp","PO BOX 459 Drums","Drums","PA","18222","United States","admin@newvcorp.com","+1.8558971723","","New Ventures Services, Corp","New Ventures Services, Corp","PO BOX 459 Drums","Drums","PA","18222","United States","admin@newvcorp.com","+1.8558971723","","","","","","","","","","","","ns1626.ztomy.com","ns2626.ztomy.com","","","OK","","",""
"16","irishdraughtsassociation.com","2018-10-15 17:00:24","2018-10-14","2018-10-14","2019-10-14","1050","Enom4, Inc.","whois.enom4.com","http://www.enom4.com","New Ventures Services, Corp","New Ventures Services, Corp","PO BOX 459 Drums","Drums","PA","18222","United States","admin@newvcorp.com","+1.8558971723","","New Ventures Services, Corp","New Ventures Services, Corp","PO BOX 459 Drums","Drums","PA","18222","United States","admin@newvcorp.com","+1.8558971723","","New Ventures Services, Corp","New Ventures Services, Corp","PO BOX 459 Drums","Drums","PA","18222","United States","admin@newvcorp.com","+1.8558971723","","","","","","","","","","","","ns1626.ztomy.com","ns2626.ztomy.com","","","OK","","",""
"17","jsxingfei.com","2018-10-15 16:01:55","2018-10-14","2018-10-14","2019-10-14","1050","Enom4, Inc.","whois.enom4.com","http://www.enom4.com","Jianfeng Wu","www.Juming.com","Luyang District, Fortune Plaza No 1107 First","Hefei","ANHUI","230001","China","admin@juming.com","+1.864009972996","","Jianfeng Wu","www.Juming.com","Luyang District, Fortune Plaza No 1107 First","Hefei","ANHUI","230001","China","admin@juming.com","+1.864009972996","","Jianfeng Wu","www.Juming.com","Luyang District, Fortune Plaza No 1107 First","Hefei","ANHUI","230001","China","admin@juming.com","+1.864009972996","","","","","","","","","","","","s1.juming.com","s2.juming.com","","","OK","","",""
"18","lavievineyards.com","2018-10-15 16:54:07","2018-10-14","2018-10-14","2019-10-14","1050","Enom4, Inc.","whois.enom4.com","http://www.enom4.com","New Ventures Services, Corp","New Ventures Services, Corp","PO BOX 459 Drums","Drums","PA","18222","United States","admin@newvcorp.com","+1.8558971723","","New Ventures Services, Corp","New Ventures Services, Corp","PO BOX 459 Drums","Drums","PA","18222","United States","admin@newvcorp.com","+1.8558971723","","New Ventures Services, Corp","New Ventures Services, Corp","PO BOX 459 Drums","Drums","PA","18222","United States","admin@newvcorp.com","+1.8558971723","","","","","","","","","","","","ns1626.ztomy.com","ns2626.ztomy.com","","","OK","","",""
"19","lawyersofpakistan.com","2018-10-15 17:02:36","2018-10-14","2018-10-14","2019-10-14","1050","Enom4, Inc.","whois.enom4.com","http://www.enom4.com","New Ventures Services, Corp","New Ventures Services, Corp","PO BOX 459 Drums","Drums","PA","18222","United States","admin@newvcorp.com","+1.8558971723","","New Ventures Services, Corp","New Ventures Services, Corp","PO BOX 459 Drums","Drums","PA","18222","United States","admin@newvcorp.com","+1.8558971723","","New Ventures Services, Corp","New Ventures Services, Corp","PO BOX 459 Drums","Drums","PA","18222","United States","admin@newvcorp.com","+1.8558971723","","","","","","","","","","","","ns1626.ztomy.com","ns2626.ztomy.com","","","OK","","",""
"20","malegears.com","2018-10-15 18:02:48","2018-10-14","2018-10-14","2019-10-14","1050","Enom4, Inc.","whois.enom4.com","http://www.enom4.com","New Ventures Services, Corp","New Ventures Services, Corp","PO BOX 459 Drums","Drums","PA","18222","United States","admin@newvcorp.com","+1.8558971723","","New Ventures Services, Corp","New Ventures Services, Corp","PO BOX 459 Drums","Drums","PA","18222","United States","admin@newvcorp.com","+1.8558971723","","New Ventures Services, Corp","New Ventures Services, Corp","PO BOX 459 Drums","Drums","PA","18222","United States","admin@newvcorp.com","+1.8558971723","","","","","","","","","","","","ns1626.ztomy.com","ns2626.ztomy.com","","","OK","","",""
"21","medicalempires.com","2018-10-15 15:52:38","2018-10-14","2018-10-14","2019-10-14","1050","Enom4, Inc.","whois.enom4.com","http://www.enom4.com","New Ventures Services, Corp","New Ventures Services, Corp","PO BOX 459 Drums","Drums","PA","18222","United States","admin@newvcorp.com","+1.8558971723","","New Ventures Services, Corp","New Ventures Services, Corp","PO BOX 459 Drums","Drums","PA","18222","United States","admin@newvcorp.com","+1.8558971723","","New Ventures Services, Corp","New Ventures Services, Corp","PO BOX 459 Drums","Drums","PA","18222","United States","admin@newvcorp.com","+1.8558971723","","","","","","","","","","","","ns1626.ztomy.com","ns2626.ztomy.com","","","OK","","",""
"22","pickwickwatersports.com","2018-10-15 16:02:00","2018-10-14","2018-10-14","2019-10-14","1050","Enom4, Inc.","whois.enom4.com","http://www.enom4.com","New Ventures Services, Corp","New Ventures Services, Corp","PO BOX 459 Drums","Drums","PA","18222","United States","admin@newvcorp.com","+1.8558971723","","New Ventures Services, Corp","New Ventures Services, Corp","PO BOX 459 Drums","Drums","PA","18222","United States","admin@newvcorp.com","+1.8558971723","","New Ventures Services, Corp","New Ventures Services, Corp","PO BOX 459 Drums","Drums","PA","18222","United States","admin@newvcorp.com","+1.8558971723","","","","","","","","","","","","ns1626.ztomy.com","ns2626.ztomy.com","","","OK","","",""
"23","resortouterbanks.com","2018-10-15 17:59:50","2018-10-14","2018-10-14","2019-10-14","1050","Enom4, Inc.","whois.enom4.com","http://www.enom4.com","New Ventures Services, Corp","New Ventures Services, Corp","PO BOX 459 Drums","Drums","PA","18222","United States","admin@newvcorp.com","+1.8558971723","","New Ventures Services, Corp","New Ventures Services, Corp","PO BOX 459 Drums","Drums","PA","18222","United States","admin@newvcorp.com","+1.8558971723","","New Ventures Services, Corp","New Ventures Services, Corp","PO BOX 459 Drums","Drums","PA","18222","United States","admin@newvcorp.com","+1.8558971723","","","","","","","","","","","","ns1626.ztomy.com","ns2626.ztomy.com","","","OK","","",""
"24","showmetheloan.net","2018-10-15 17:14:52","2018-10-13","2018-10-13","2019-10-13","1050","Enom4, Inc.","whois.enom4.com","http://www.enom4.com","PERFECT PRIVACY, LLC","","12808 Gran Bay Pkwy West","Jacksonville","FL","32258","United States","ea1dku38hmgbd8og9fh5ng7uvb@domaindiscreet.com","+1.9027492701","","PERFECT PRIVACY, LLC","","12808 Gran Bay Pkwy West","Jacksonville","FL","32258","United States","ea1dku38hmgbd8og9fh5ng7uvb@domaindiscreet.com","+1.9027492701","","PERFECT PRIVACY, LLC","","12808 Gran Bay Pkwy West","Jacksonville","FL","32258","United States","ea1dku38hmgbd8og9fh5ng7uvb@domaindiscreet.com","+1.9027492701","","","","","","","","","","","","ns15.above.com","ns16.above.com","","","OK","","",""
"25","sky-rental.com","2018-10-15 16:25:32","2018-10-14","2018-10-15","2019-10-14","1050","Enom4, Inc.","whois.enom4.com","http://www.enom4.com","New Ventures Services, Corp","New Ventures Services, Corp","PO BOX 459 Drums","Drums","PA","18222","United States","admin@newvcorp.com","+1.8558971723","","New Ventures Services, Corp","New Ventures Services, Corp","PO BOX 459 Drums","Drums","PA","18222","United States","admin@newvcorp.com","+1.8558971723","","New Ventures Services, Corp","New Ventures Services, Corp","PO BOX 459 Drums","Drums","PA","18222","United States","admin@newvcorp.com","+1.8558971723","","","","","","","","","","","","ns1626.ztomy.com","ns2626.ztomy.com","","","OK","","",""
"26","thetastetraveller.com","2018-10-15 17:45:52","2018-10-14","2018-10-14","2019-10-14","1050","Enom4, Inc.","whois.enom4.com","http://www.enom4.com","New Ventures Services, Corp","New Ventures Services, Corp","PO BOX 459 Drums","Drums","PA","18222","United States","admin@newvcorp.com","+1.8558971723","","New Ventures Services, Corp","New Ventures Services, Corp","PO BOX 459 Drums","Drums","PA","18222","United States","admin@newvcorp.com","+1.8558971723","","New Ventures Services, Corp","New Ventures Services, Corp","PO BOX 459 Drums","Drums","PA","18222","United States","admin@newvcorp.com","+1.8558971723","","","","","","","","","","","","ns1626.ztomy.com","ns2626.ztomy.com","","","OK","","",""
"27","toisinhvien.net","2018-10-15 17:02:16","2018-10-13","2018-10-13","2019-10-13","1050","Enom4, Inc.","whois.enom4.com","http://www.enom4.com","PERFECT PRIVACY, LLC","","12808 Gran Bay Pkwy West","Jacksonville","FL","32258","United States","ea1dku38hmgbd8og9fh5ng7uvb@domaindiscreet.com","+1.9027492701","","PERFECT PRIVACY, LLC","","12808 Gran Bay Pkwy West","Jacksonville","FL","32258","United States","ea1dku38hmgbd8og9fh5ng7uvb@domaindiscreet.com","+1.9027492701","","PERFECT PRIVACY, LLC","","12808 Gran Bay Pkwy West","Jacksonville","FL","32258","United States","ea1dku38hmgbd8og9fh5ng7uvb@domaindiscreet.com","+1.9027492701","","","","","","","","","","","","ns15.above.com","ns16.above.com","","","OK","","",""
"28","upgradeyourmedia.com","2018-10-15 16:31:21","2018-10-14","2018-10-14","2019-10-14","1050","Enom4, Inc.","whois.enom4.com","http://www.enom4.com","New Ventures Services, Corp","New Ventures Services, Corp","PO BOX 459 Drums","Drums","PA","18222","United States","admin@newvcorp.com","+1.8558971723","","New Ventures Services, Corp","New Ventures Services, Corp","PO BOX 459 Drums","Drums","PA","18222","United States","admin@newvcorp.com","+1.8558971723","","New Ventures Services, Corp","New Ventures Services, Corp","PO BOX 459 Drums","Drums","PA","18222","United States","admin@newvcorp.com","+1.8558971723","","","","","","","","","","","","ns1626.ztomy.com","ns2626.ztomy.com","","","OK","","",""
"29","vsinsurance.com","2018-10-15 16:34:17","2018-10-14","2018-10-14","2019-10-14","1050","Enom4, Inc.","whois.enom4.com","http://www.enom4.com","Jianfeng Wu","","Luyang District, Fortune Plaza No. 1107 First","Hefeishi","ANHUISHENG","230001","China","temp@juming.com","+1.864009972996","","Jianfeng Wu","","Luyang District, Fortune Plaza No. 1107 First","Hefeishi","ANHUISHENG","230001","China","temp@juming.com","+1.864009972996","","Jianfeng Wu","","Luyang District, Fortune Plaza No. 1107 First","Hefeishi","ANHUISHENG","230001","China","temp@juming.com","+1.864009972996","","","","","","","","","","","","s1.juming.com","s2.juming.com","","","OK","","",""
"30","vumeran.com","2018-10-15 16:22:26","2018-10-14","2018-10-15","2019-10-14","1050","Enom4, Inc.","whois.enom4.com","http://www.enom4.com","yuanfa zhong","zhongyuanfa","liannanyaozu,sanpaizhen,shanxiguanliqu,shanxicun","qingyuan","guangdong","513300","China","jpzyx001@gmail.com","+86.15604090642","+86.15604090642","yuanfa zhong","zhongyuanfa","liannanyaozu,sanpaizhen,shanxiguanliqu,shanxicun","qingyuan","guangdong","513300","China","jpzyx001@gmail.com","+86.15604090642","+86.15604090642","yuanfa zhong","zhongyuanfa","liannanyaozu,sanpaizhen,shanxiguanliqu,shanxicun","qingyuan","guangdong","513300","China","jpzyx001@gmail.com","+86.15604090642","+86.15604090642","","","","","","","","","","","s1.juming.com","s2.juming.com","","","OK","","",""
"31","winesnobsnot.com","2018-10-15 17:23:33","2018-10-14","2018-10-14","2019-10-14","1050","Enom4, Inc.","whois.enom4.com","http://www.enom4.com","New Ventures Services, Corp","New Ventures Services, Corp","PO BOX 459 Drums","Drums","PA","18222","United States","admin@newvcorp.com","+1.8558971723","","New Ventures Services, Corp","New Ventures Services, Corp","PO BOX 459 Drums","Drums","PA","18222","United States","admin@newvcorp.com","+1.8558971723","","New Ventures Services, Corp","New Ventures Services, Corp","PO BOX 459 Drums","Drums","PA","18222","United States","admin@newvcorp.com","+1.8558971723","","","","","","","","","","","","ns1626.ztomy.com","ns2626.ztomy.com","","","OK","","",""
"32","ycdnok.com","2018-10-15 18:30:24","2018-10-14","2018-10-15","2019-10-14","1050","Enom4, Inc.","whois.enom4.com","http://www.enom4.com","Jianfeng Wu","www.Juming.com","Luyang District, Fortune Plaza No 1107 First","Hefei","ANHUI","230001","China","admin@juming.com","+1.864009972996","","Jianfeng Wu","www.Juming.com","Luyang District, Fortune Plaza No 1107 First","Hefei","ANHUI","230001","China","admin@juming.com","+1.864009972996","","Jianfeng Wu","www.Juming.com","Luyang District, Fortune Plaza No 1107 First","Hefei","ANHUI","230001","China","admin@juming.com","+1.864009972996","","","","","","","","","","","","s1.juming.com","s2.juming.com","","","OK","","",""
"33","ytdiangou.com","2018-10-15 16:11:36","2018-10-14","2018-10-14","2019-10-14","1050","Enom4, Inc.","whois.enom4.com","http://www.enom4.com","Jianfeng Wu","","Luyang District, Fortune Plaza No. 1107 First","Hefeishi","ANHUISHENG","230001","China","temp@juming.com","+1.864009972996","","Jianfeng Wu","","Luyang District, Fortune Plaza No. 1107 First","Hefeishi","ANHUISHENG","230001","China","temp@juming.com","+1.864009972996","","Jianfeng Wu","","Luyang District, Fortune Plaza No. 1107 First","Hefeishi","ANHUISHENG","230001","China","temp@juming.com","+1.864009972996","","","","","","","","","","","","s1.juming.com","s2.juming.com","","","OK","","",""