"num","domain_name","query_time","create_date","update_date","expiry_date","domain_registrar_id","domain_registrar_name","domain_registrar_whois","domain_registrar_url","registrant_name","registrant_company","registrant_address","registrant_city","registrant_state","registrant_zip","registrant_country","registrant_email","registrant_phone","registrant_fax","administrative_name","administrative_company","administrative_address","administrative_city","administrative_state","administrative_zip","administrative_country","administrative_email","administrative_phone","administrative_fax","technical_name","technical_company","technical_address","technical_city","technical_state","technical_zip","technical_country","technical_email","technical_phone","technical_fax","billing_name","billing_company","billing_address","billing_city","billing_state","billing_zip","billing_country","billing_email","billing_phone","billing_fax","name_server_1","name_server_2","name_server_3","name_server_4","domain_status_1","domain_status_2","domain_status_3","domain_status_4"
"1","congresoimperiocreativo.com","2018-10-15 17:45:29","2018-10-14","2018-10-14","2019-10-14","1600","Estrategias WebSite S.L.","whois2.virtualname.es","http://www.virtualpyme.com/","GDPR Masked","GDPR Masked","GDPR Masked GDPR Masked GDPR Masked","GDPR Masked","GDPR Masked","00000","GDPR Masked","gdpr-masking@gdpr-masked.com","+0.00000000","","GDPR Masked","GDPR Masked","GDPR Masked GDPR Masked GDPR Masked","GDPR Masked","GDPR Masked","00000","GDPR Masked","gdpr-masking@gdpr-masked.com","+0.00000000","","GDPR Masked","GDPR Masked","GDPR Masked GDPR Masked GDPR Masked","GDPR Masked","GDPR Masked","00000","GDPR Masked","gdpr-masking@gdpr-masked.com","+0.00000000","","","","","","","","","","","","dns1.raiolanetworks.es","dns2.raiolanetworks.es","dns3.raiolanetworks.es","","clientTransferProhibited","","",""
"2","cykelbicicletasurbanas.com","2018-10-15 18:07:02","2018-10-15","2018-10-15","2019-10-15","1600","Estrategias WebSite S.L.","whois2.virtualname.es","http://www.virtualpyme.com/","Jimena Ortiz Luviano","","Paseo San Arturo Norte #2180","Zapopan, Jalisco","Jalisco","45019","Mexico","jimenaortizl96@gmail.com","+52.13338132643","","Jimena Ortiz Luviano","","Paseo San Arturo Norte #2180","Zapopan, Jalisco","Jalisco","45019","Mexico","jimenaortizl96@gmail.com","+52.13338132643","","Jimena Ortiz Luviano","","Paseo San Arturo Norte #2180","Zapopan, Jalisco","Jalisco","45019","Mexico","jimenaortizl96@gmail.com","+52.13338132643","","","","","","","","","","","","ns50011.webempresa.eu","ns50012.webempresa.eu","","","clientTransferProhibited","","",""
"3","dacampeggio.com","2018-10-15 17:12:05","2018-10-14","2018-10-14","2019-10-14","1600","Estrategias WebSite S.L.","whois2.virtualname.es","http://www.virtualpyme.com/","GDPR Masked","GDPR Masked","GDPR Masked GDPR Masked GDPR Masked","GDPR Masked","GDPR Masked","00000","GDPR Masked","gdpr-masking@gdpr-masked.com","+0.00000000","","GDPR Masked","GDPR Masked","GDPR Masked GDPR Masked GDPR Masked","GDPR Masked","GDPR Masked","00000","GDPR Masked","gdpr-masking@gdpr-masked.com","+0.00000000","","GDPR Masked","GDPR Masked","GDPR Masked GDPR Masked GDPR Masked","GDPR Masked","GDPR Masked","00000","GDPR Masked","gdpr-masking@gdpr-masked.com","+0.00000000","","","","","","","","","","","","ns306.zonasprivadasdns.com","ns307.zonasprivadasdns.com","","","clientTransferProhibited","","",""
"4","desnorkel.net","2018-10-15 17:15:26","2018-10-14","2018-10-14","2019-10-14","1600","Estrategias WebSite S.L.","whois2.virtualname.es","http://www.virtualpyme.com/","GDPR Masked","GDPR Masked","GDPR Masked GDPR Masked GDPR Masked","GDPR Masked","GDPR Masked","00000","GDPR Masked","gdpr-masking@gdpr-masked.com","+0.00000000","","GDPR Masked","GDPR Masked","GDPR Masked GDPR Masked GDPR Masked","GDPR Masked","GDPR Masked","00000","GDPR Masked","gdpr-masking@gdpr-masked.com","+0.00000000","","GDPR Masked","GDPR Masked","GDPR Masked GDPR Masked GDPR Masked","GDPR Masked","GDPR Masked","00000","GDPR Masked","gdpr-masking@gdpr-masked.com","+0.00000000","","","","","","","","","","","","ns50081.webempresa.eu","ns50082.webempresa.eu","","","clientTransferProhibited","","",""
"5","e-commercelatam.com","2018-10-15 16:32:23","2018-10-14","2018-10-14","2019-10-14","1600","Estrategias WebSite S.L.","whois2.virtualname.es","http://www.virtualpyme.com/","Domain Admin","Privacy Protect, LLC (PrivacyProtect.org)","10 Corporate Drive","Burlington","MA","01803","United States","contact@privacyprotect.org","+1.8022274003","","Domain Admin","Privacy Protect, LLC (PrivacyProtect.org)","10 Corporate Drive","Burlington","MA","01803","United States","contact@privacyprotect.org","+1.8022274003","","Domain Admin","Privacy Protect, LLC (PrivacyProtect.org)","10 Corporate Drive","Burlington","MA","01803","United States","contact@privacyprotect.org","+1.8022274003","","","","","","","","","","","","dns1.raiolanetworks.es","dns2.raiolanetworks.es","dns3.raiolanetworks.es","","clientTransferProhibited","","",""
"6","ekoroji.com","2018-10-15 18:12:39","2018-10-14","2018-10-14","2019-10-14","1600","Estrategias WebSite S.L.","whois2.virtualname.es","http://www.virtualpyme.com/","Domain Admin","Privacy Protect, LLC (PrivacyProtect.org)","10 Corporate Drive","Burlington","MA","01803","United States","contact@privacyprotect.org","+1.8022274003","","Domain Admin","Privacy Protect, LLC (PrivacyProtect.org)","10 Corporate Drive","Burlington","MA","01803","United States","contact@privacyprotect.org","+1.8022274003","","Domain Admin","Privacy Protect, LLC (PrivacyProtect.org)","10 Corporate Drive","Burlington","MA","01803","United States","contact@privacyprotect.org","+1.8022274003","","","","","","","","","","","","dns1.raiolanetworks.es","dns2.raiolanetworks.es","dns3.raiolanetworks.es","","clientTransferProhibited","","",""
"7","emprendimientoygestion.com","2018-10-15 17:20:56","2018-10-14","2018-10-14","2019-10-14","1600","Estrategias WebSite S.L.","whois2.virtualname.es","http://www.virtualpyme.com/","Jaime Delgado","","Calle 79 No. 57-60","Barranquilla","Atlantico","080001","Colombia","jaimearturo30@gmail.com","+57.3158002064","","Jaime Delgado","","Calle 79 No. 57-60","Barranquilla","Atlantico","080001","Colombia","jaimearturo30@gmail.com","+57.3158002064","","Jaime Delgado","","Calle 79 No. 57-60","Barranquilla","Atlantico","080001","Colombia","jaimearturo30@gmail.com","+57.3158002064","","","","","","","","","","","","ns261.webempresa.eu","ns262.webempresa.eu","","","clientTransferProhibited","","",""
"8","esdomum.com","2018-10-15 15:47:42","2018-10-14","2018-10-14","2019-10-14","1600","Estrategias WebSite S.L.","whois2.virtualname.es","http://www.virtualpyme.com/","GDPR Masked","GDPR Masked","GDPR Masked GDPR Masked GDPR Masked","GDPR Masked","GDPR Masked","00000","GDPR Masked","gdpr-masking@gdpr-masked.com","+0.00000000","","GDPR Masked","GDPR Masked","GDPR Masked GDPR Masked GDPR Masked","GDPR Masked","GDPR Masked","00000","GDPR Masked","gdpr-masking@gdpr-masked.com","+0.00000000","","GDPR Masked","GDPR Masked","GDPR Masked GDPR Masked GDPR Masked","GDPR Masked","GDPR Masked","00000","GDPR Masked","gdpr-masking@gdpr-masked.com","+0.00000000","","","","","","","","","","","","dns1.raiolanetworks.es","dns2.raiolanetworks.es","dns3.raiolanetworks.es","","clientTransferProhibited","","",""
"9","eurociclismogranadasur.com","2018-10-15 15:55:56","2018-10-14","2018-10-14","2019-10-14","1600","Estrategias WebSite S.L.","whois2.virtualname.es","http://www.virtualpyme.com/","Domain Admin","Privacy Protect, LLC (PrivacyProtect.org)","10 Corporate Drive","Burlington","MA","01803","United States","contact@privacyprotect.org","+1.8022274003","","Domain Admin","Privacy Protect, LLC (PrivacyProtect.org)","10 Corporate Drive","Burlington","MA","01803","United States","contact@privacyprotect.org","+1.8022274003","","Domain Admin","Privacy Protect, LLC (PrivacyProtect.org)","10 Corporate Drive","Burlington","MA","01803","United States","contact@privacyprotect.org","+1.8022274003","","","","","","","","","","","","dns1.raiolanetworks.es","dns2.raiolanetworks.es","dns3.raiolanetworks.es","","clientTransferProhibited","","",""
"10","fotografiarislandia.com","2018-10-15 16:53:15","2018-10-14","2018-10-14","2019-10-14","1600","Estrategias WebSite S.L.","whois2.virtualname.es","http://www.virtualpyme.com/","GDPR Masked","GDPR Masked","GDPR Masked GDPR Masked GDPR Masked","GDPR Masked","GDPR Masked","00000","GDPR Masked","gdpr-masking@gdpr-masked.com","+0.00000000","","GDPR Masked","GDPR Masked","GDPR Masked GDPR Masked GDPR Masked","GDPR Masked","GDPR Masked","00000","GDPR Masked","gdpr-masking@gdpr-masked.com","+0.00000000","","GDPR Masked","GDPR Masked","GDPR Masked GDPR Masked GDPR Masked","GDPR Masked","GDPR Masked","00000","GDPR Masked","gdpr-masking@gdpr-masked.com","+0.00000000","","","","","","","","","","","","dns80.zonasprivadasdns.com","dns81.zonasprivadasdns.com","","","clientTransferProhibited","","",""
"11","groddin.com","2018-10-15 18:09:35","2018-10-14","2018-10-14","2019-10-14","1600","Estrategias WebSite S.L.","whois2.virtualname.es","http://www.virtualpyme.com/","GDPR Masked","GDPR Masked","GDPR Masked GDPR Masked GDPR Masked","GDPR Masked","GDPR Masked","00000","GDPR Masked","gdpr-masking@gdpr-masked.com","+0.00000000","","GDPR Masked","GDPR Masked","GDPR Masked GDPR Masked GDPR Masked","GDPR Masked","GDPR Masked","00000","GDPR Masked","gdpr-masking@gdpr-masked.com","+0.00000000","","GDPR Masked","GDPR Masked","GDPR Masked GDPR Masked GDPR Masked","GDPR Masked","GDPR Masked","00000","GDPR Masked","gdpr-masking@gdpr-masked.com","+0.00000000","","","","","","","","","","","","dns1.raiolanetworks.es","dns2.raiolanetworks.es","dns3.raiolanetworks.es","","clientTransferProhibited","","",""
"12","holanube.net","2018-10-15 17:31:10","2018-10-13","2018-10-13","2019-10-13","1600","Estrategias WebSite S.L.","whois2.virtualname.es","http://www.virtualpyme.com/","GDPR Masked","GDPR Masked","GDPR Masked GDPR Masked GDPR Masked","GDPR Masked","GDPR Masked","00000","GDPR Masked","gdpr-masking@gdpr-masked.com","+0.00000000","","GDPR Masked","GDPR Masked","GDPR Masked GDPR Masked GDPR Masked","GDPR Masked","GDPR Masked","00000","GDPR Masked","gdpr-masking@gdpr-masked.com","+0.00000000","","GDPR Masked","GDPR Masked","GDPR Masked GDPR Masked GDPR Masked","GDPR Masked","GDPR Masked","00000","GDPR Masked","gdpr-masking@gdpr-masked.com","+0.00000000","","","","","","","","","","","","ns1.masgigas.com","ns2.masgigas.com","","","clientTransferProhibited","","",""
"13","llimonasuites.com","2018-10-15 18:28:58","2018-10-14","2018-10-14","2019-10-14","1600","Estrategias WebSite S.L.","whois2.virtualname.es","http://www.virtualpyme.com/","Domain Admin","Privacy Protect, LLC (PrivacyProtect.org)","10 Corporate Drive","Burlington","MA","01803","United States","contact@privacyprotect.org","+1.8022274003","","Domain Admin","Privacy Protect, LLC (PrivacyProtect.org)","10 Corporate Drive","Burlington","MA","01803","United States","contact@privacyprotect.org","+1.8022274003","","Domain Admin","Privacy Protect, LLC (PrivacyProtect.org)","10 Corporate Drive","Burlington","MA","01803","United States","contact@privacyprotect.org","+1.8022274003","","","","","","","","","","","","dns1.raiolanetworks.es","dns2.raiolanetworks.es","dns3.raiolanetworks.es","","clientTransferProhibited","","",""
"14","martinezdavid.com","2018-10-15 17:19:59","2018-10-14","2018-10-14","2019-10-14","1600","Estrategias WebSite S.L.","whois2.virtualname.es","http://www.virtualpyme.com/","GDPR Masked","GDPR Masked","GDPR Masked GDPR Masked GDPR Masked","GDPR Masked","GDPR Masked","00000","GDPR Masked","gdpr-masking@gdpr-masked.com","+0.00000000","","GDPR Masked","GDPR Masked","GDPR Masked GDPR Masked GDPR Masked","GDPR Masked","GDPR Masked","00000","GDPR Masked","gdpr-masking@gdpr-masked.com","+0.00000000","","GDPR Masked","GDPR Masked","GDPR Masked GDPR Masked GDPR Masked","GDPR Masked","GDPR Masked","00000","GDPR Masked","gdpr-masking@gdpr-masked.com","+0.00000000","","","","","","","","","","","","ns1.hoswedaje.com","ns2.hoswedaje.com","","","clientTransferProhibited","","",""
"15","mipulseradeactividad.com","2018-10-15 17:50:47","2018-10-14","2018-10-14","2019-10-14","1600","Estrategias WebSite S.L.","whois2.virtualname.es","http://www.virtualpyme.com/","GDPR Masked","GDPR Masked","GDPR Masked GDPR Masked GDPR Masked","GDPR Masked","GDPR Masked","00000","GDPR Masked","gdpr-masking@gdpr-masked.com","+0.00000000","","GDPR Masked","GDPR Masked","GDPR Masked GDPR Masked GDPR Masked","GDPR Masked","GDPR Masked","00000","GDPR Masked","gdpr-masking@gdpr-masked.com","+0.00000000","","GDPR Masked","GDPR Masked","GDPR Masked GDPR Masked GDPR Masked","GDPR Masked","GDPR Masked","00000","GDPR Masked","gdpr-masking@gdpr-masked.com","+0.00000000","","","","","","","","","","","","dns1.raiolanetworks.es","dns2.raiolanetworks.es","dns3.raiolanetworks.es","","clientTransferProhibited","","",""
"16","narebrand.com","2018-10-15 18:38:42","2018-10-14","2018-10-14","2019-10-14","1600","Estrategias WebSite S.L.","whois2.virtualname.es","http://www.virtualpyme.com/","Domain Admin","Privacy Protect, LLC (PrivacyProtect.org)","10 Corporate Drive","Burlington","MA","01803","United States","contact@privacyprotect.org","+1.8022274003","","Domain Admin","Privacy Protect, LLC (PrivacyProtect.org)","10 Corporate Drive","Burlington","MA","01803","United States","contact@privacyprotect.org","+1.8022274003","","Domain Admin","Privacy Protect, LLC (PrivacyProtect.org)","10 Corporate Drive","Burlington","MA","01803","United States","contact@privacyprotect.org","+1.8022274003","","","","","","","","","","","","dns1.raiolanetworks.es","dns2.raiolanetworks.es","dns3.raiolanetworks.es","","clientTransferProhibited","","",""
"17","ohmycr.com","2018-10-15 18:14:55","2018-10-14","2018-10-14","2019-10-14","1600","Estrategias WebSite S.L.","whois2.virtualname.es","http://www.virtualpyme.com/","CHRISTIAN TAMES","","GUADALUPE","Cartago","Cartago","30106","Costa Rica","ariel.tames@gmail.com","+506.40001412","","CHRISTIAN TAMES","","GUADALUPE","Cartago","Cartago","30106","Costa Rica","ariel.tames@gmail.com","+506.40001412","","CHRISTIAN TAMES","","GUADALUPE","Cartago","Cartago","30106","Costa Rica","ariel.tames@gmail.com","+506.40001412","","","","","","","","","","","","ns5021.webempresa.eu","ns5022.webempresa.eu","","","clientTransferProhibited","","",""
"18","ohmytienda.com","2018-10-15 17:14:38","2018-10-14","2018-10-14","2019-10-14","1600","Estrategias WebSite S.L.","whois2.virtualname.es","http://www.virtualpyme.com/","CHRISTIAN TAMES","","GUADALUPE","Cartago","Cartago","30106","Costa Rica","ariel.tames@gmail.com","+506.40001412","","CHRISTIAN TAMES","","GUADALUPE","Cartago","Cartago","30106","Costa Rica","ariel.tames@gmail.com","+506.40001412","","CHRISTIAN TAMES","","GUADALUPE","Cartago","Cartago","30106","Costa Rica","ariel.tames@gmail.com","+506.40001412","","","","","","","","","","","","ns5021.webempresa.eu","ns5022.webempresa.eu","","","clientTransferProhibited","","",""
"19","ponrumbo.com","2018-10-15 18:35:47","2018-10-14","2018-10-14","2019-10-14","1600","Estrategias WebSite S.L.","whois2.virtualname.es","http://www.virtualpyme.com/","Domain Admin","Privacy Protect, LLC (PrivacyProtect.org)","10 Corporate Drive","Burlington","MA","01803","United States","contact@privacyprotect.org","+1.8022274003","","Domain Admin","Privacy Protect, LLC (PrivacyProtect.org)","10 Corporate Drive","Burlington","MA","01803","United States","contact@privacyprotect.org","+1.8022274003","","Domain Admin","Privacy Protect, LLC (PrivacyProtect.org)","10 Corporate Drive","Burlington","MA","01803","United States","contact@privacyprotect.org","+1.8022274003","","","","","","","","","","","","dns1.raiolanetworks.es","dns2.raiolanetworks.es","dns3.raiolanetworks.es","","clientTransferProhibited","","",""
"20","sevidev.com","2018-10-15 16:20:38","2018-10-14","2018-10-14","2019-10-14","1600","Estrategias WebSite S.L.","whois2.virtualname.es","http://www.virtualpyme.com/","GDPR Masked","GDPR Masked","GDPR Masked GDPR Masked GDPR Masked","GDPR Masked","GDPR Masked","00000","GDPR Masked","gdpr-masking@gdpr-masked.com","+0.00000000","","GDPR Masked","GDPR Masked","GDPR Masked GDPR Masked GDPR Masked","GDPR Masked","GDPR Masked","00000","GDPR Masked","gdpr-masking@gdpr-masked.com","+0.00000000","","GDPR Masked","GDPR Masked","GDPR Masked GDPR Masked GDPR Masked","GDPR Masked","GDPR Masked","00000","GDPR Masked","gdpr-masking@gdpr-masked.com","+0.00000000","","","","","","","","","","","","ns10.behost.es","ns11.behost.es","","","clientTransferProhibited","","",""
"21","toniavila.com","2018-10-15 18:29:37","2018-10-14","2018-10-14","2019-10-14","1600","Estrategias WebSite S.L.","whois2.virtualname.es","http://www.virtualpyme.com/","GDPR Masked","GDPR Masked","GDPR Masked GDPR Masked GDPR Masked","GDPR Masked","GDPR Masked","00000","GDPR Masked","gdpr-masking@gdpr-masked.com","+0.00000000","","GDPR Masked","GDPR Masked","GDPR Masked GDPR Masked GDPR Masked","GDPR Masked","GDPR Masked","00000","GDPR Masked","gdpr-masking@gdpr-masked.com","+0.00000000","","GDPR Masked","GDPR Masked","GDPR Masked GDPR Masked GDPR Masked","GDPR Masked","GDPR Masked","00000","GDPR Masked","gdpr-masking@gdpr-masked.com","+0.00000000","","","","","","","","","","","","dns1.raiolanetworks.es","dns2.raiolanetworks.es","dns3.raiolanetworks.es","","clientTransferProhibited","","",""
"22","traduccionesaudax.com","2018-10-15 17:09:31","2018-10-14","2018-10-14","2019-10-14","1600","Estrategias WebSite S.L.","whois2.virtualname.es","http://www.virtualpyme.com/","GDPR Masked","GDPR Masked","GDPR Masked GDPR Masked GDPR Masked","GDPR Masked","GDPR Masked","00000","GDPR Masked","gdpr-masking@gdpr-masked.com","+0.00000000","","GDPR Masked","GDPR Masked","GDPR Masked GDPR Masked GDPR Masked","GDPR Masked","GDPR Masked","00000","GDPR Masked","gdpr-masking@gdpr-masked.com","+0.00000000","","GDPR Masked","GDPR Masked","GDPR Masked GDPR Masked GDPR Masked","GDPR Masked","GDPR Masked","00000","GDPR Masked","gdpr-masking@gdpr-masked.com","+0.00000000","","","","","","","","","","","","ns1865.registrosdns.com","ns1866.registrosdns.com","","","clientTransferProhibited","","",""
"23","trofeosquique.com","2018-10-15 17:20:02","2018-10-14","2018-10-14","2019-10-14","1600","Estrategias WebSite S.L.","whois2.virtualname.es","http://www.virtualpyme.com/","enrique Gamero Palacios","","santa maria 1115","Durango","Durango","34000","Mexico","kikegamero@hotmail.com","+52.6188297792","","enrique Gamero Palacios","","santa maria 1115","Durango","Durango","34000","Mexico","kikegamero@hotmail.com","+52.6188297792","","enrique Gamero Palacios","","santa maria 1115","Durango","Durango","34000","Mexico","kikegamero@hotmail.com","+52.6188297792","","","","","","","","","","","","ns50401.webempresa.eu","ns50402.webempresa.eu","","","clientTransferProhibited","","",""
"24","tuberfly.com","2018-10-15 17:02:35","2018-10-14","2018-10-14","2019-10-14","1600","Estrategias WebSite S.L.","whois2.virtualname.es","http://www.virtualpyme.com/","Domain Admin","Privacy Protect, LLC (PrivacyProtect.org)","10 Corporate Drive","Burlington","MA","01803","United States","contact@privacyprotect.org","+1.8022274003","","Domain Admin","Privacy Protect, LLC (PrivacyProtect.org)","10 Corporate Drive","Burlington","MA","01803","United States","contact@privacyprotect.org","+1.8022274003","","Domain Admin","Privacy Protect, LLC (PrivacyProtect.org)","10 Corporate Drive","Burlington","MA","01803","United States","contact@privacyprotect.org","+1.8022274003","","","","","","","","","","","","arya.ns.cloudflare.com","jeff.ns.cloudflare.com","","","clientTransferProhibited","","",""
"25","vivelaorquesta.com","2018-10-15 15:47:16","2018-10-14","2018-10-14","2019-10-14","1600","Estrategias WebSite S.L.","whois2.virtualname.es","http://www.virtualpyme.com/","Domain Admin","Privacy Protect, LLC (PrivacyProtect.org)","10 Corporate Drive","Burlington","MA","01803","United States","contact@privacyprotect.org","+1.8022274003","","Domain Admin","Privacy Protect, LLC (PrivacyProtect.org)","10 Corporate Drive","Burlington","MA","01803","United States","contact@privacyprotect.org","+1.8022274003","","Domain Admin","Privacy Protect, LLC (PrivacyProtect.org)","10 Corporate Drive","Burlington","MA","01803","United States","contact@privacyprotect.org","+1.8022274003","","","","","","","","","","","","dns1.raiolanetworks.es","dns2.raiolanetworks.es","dns3.raiolanetworks.es","","clientTransferProhibited","","",""
"26","xn--rutadelgarbanzomadrileo-eic.com","2018-10-15 16:04:03","2018-10-14","2018-10-14","2019-10-14","1600","Estrategias WebSite S.L.","whois2.virtualname.es","http://www.virtualpyme.com/","Domain Admin","Privacy Protect, LLC (PrivacyProtect.org)","10 Corporate Drive","Burlington","MA","01803","United States","contact@privacyprotect.org","+1.8022274003","","Domain Admin","Privacy Protect, LLC (PrivacyProtect.org)","10 Corporate Drive","Burlington","MA","01803","United States","contact@privacyprotect.org","+1.8022274003","","Domain Admin","Privacy Protect, LLC (PrivacyProtect.org)","10 Corporate Drive","Burlington","MA","01803","United States","contact@privacyprotect.org","+1.8022274003","","","","","","","","","","","","dns1.raiolanetworks.es","dns2.raiolanetworks.es","dns3.raiolanetworks.es","","clientTransferProhibited","","",""