"num","domain_name","query_time","create_date","update_date","expiry_date","domain_registrar_id","domain_registrar_name","domain_registrar_whois","domain_registrar_url","registrant_name","registrant_company","registrant_address","registrant_city","registrant_state","registrant_zip","registrant_country","registrant_email","registrant_phone","registrant_fax","administrative_name","administrative_company","administrative_address","administrative_city","administrative_state","administrative_zip","administrative_country","administrative_email","administrative_phone","administrative_fax","technical_name","technical_company","technical_address","technical_city","technical_state","technical_zip","technical_country","technical_email","technical_phone","technical_fax","billing_name","billing_company","billing_address","billing_city","billing_state","billing_zip","billing_country","billing_email","billing_phone","billing_fax","name_server_1","name_server_2","name_server_3","name_server_4","domain_status_1","domain_status_2","domain_status_3","domain_status_4"
"1","aitfdev1.info","2018-10-15 18:26:37","2018-10-15","2018-10-15","2019-10-15","925","Everyones Internet, Ltd. dba SoftLayer","whois.softlayer.com","http://www.softlayer.com","Data Protected","Data Protected","","","ON","","Canada","","","","","","","","","","","","","","","","","","","","","","","","","","","","","","","","","","ns1.softlayer.com","ns2.softlayer.com","","","addPeriod","clientTransferProhibited","clientUpdateProhibited","serverTransferProhibited"
"2","aitfdev2.info","2018-10-15 16:56:13","2018-10-15","2018-10-15","2019-10-15","925","Everyones Internet, Ltd. dba SoftLayer","whois.softlayer.com","http://www.softlayer.com","Data Protected","Data Protected","","","ON","","Canada","","","","","","","","","","","","","","","","","","","","","","","","","","","","","","","","","","ns1.softlayer.com","ns2.softlayer.com","","","addPeriod","clientTransferProhibited","clientUpdateProhibited","serverTransferProhibited"
"3","aitfdev3.info","2018-10-15 17:42:25","2018-10-15","2018-10-15","2019-10-15","925","Everyones Internet, Ltd. dba SoftLayer","whois.softlayer.com","http://www.softlayer.com","Data Protected","Data Protected","","","ON","","Canada","","","","","","","","","","","","","","","","","","","","","","","","","","","","","","","","","","ns1.softlayer.com","ns2.softlayer.com","","","addPeriod","clientTransferProhibited","clientUpdateProhibited","serverTransferProhibited"
"4","calmwalters.com","2018-10-15 17:08:51","2018-10-14","2018-10-14","2019-10-14","925","Everyones Internet, Ltd. dba SoftLayer","whois.softlayer.com","http://www.softlayer.com","SoftLayer Domains","Softlayer Domain Privacy","4849 Alpha Road","Dallas","TX","75244","United States","calmwalters.com@softlayerdomainsprivacy.com","+1.2817144544","","SoftLayer Domains","Softlayer Domain Privacy","4849 Alpha Road","Dallas","TX","75244","United States","calmwalters.com@softlayerdomainsprivacy.com","+1.2817144544","","SoftLayer Domains","Softlayer Domain Privacy","4849 Alpha Road","Dallas","TX","75244","United States","calmwalters.com@softlayerdomainsprivacy.com","+1.2817144544","","","","","","","","","","","","ns1.spiralhosting.com","ns2.spiralhosting.com","ns3.spiralhosting.com","","clientTransferProhibited","clientUpdateProhibited","",""
"5","growyourfollowing.biz","2018-10-15 16:10:09","2018-10-11","2018-10-11","2019-10-11","925","Everyones Internet, Ltd. dba SoftLayer","whois.softlayer.com","http://www.softlayer.com","Data Protected","Data Protected","","","ON","","Canada","","","","","","","","","","","","","","","","","","","","","","","","","","","","","","","","","","ns1.geekstorage.com","ns2.geekstorage.com","","","addPeriod","clientTransferProhibited","clientUpdateProhibited",""
"6","haritalarkayit.com","2018-10-15 17:23:02","2018-10-14","2018-10-14","2019-10-14","925","Everyones Internet, Ltd. dba SoftLayer","whois.softlayer.com","http://www.softlayer.com","Data Protected Data Protected","Data Protected","123 Data Protected","Toronto","ON","M6K 3M1","Canada","noreply@data-protected.net","+1.0000000000","+1.0000000000","Data Protected Data Protected","Data Protected","123 Data Protected","Toronto","ON","M6K 3M1","Canada","noreply@data-protected.net","+1.0000000000","+1.0000000000","Data Protected Data Protected","Data Protected","123 Data Protected","Toronto","ON","M6K 3M1","Canada","noreply@data-protected.net","+1.0000000000","+1.0000000000","","","","","","","","","","","ns1.tasarimstudio.com","ns2.tasarimstudio.com","","","","","",""
"7","jeidapilates.com","2018-10-15 17:14:55","2018-10-14","2018-10-14","2019-10-14","925","Everyones Internet, Ltd. dba SoftLayer","whois.softlayer.com","http://www.softlayer.com","Data Protected Data Protected","Data Protected","123 Data Protected","Toronto","ON","M6K 3M1","Canada","noreply@data-protected.net","+1.0000000000","+1.0000000000","Data Protected Data Protected","Data Protected","123 Data Protected","Toronto","ON","M6K 3M1","Canada","noreply@data-protected.net","+1.0000000000","+1.0000000000","Data Protected Data Protected","Data Protected","123 Data Protected","Toronto","ON","M6K 3M1","Canada","noreply@data-protected.net","+1.0000000000","+1.0000000000","","","","","","","","","","","ns1.hostbudur.com","ns2.hostbudur.com","","","","","",""
"8","kayserisulukcu.com","2018-10-15 18:27:21","2018-10-14","2018-10-14","2019-10-14","925","Everyones Internet, Ltd. dba SoftLayer","whois.softlayer.com","http://www.softlayer.com","Data Protected Data Protected","Data Protected","123 Data Protected","Toronto","ON","M6K 3M1","Canada","noreply@data-protected.net","+1.0000000000","+1.0000000000","Data Protected Data Protected","Data Protected","123 Data Protected","Toronto","ON","M6K 3M1","Canada","noreply@data-protected.net","+1.0000000000","+1.0000000000","Data Protected Data Protected","Data Protected","123 Data Protected","Toronto","ON","M6K 3M1","Canada","noreply@data-protected.net","+1.0000000000","+1.0000000000","","","","","","","","","","","ns72.kebirhost.com","ns73.kebirhost.com","","","","","",""
"9","leviedellolistica.com","2018-10-15 17:21:01","2018-10-14","2018-10-14","2019-10-14","925","Everyones Internet, Ltd. dba SoftLayer","whois.softlayer.com","http://www.softlayer.com","Data Protected Data Protected","Data Protected","123 Data Protected","Toronto","ON","M6K 3M1","Canada","noreply@data-protected.net","+1.0000000000","+1.0000000000","Data Protected Data Protected","Data Protected","123 Data Protected","Toronto","ON","M6K 3M1","Canada","noreply@data-protected.net","+1.0000000000","+1.0000000000","Data Protected Data Protected","Data Protected","123 Data Protected","Toronto","ON","M6K 3M1","Canada","noreply@data-protected.net","+1.0000000000","+1.0000000000","","","","","","","","","","","ns1.altervista.com","ns2.altervista.com","","","clientTransferProhibited","clientUpdateProhibited","",""
"10","netikamet.com","2018-10-15 18:38:08","2018-10-14","2018-10-14","2019-10-14","925","Everyones Internet, Ltd. dba SoftLayer","whois.softlayer.com","http://www.softlayer.com","Data Protected Data Protected","Data Protected","123 Data Protected","Toronto","ON","M6K 3M1","Canada","noreply@data-protected.net","+1.0000000000","+1.0000000000","Data Protected Data Protected","Data Protected","123 Data Protected","Toronto","ON","M6K 3M1","Canada","noreply@data-protected.net","+1.0000000000","+1.0000000000","Data Protected Data Protected","Data Protected","123 Data Protected","Toronto","ON","M6K 3M1","Canada","noreply@data-protected.net","+1.0000000000","+1.0000000000","","","","","","","","","","","rc1.webarisi.com","rc2.webarisi.com","rc3.webarisi.com","rc4.webarisi.com","clientTransferProhibited","clientUpdateProhibited","",""
"11","netpreneurclub.com","2018-10-15 16:22:02","2018-10-14","2018-10-14","2019-10-14","925","Everyones Internet, Ltd. dba SoftLayer","whois.softlayer.com","http://www.softlayer.com","SoftLayer Domains","Softlayer Domain Privacy","4849 Alpha Road","Dallas","TX","75244","United States","netpreneurclub.com@softlayerdomainsprivacy.com","+1.2817144544","","SoftLayer Domains","Softlayer Domain Privacy","4849 Alpha Road","Dallas","TX","75244","United States","netpreneurclub.com@softlayerdomainsprivacy.com","+1.2817144544","","SoftLayer Domains","Softlayer Domain Privacy","4849 Alpha Road","Dallas","TX","75244","United States","netpreneurclub.com@softlayerdomainsprivacy.com","+1.2817144544","","","","","","","","","","","","ns5.dnsireland.com","ns6.dnsireland.com","ns7.dnsireland.ie","","clientTransferProhibited","clientUpdateProhibited","",""
"12","theringthing2018.com","2018-10-15 15:55:08","2018-10-14","2018-10-14","2019-10-14","925","Everyones Internet, Ltd. dba SoftLayer","whois.softlayer.com","http://www.softlayer.com","Data Protected Data Protected","Data Protected","123 Data Protected","Toronto","ON","M6K 3M1","Canada","noreply@data-protected.net","+1.0000000000","+1.0000000000","Data Protected Data Protected","Data Protected","123 Data Protected","Toronto","ON","M6K 3M1","Canada","noreply@data-protected.net","+1.0000000000","+1.0000000000","Data Protected Data Protected","Data Protected","123 Data Protected","Toronto","ON","M6K 3M1","Canada","noreply@data-protected.net","+1.0000000000","+1.0000000000","","","","","","","","","","","ns1.stackdns.com","ns2.stackdns.com","ns3.stackdns.com","ns4.stackdns.com","clientTransferProhibited","clientUpdateProhibited","",""
"13","webchat001-001.info","2018-10-15 17:34:05","2018-10-15","2018-10-15","2019-10-15","925","Everyones Internet, Ltd. dba SoftLayer","whois.softlayer.com","http://www.softlayer.com","Data Protected","Data Protected","","","ON","","Canada","","","","","","","","","","","","","","","","","","","","","","","","","","","","","","","","","","ns1.softlayer.com","ns2.softlayer.com","","","addPeriod","clientTransferProhibited","clientUpdateProhibited","serverTransferProhibited"