"num","domain_name","query_time","create_date","update_date","expiry_date","domain_registrar_id","domain_registrar_name","domain_registrar_whois","domain_registrar_url","registrant_name","registrant_company","registrant_address","registrant_city","registrant_state","registrant_zip","registrant_country","registrant_email","registrant_phone","registrant_fax","administrative_name","administrative_company","administrative_address","administrative_city","administrative_state","administrative_zip","administrative_country","administrative_email","administrative_phone","administrative_fax","technical_name","technical_company","technical_address","technical_city","technical_state","technical_zip","technical_country","technical_email","technical_phone","technical_fax","billing_name","billing_company","billing_address","billing_city","billing_state","billing_zip","billing_country","billing_email","billing_phone","billing_fax","name_server_1","name_server_2","name_server_3","name_server_4","domain_status_1","domain_status_2","domain_status_3","domain_status_4"
"1","astro-horo.com","2018-10-15 17:56:17","2018-10-14","2018-10-14","2019-10-14","1418","EvoPlus Ltd.","whois.evonames.com","http://www.evonames.com","WhoisProtectService.net","PROTECTSERVICE, LTD.","Agios Fylaxeos 66 and Chr. Perevou 2, Kalia Court, off. 601","Limassol","","3025","Cyprus","astro-horo.com@whoisprotectservice.net","+357.95713635","+357.95713635","WhoisProtectService.net","PROTECTSERVICE, LTD.","Agios Fylaxeos 66 and Chr. Perevou 2, Kalia Court, off. 601","Limassol","","3025","Cyprus","astro-horo.com@whoisprotectservice.net","+357.95713635","+357.95713635","WhoisProtectService.net","PROTECTSERVICE, LTD.","Agios Fylaxeos 66 and Chr. Perevou 2, Kalia Court, off. 601","Limassol","","3025","Cyprus","astro-horo.com@whoisprotectservice.net","+357.95713635","+357.95713635","WhoisProtectService.net","PROTECTSERVICE, LTD.","Agios Fylaxeos 66 and Chr. Perevou 2, Kalia Court, off. 601","Limassol","","3025","Cyprus","astro-horo.com@whoisprotectservice.net","+357.95713635","+357.95713635","hal.ns.cloudflare.com","may.ns.cloudflare.com","","","OK","","",""
"2","betsworld.info","2018-10-15 16:07:00","2018-10-15","2018-10-15","2019-10-15","1418","EvoPlus Ltd.","whois.evonames.com","http://www.evonames.com","PROTECTSERVICE, LTD.","PROTECTSERVICE, LTD.","","","","","Cyprus","","","","","","","","","","","","","","","","","","","","","","","","","","","","","","","","","","ns1.ucoz.net","ns2.ucoz.net","ns3.ucoz.net","","addPeriod","serverTransferProhibited","",""
"3","cadmanzindustrial.com","2018-10-15 15:49:09","2018-10-14","2018-10-14","2019-10-14","1418","EvoPlus Ltd.","whois.evonames.com","http://www.evonames.com","WhoisProtectService.net","PROTECTSERVICE, LTD.","Agios Fylaxeos 66 and Chr. Perevou 2, Kalia Court, off. 601","Limassol","","3025","Cyprus","cadmanzindustrial.com@whoisprotectservice.net","+357.95713635","+357.95713635","WhoisProtectService.net","PROTECTSERVICE, LTD.","Agios Fylaxeos 66 and Chr. Perevou 2, Kalia Court, off. 601","Limassol","","3025","Cyprus","cadmanzindustrial.com@whoisprotectservice.net","+357.95713635","+357.95713635","WhoisProtectService.net","PROTECTSERVICE, LTD.","Agios Fylaxeos 66 and Chr. Perevou 2, Kalia Court, off. 601","Limassol","","3025","Cyprus","cadmanzindustrial.com@whoisprotectservice.net","+357.95713635","+357.95713635","WhoisProtectService.net","PROTECTSERVICE, LTD.","Agios Fylaxeos 66 and Chr. Perevou 2, Kalia Court, off. 601","Limassol","","3025","Cyprus","cadmanzindustrial.com@whoisprotectservice.net","+357.95713635","+357.95713635","ns1.ukit.com","ns2.ukit.com","ns3.ukit.com","","OK","","",""
"4","chaynyekholmy.com","2018-10-15 16:48:46","2018-10-14","2018-10-14","2019-10-14","1418","EvoPlus Ltd.","whois.evonames.com","http://www.evonames.com","WhoisProtectService.net","PROTECTSERVICE, LTD.","Agios Fylaxeos 66 and Chr. Perevou 2, Kalia Court, off. 601","Limassol","","3025","Cyprus","chaynyekholmy.com@whoisprotectservice.net","+357.95713635","+357.95713635","WhoisProtectService.net","PROTECTSERVICE, LTD.","Agios Fylaxeos 66 and Chr. Perevou 2, Kalia Court, off. 601","Limassol","","3025","Cyprus","chaynyekholmy.com@whoisprotectservice.net","+357.95713635","+357.95713635","WhoisProtectService.net","PROTECTSERVICE, LTD.","Agios Fylaxeos 66 and Chr. Perevou 2, Kalia Court, off. 601","Limassol","","3025","Cyprus","chaynyekholmy.com@whoisprotectservice.net","+357.95713635","+357.95713635","WhoisProtectService.net","PROTECTSERVICE, LTD.","Agios Fylaxeos 66 and Chr. Perevou 2, Kalia Court, off. 601","Limassol","","3025","Cyprus","chaynyekholmy.com@whoisprotectservice.net","+357.95713635","+357.95713635","ns1.ukit.com","ns2.ukit.com","ns3.ukit.com","","OK","","",""
"5","denssionproductions.com","2018-10-15 17:48:35","2018-10-14","2018-10-14","2019-10-14","1418","EvoPlus Ltd.","whois.evonames.com","http://www.evonames.com","WhoisProtectService.net","PROTECTSERVICE, LTD.","Agios Fylaxeos 66 and Chr. Perevou 2, Kalia Court, off. 601","Limassol","","3025","Cyprus","denssionproductions.com@whoisprotectservice.net","+357.95713635","+357.95713635","WhoisProtectService.net","PROTECTSERVICE, LTD.","Agios Fylaxeos 66 and Chr. Perevou 2, Kalia Court, off. 601","Limassol","","3025","Cyprus","denssionproductions.com@whoisprotectservice.net","+357.95713635","+357.95713635","WhoisProtectService.net","PROTECTSERVICE, LTD.","Agios Fylaxeos 66 and Chr. Perevou 2, Kalia Court, off. 601","Limassol","","3025","Cyprus","denssionproductions.com@whoisprotectservice.net","+357.95713635","+357.95713635","WhoisProtectService.net","PROTECTSERVICE, LTD.","Agios Fylaxeos 66 and Chr. Perevou 2, Kalia Court, off. 601","Limassol","","3025","Cyprus","denssionproductions.com@whoisprotectservice.net","+357.95713635","+357.95713635","ns1.ukit.com","ns2.ukit.com","ns3.ukit.com","","OK","","",""
"6","dgksneakers.com","2018-10-15 16:37:15","2018-10-14","2018-10-14","2019-10-14","1418","EvoPlus Ltd.","whois.evonames.com","http://www.evonames.com","WhoisProtectService.net","PROTECTSERVICE, LTD.","Agios Fylaxeos 66 and Chr. Perevou 2, Kalia Court, off. 601","Limassol","","3025","Cyprus","dgksneakers.com@whoisprotectservice.net","+357.95713635","+357.95713635","WhoisProtectService.net","PROTECTSERVICE, LTD.","Agios Fylaxeos 66 and Chr. Perevou 2, Kalia Court, off. 601","Limassol","","3025","Cyprus","dgksneakers.com@whoisprotectservice.net","+357.95713635","+357.95713635","WhoisProtectService.net","PROTECTSERVICE, LTD.","Agios Fylaxeos 66 and Chr. Perevou 2, Kalia Court, off. 601","Limassol","","3025","Cyprus","dgksneakers.com@whoisprotectservice.net","+357.95713635","+357.95713635","WhoisProtectService.net","PROTECTSERVICE, LTD.","Agios Fylaxeos 66 and Chr. Perevou 2, Kalia Court, off. 601","Limassol","","3025","Cyprus","dgksneakers.com@whoisprotectservice.net","+357.95713635","+357.95713635","ns1.regdom.name","ns2.regdom.name","","","OK","","",""
"7","esk-1.com","2018-10-15 18:27:09","2018-10-14","2018-10-14","2019-10-14","1418","EvoPlus Ltd.","whois.evonames.com","http://www.evonames.com","WhoisProtectService.net","PROTECTSERVICE, LTD.","Agios Fylaxeos 66 and Chr. Perevou 2, Kalia Court, off. 601","Limassol","","3025","Cyprus","esk-1.com@whoisprotectservice.net","+357.95713635","+357.95713635","WhoisProtectService.net","PROTECTSERVICE, LTD.","Agios Fylaxeos 66 and Chr. Perevou 2, Kalia Court, off. 601","Limassol","","3025","Cyprus","esk-1.com@whoisprotectservice.net","+357.95713635","+357.95713635","WhoisProtectService.net","PROTECTSERVICE, LTD.","Agios Fylaxeos 66 and Chr. Perevou 2, Kalia Court, off. 601","Limassol","","3025","Cyprus","esk-1.com@whoisprotectservice.net","+357.95713635","+357.95713635","WhoisProtectService.net","PROTECTSERVICE, LTD.","Agios Fylaxeos 66 and Chr. Perevou 2, Kalia Court, off. 601","Limassol","","3025","Cyprus","esk-1.com@whoisprotectservice.net","+357.95713635","+357.95713635","ns1.ucoz.net","ns2.ucoz.net","ns3.ucoz.net","","OK","","",""
"8","ezhik.net","2018-10-15 17:27:34","2018-10-14","2018-10-14","2019-10-14","1418","EvoPlus Ltd.","whois.evonames.com","http://www.evonames.com","WhoisProtectService.net","PROTECTSERVICE, LTD.","Agios Fylaxeos 66 and Chr. Perevou 2, Kalia Court, off. 601","Limassol","","3025","Cyprus","ezhik.net@whoisprotectservice.net","+357.95713635","+357.95713635","WhoisProtectService.net","PROTECTSERVICE, LTD.","Agios Fylaxeos 66 and Chr. Perevou 2, Kalia Court, off. 601","Limassol","","3025","Cyprus","ezhik.net@whoisprotectservice.net","+357.95713635","+357.95713635","WhoisProtectService.net","PROTECTSERVICE, LTD.","Agios Fylaxeos 66 and Chr. Perevou 2, Kalia Court, off. 601","Limassol","","3025","Cyprus","ezhik.net@whoisprotectservice.net","+357.95713635","+357.95713635","WhoisProtectService.net","PROTECTSERVICE, LTD.","Agios Fylaxeos 66 and Chr. Perevou 2, Kalia Court, off. 601","Limassol","","3025","Cyprus","ezhik.net@whoisprotectservice.net","+357.95713635","+357.95713635","ns1.ukit.com","ns2.ukit.com","ns3.ukit.com","","OK","","",""
"9","game-randomly.com","2018-10-15 17:47:20","2018-10-14","2018-10-14","2019-10-14","1418","EvoPlus Ltd.","whois.evonames.com","http://www.evonames.com","WhoisProtectService.net","PROTECTSERVICE, LTD.","Agios Fylaxeos 66 and Chr. Perevou 2, Kalia Court, off. 601","Limassol","","3025","Cyprus","game-randomly.com@whoisprotectservice.net","+357.95713635","+357.95713635","WhoisProtectService.net","PROTECTSERVICE, LTD.","Agios Fylaxeos 66 and Chr. Perevou 2, Kalia Court, off. 601","Limassol","","3025","Cyprus","game-randomly.com@whoisprotectservice.net","+357.95713635","+357.95713635","WhoisProtectService.net","PROTECTSERVICE, LTD.","Agios Fylaxeos 66 and Chr. Perevou 2, Kalia Court, off. 601","Limassol","","3025","Cyprus","game-randomly.com@whoisprotectservice.net","+357.95713635","+357.95713635","WhoisProtectService.net","PROTECTSERVICE, LTD.","Agios Fylaxeos 66 and Chr. Perevou 2, Kalia Court, off. 601","Limassol","","3025","Cyprus","game-randomly.com@whoisprotectservice.net","+357.95713635","+357.95713635","ns1.topdns.me","ns2.topdns.me","ns3.topdns.me","","OK","","",""
"10","girlsabuseguy.com","2018-10-15 18:32:02","2018-10-14","2018-10-14","2019-10-14","1418","EvoPlus Ltd.","whois.evonames.com","http://www.evonames.com","Redemption Ltd. Redemption Ltd.","Redemption Ltd.","306 Victoria House Note - All Postal Mails Rejected","Victoria","","Mahe","Seychelles","redemptionltd@gmail.com","+7.9104093091","+248.289240","Redemption Ltd. Redemption Ltd.","Redemption Ltd.","306 Victoria House Note - All Postal Mails Rejected","Victoria","","Mahe","Seychelles","redemptionltd@gmail.com","+7.9104093091","+248.289240","Redemption Ltd. Redemption Ltd.","Redemption Ltd.","306 Victoria House Note - All Postal Mails Rejected","Victoria","","Mahe","Seychelles","redemptionltd@gmail.com","+7.9104093091","+248.289240","Redemption Ltd. Redemption Ltd.","Redemption Ltd.","306 Victoria House Note - All Postal Mails Rejected","Victoria","","Mahe","Seychelles","redemptionltd@gmail.com","+7.9104093091","+248.289240","ns1.topdns.me","ns2.topdns.me","ns3.topdns.me","","clientDeleteProhibited","clientTransferProhibited","",""
"11","goodstar.pro","2018-10-15 17:14:51","2018-10-14","2018-10-14","2019-10-14","1418","EvoPlus Ltd.","whois.evonames.com","http://www.evonames.com","PROTECTSERVICE, LTD.","PROTECTSERVICE, LTD.","","","","","Cyprus","","","","","","","","","","","","","","","","","","","","","","","","","","","","","","","","","","hal.ns.cloudflare.com","may.ns.cloudflare.com","","","addPeriod","serverTransferProhibited","",""
"12","greathoro.pro","2018-10-15 17:23:00","2018-10-14","2018-10-14","2019-10-14","1418","EvoPlus Ltd.","whois.evonames.com","http://www.evonames.com","PROTECTSERVICE, LTD.","PROTECTSERVICE, LTD.","","","","","Cyprus","","","","","","","","","","","","","","","","","","","","","","","","","","","","","","","","","","hal.ns.cloudflare.com","may.ns.cloudflare.com","","","addPeriod","serverTransferProhibited","",""
"13","greathoroscope.pro","2018-10-15 16:32:32","2018-10-14","2018-10-14","2019-10-14","1418","EvoPlus Ltd.","whois.evonames.com","http://www.evonames.com","PROTECTSERVICE, LTD.","PROTECTSERVICE, LTD.","","","","","Cyprus","","","","","","","","","","","","","","","","","","","","","","","","","","","","","","","","","","hal.ns.cloudflare.com","may.ns.cloudflare.com","","","addPeriod","serverTransferProhibited","",""
"14","greatstar.pro","2018-10-15 18:30:41","2018-10-14","2018-10-14","2019-10-14","1418","EvoPlus Ltd.","whois.evonames.com","http://www.evonames.com","PROTECTSERVICE, LTD.","PROTECTSERVICE, LTD.","","","","","Cyprus","","","","","","","","","","","","","","","","","","","","","","","","","","","","","","","","","","hal.ns.cloudflare.com","may.ns.cloudflare.com","","","addPeriod","serverTransferProhibited","",""
"15","greatstars.pro","2018-10-15 17:42:18","2018-10-14","2018-10-14","2019-10-14","1418","EvoPlus Ltd.","whois.evonames.com","http://www.evonames.com","PROTECTSERVICE, LTD.","PROTECTSERVICE, LTD.","","","","","Cyprus","","","","","","","","","","","","","","","","","","","","","","","","","","","","","","","","","","hal.ns.cloudflare.com","may.ns.cloudflare.com","","","addPeriod","serverTransferProhibited","",""
"16","greattime.pro","2018-10-15 16:01:21","2018-10-14","2018-10-14","2019-10-14","1418","EvoPlus Ltd.","whois.evonames.com","http://www.evonames.com","PROTECTSERVICE, LTD.","PROTECTSERVICE, LTD.","","","","","Cyprus","","","","","","","","","","","","","","","","","","","","","","","","","","","","","","","","","","hal.ns.cloudflare.com","may.ns.cloudflare.com","","","addPeriod","serverTransferProhibited","",""
"17","grtsex.com","2018-10-15 15:52:21","2018-10-14","2018-10-14","2019-10-14","1418","EvoPlus Ltd.","whois.evonames.com","http://www.evonames.com","WhoisProtectService.net","PROTECTSERVICE, LTD.","Agios Fylaxeos 66 and Chr. Perevou 2, Kalia Court, off. 601","Limassol","","3025","Cyprus","grtsex.com@whoisprotectservice.net","+357.95713635","+357.95713635","WhoisProtectService.net","PROTECTSERVICE, LTD.","Agios Fylaxeos 66 and Chr. Perevou 2, Kalia Court, off. 601","Limassol","","3025","Cyprus","grtsex.com@whoisprotectservice.net","+357.95713635","+357.95713635","WhoisProtectService.net","PROTECTSERVICE, LTD.","Agios Fylaxeos 66 and Chr. Perevou 2, Kalia Court, off. 601","Limassol","","3025","Cyprus","grtsex.com@whoisprotectservice.net","+357.95713635","+357.95713635","WhoisProtectService.net","PROTECTSERVICE, LTD.","Agios Fylaxeos 66 and Chr. Perevou 2, Kalia Court, off. 601","Limassol","","3025","Cyprus","grtsex.com@whoisprotectservice.net","+357.95713635","+357.95713635","ns21.cloudns.net","ns22.cloudns.net","ns23.cloudns.net","ns24.cloudns.net","clientDeleteProhibited","clientTransferProhibited","",""
"18","horo-times.pro","2018-10-15 18:08:37","2018-10-14","2018-10-14","2019-10-14","1418","EvoPlus Ltd.","whois.evonames.com","http://www.evonames.com","PROTECTSERVICE, LTD.","PROTECTSERVICE, LTD.","","","","","Cyprus","","","","","","","","","","","","","","","","","","","","","","","","","","","","","","","","","","hal.ns.cloudflare.com","may.ns.cloudflare.com","","","addPeriod","serverTransferProhibited","",""
"19","horosecret.com","2018-10-15 17:57:24","2018-10-14","2018-10-14","2019-10-14","1418","EvoPlus Ltd.","whois.evonames.com","http://www.evonames.com","WhoisProtectService.net","PROTECTSERVICE, LTD.","Agios Fylaxeos 66 and Chr. Perevou 2, Kalia Court, off. 601","Limassol","","3025","Cyprus","horosecret.com@whoisprotectservice.net","+357.95713635","+357.95713635","WhoisProtectService.net","PROTECTSERVICE, LTD.","Agios Fylaxeos 66 and Chr. Perevou 2, Kalia Court, off. 601","Limassol","","3025","Cyprus","horosecret.com@whoisprotectservice.net","+357.95713635","+357.95713635","WhoisProtectService.net","PROTECTSERVICE, LTD.","Agios Fylaxeos 66 and Chr. Perevou 2, Kalia Court, off. 601","Limassol","","3025","Cyprus","horosecret.com@whoisprotectservice.net","+357.95713635","+357.95713635","WhoisProtectService.net","PROTECTSERVICE, LTD.","Agios Fylaxeos 66 and Chr. Perevou 2, Kalia Court, off. 601","Limassol","","3025","Cyprus","horosecret.com@whoisprotectservice.net","+357.95713635","+357.95713635","hal.ns.cloudflare.com","may.ns.cloudflare.com","","","OK","","",""
"20","i-horoscope.pro","2018-10-15 17:54:30","2018-10-14","2018-10-14","2019-10-14","1418","EvoPlus Ltd.","whois.evonames.com","http://www.evonames.com","PROTECTSERVICE, LTD.","PROTECTSERVICE, LTD.","","","","","Cyprus","","","","","","","","","","","","","","","","","","","","","","","","","","","","","","","","","","hal.ns.cloudflare.com","may.ns.cloudflare.com","","","addPeriod","serverTransferProhibited","",""
"21","i-horoscopus.pro","2018-10-15 17:12:11","2018-10-14","2018-10-14","2019-10-14","1418","EvoPlus Ltd.","whois.evonames.com","http://www.evonames.com","PROTECTSERVICE, LTD.","PROTECTSERVICE, LTD.","","","","","Cyprus","","","","","","","","","","","","","","","","","","","","","","","","","","","","","","","","","","hal.ns.cloudflare.com","may.ns.cloudflare.com","","","addPeriod","serverTransferProhibited","",""
"22","jayaabadicanopy.com","2018-10-15 16:13:30","2018-10-14","2018-10-14","2019-10-14","1418","EvoPlus Ltd.","whois.evonames.com","http://www.evonames.com","WhoisProtectService.net","PROTECTSERVICE, LTD.","Agios Fylaxeos 66 and Chr. Perevou 2, Kalia Court, off. 601","Limassol","","3025","Cyprus","jayaabadicanopy.com@whoisprotectservice.net","+357.95713635","+357.95713635","WhoisProtectService.net","PROTECTSERVICE, LTD.","Agios Fylaxeos 66 and Chr. Perevou 2, Kalia Court, off. 601","Limassol","","3025","Cyprus","jayaabadicanopy.com@whoisprotectservice.net","+357.95713635","+357.95713635","WhoisProtectService.net","PROTECTSERVICE, LTD.","Agios Fylaxeos 66 and Chr. Perevou 2, Kalia Court, off. 601","Limassol","","3025","Cyprus","jayaabadicanopy.com@whoisprotectservice.net","+357.95713635","+357.95713635","WhoisProtectService.net","PROTECTSERVICE, LTD.","Agios Fylaxeos 66 and Chr. Perevou 2, Kalia Court, off. 601","Limassol","","3025","Cyprus","jayaabadicanopy.com@whoisprotectservice.net","+357.95713635","+357.95713635","alex.ns.cloudflare.com","rafe.ns.cloudflare.com","","","OK","","",""
"23","karlmaxbeagle.com","2018-10-15 18:07:04","2018-10-15","2018-10-15","2019-10-15","1418","EvoPlus Ltd.","whois.evonames.com","http://www.evonames.com","WhoisProtectService.net","PROTECTSERVICE, LTD.","Agios Fylaxeos 66 and Chr. Perevou 2, Kalia Court, off. 601","Limassol","","3025","Cyprus","karlmaxbeagle.com@whoisprotectservice.net","+357.95713635","+357.95713635","WhoisProtectService.net","PROTECTSERVICE, LTD.","Agios Fylaxeos 66 and Chr. Perevou 2, Kalia Court, off. 601","Limassol","","3025","Cyprus","karlmaxbeagle.com@whoisprotectservice.net","+357.95713635","+357.95713635","WhoisProtectService.net","PROTECTSERVICE, LTD.","Agios Fylaxeos 66 and Chr. Perevou 2, Kalia Court, off. 601","Limassol","","3025","Cyprus","karlmaxbeagle.com@whoisprotectservice.net","+357.95713635","+357.95713635","WhoisProtectService.net","PROTECTSERVICE, LTD.","Agios Fylaxeos 66 and Chr. Perevou 2, Kalia Court, off. 601","Limassol","","3025","Cyprus","karlmaxbeagle.com@whoisprotectservice.net","+357.95713635","+357.95713635","ns1.ukit.com","ns2.ukit.com","ns3.ukit.com","","OK","","",""
"24","kceos.info","2018-10-15 17:38:23","2018-10-15","2018-10-15","2019-10-15","1418","EvoPlus Ltd.","whois.evonames.com","http://www.evonames.com","PROTECTSERVICE, LTD.","PROTECTSERVICE, LTD.","","","","","Cyprus","","","","","","","","","","","","","","","","","","","","","","","","","","","","","","","","","","ns1.zomro.net","ns2.zomro.ru","","","addPeriod","serverTransferProhibited","",""
"25","kinoman.pro","2018-10-15 18:36:00","2018-10-15","2018-10-15","2019-10-15","1418","EvoPlus Ltd.","whois.evonames.com","http://www.evonames.com","PROTECTSERVICE, LTD.","PROTECTSERVICE, LTD.","","","","","Cyprus","","","","","","","","","","","","","","","","","","","","","","","","","","","","","","","","","","ns1.zomro.com","ns2.zomro.com","","","addPeriod","serverTransferProhibited","",""
"26","kittyquin.com","2018-10-15 17:26:18","2018-10-14","2018-10-14","2019-10-14","1418","EvoPlus Ltd.","whois.evonames.com","http://www.evonames.com","Redemption Ltd. Redemption Ltd.","Redemption Ltd.","306 Victoria House Note - All Postal Mails Rejected","Victoria","","Mahe","Seychelles","redemptionltd@gmail.com","+7.9104093091","+248.289240","Redemption Ltd. Redemption Ltd.","Redemption Ltd.","306 Victoria House Note - All Postal Mails Rejected","Victoria","","Mahe","Seychelles","redemptionltd@gmail.com","+7.9104093091","+248.289240","Redemption Ltd. Redemption Ltd.","Redemption Ltd.","306 Victoria House Note - All Postal Mails Rejected","Victoria","","Mahe","Seychelles","redemptionltd@gmail.com","+7.9104093091","+248.289240","Redemption Ltd. Redemption Ltd.","Redemption Ltd.","306 Victoria House Note - All Postal Mails Rejected","Victoria","","Mahe","Seychelles","redemptionltd@gmail.com","+7.9104093091","+248.289240","190.ns1.above.com","190.ns2.above.com","","","clientDeleteProhibited","clientTransferProhibited","",""
"27","loadedpoets.com","2018-10-15 16:02:03","2018-10-14","2018-10-14","2019-10-14","1418","EvoPlus Ltd.","whois.evonames.com","http://www.evonames.com","WhoisProtectService.net","PROTECTSERVICE, LTD.","Agios Fylaxeos 66 and Chr. Perevou 2, Kalia Court, off. 601","Limassol","","3025","Cyprus","loadedpoets.com@whoisprotectservice.net","+357.95713635","+357.95713635","WhoisProtectService.net","PROTECTSERVICE, LTD.","Agios Fylaxeos 66 and Chr. Perevou 2, Kalia Court, off. 601","Limassol","","3025","Cyprus","loadedpoets.com@whoisprotectservice.net","+357.95713635","+357.95713635","WhoisProtectService.net","PROTECTSERVICE, LTD.","Agios Fylaxeos 66 and Chr. Perevou 2, Kalia Court, off. 601","Limassol","","3025","Cyprus","loadedpoets.com@whoisprotectservice.net","+357.95713635","+357.95713635","WhoisProtectService.net","PROTECTSERVICE, LTD.","Agios Fylaxeos 66 and Chr. Perevou 2, Kalia Court, off. 601","Limassol","","3025","Cyprus","loadedpoets.com@whoisprotectservice.net","+357.95713635","+357.95713635","abby.ns.cloudflare.com","jay.ns.cloudflare.com","","","OK","","",""
"28","mebelaura.com","2018-10-15 17:20:38","2018-10-14","2018-10-14","2019-10-14","1418","EvoPlus Ltd.","whois.evonames.com","http://www.evonames.com","WhoisProtectService.net","PROTECTSERVICE, LTD.","Agios Fylaxeos 66 and Chr. Perevou 2, Kalia Court, off. 601","Limassol","","3025","Cyprus","mebelaura.com@whoisprotectservice.net","+357.95713635","+357.95713635","WhoisProtectService.net","PROTECTSERVICE, LTD.","Agios Fylaxeos 66 and Chr. Perevou 2, Kalia Court, off. 601","Limassol","","3025","Cyprus","mebelaura.com@whoisprotectservice.net","+357.95713635","+357.95713635","WhoisProtectService.net","PROTECTSERVICE, LTD.","Agios Fylaxeos 66 and Chr. Perevou 2, Kalia Court, off. 601","Limassol","","3025","Cyprus","mebelaura.com@whoisprotectservice.net","+357.95713635","+357.95713635","WhoisProtectService.net","PROTECTSERVICE, LTD.","Agios Fylaxeos 66 and Chr. Perevou 2, Kalia Court, off. 601","Limassol","","3025","Cyprus","mebelaura.com@whoisprotectservice.net","+357.95713635","+357.95713635","ns1.uweb.ru","ns2.uweb.ru","","","OK","","",""
"29","mega-torg-llc.com","2018-10-15 17:23:17","2018-10-14","2018-10-14","2019-10-14","1418","EvoPlus Ltd.","whois.evonames.com","http://www.evonames.com","WhoisProtectService.net","PROTECTSERVICE, LTD.","Agios Fylaxeos 66 and Chr. Perevou 2, Kalia Court, off. 601","Limassol","","3025","Cyprus","mega-torg-llc.com@whoisprotectservice.net","+357.95713635","+357.95713635","WhoisProtectService.net","PROTECTSERVICE, LTD.","Agios Fylaxeos 66 and Chr. Perevou 2, Kalia Court, off. 601","Limassol","","3025","Cyprus","mega-torg-llc.com@whoisprotectservice.net","+357.95713635","+357.95713635","WhoisProtectService.net","PROTECTSERVICE, LTD.","Agios Fylaxeos 66 and Chr. Perevou 2, Kalia Court, off. 601","Limassol","","3025","Cyprus","mega-torg-llc.com@whoisprotectservice.net","+357.95713635","+357.95713635","WhoisProtectService.net","PROTECTSERVICE, LTD.","Agios Fylaxeos 66 and Chr. Perevou 2, Kalia Court, off. 601","Limassol","","3025","Cyprus","mega-torg-llc.com@whoisprotectservice.net","+357.95713635","+357.95713635","ru1.hoststock.ru","ru2.hoststock.ru","","","OK","","",""
"30","meoriental.com","2018-10-15 18:38:17","2018-10-14","2018-10-14","2019-10-14","1418","EvoPlus Ltd.","whois.evonames.com","http://www.evonames.com","WhoisProtectService.net","PROTECTSERVICE, LTD.","Agios Fylaxeos 66 and Chr. Perevou 2, Kalia Court, off. 601","Limassol","","3025","Cyprus","meoriental.com@whoisprotectservice.net","+357.95713635","+357.95713635","WhoisProtectService.net","PROTECTSERVICE, LTD.","Agios Fylaxeos 66 and Chr. Perevou 2, Kalia Court, off. 601","Limassol","","3025","Cyprus","meoriental.com@whoisprotectservice.net","+357.95713635","+357.95713635","WhoisProtectService.net","PROTECTSERVICE, LTD.","Agios Fylaxeos 66 and Chr. Perevou 2, Kalia Court, off. 601","Limassol","","3025","Cyprus","meoriental.com@whoisprotectservice.net","+357.95713635","+357.95713635","WhoisProtectService.net","PROTECTSERVICE, LTD.","Agios Fylaxeos 66 and Chr. Perevou 2, Kalia Court, off. 601","Limassol","","3025","Cyprus","meoriental.com@whoisprotectservice.net","+357.95713635","+357.95713635","ns1.meoriental.com","ns2.meoriental.com","","","OK","","",""
"31","miloradvlacic.com","2018-10-15 18:27:11","2018-10-14","2018-10-14","2019-10-14","1418","EvoPlus Ltd.","whois.evonames.com","http://www.evonames.com","WhoisProtectService.net","PROTECTSERVICE, LTD.","Agios Fylaxeos 66 and Chr. Perevou 2, Kalia Court, off. 601","Limassol","","3025","Cyprus","miloradvlacic.com@whoisprotectservice.net","+357.95713635","+357.95713635","WhoisProtectService.net","PROTECTSERVICE, LTD.","Agios Fylaxeos 66 and Chr. Perevou 2, Kalia Court, off. 601","Limassol","","3025","Cyprus","miloradvlacic.com@whoisprotectservice.net","+357.95713635","+357.95713635","WhoisProtectService.net","PROTECTSERVICE, LTD.","Agios Fylaxeos 66 and Chr. Perevou 2, Kalia Court, off. 601","Limassol","","3025","Cyprus","miloradvlacic.com@whoisprotectservice.net","+357.95713635","+357.95713635","WhoisProtectService.net","PROTECTSERVICE, LTD.","Agios Fylaxeos 66 and Chr. Perevou 2, Kalia Court, off. 601","Limassol","","3025","Cyprus","miloradvlacic.com@whoisprotectservice.net","+357.95713635","+357.95713635","alex.ns.cloudflare.com","rafe.ns.cloudflare.com","","","OK","","",""
"32","mixretro.com","2018-10-15 16:25:27","2018-10-14","2018-10-14","2019-10-14","1418","EvoPlus Ltd.","whois.evonames.com","http://www.evonames.com","WhoisProtectService.net","PROTECTSERVICE, LTD.","Agios Fylaxeos 66 and Chr. Perevou 2, Kalia Court, off. 601","Limassol","","3025","Cyprus","mixretro.com@whoisprotectservice.net","+357.95713635","+357.95713635","WhoisProtectService.net","PROTECTSERVICE, LTD.","Agios Fylaxeos 66 and Chr. Perevou 2, Kalia Court, off. 601","Limassol","","3025","Cyprus","mixretro.com@whoisprotectservice.net","+357.95713635","+357.95713635","WhoisProtectService.net","PROTECTSERVICE, LTD.","Agios Fylaxeos 66 and Chr. Perevou 2, Kalia Court, off. 601","Limassol","","3025","Cyprus","mixretro.com@whoisprotectservice.net","+357.95713635","+357.95713635","WhoisProtectService.net","PROTECTSERVICE, LTD.","Agios Fylaxeos 66 and Chr. Perevou 2, Kalia Court, off. 601","Limassol","","3025","Cyprus","mixretro.com@whoisprotectservice.net","+357.95713635","+357.95713635","ns1.mixretro.com","ns2.mixretro.com","","","clientDeleteProhibited","clientTransferProhibited","",""
"33","morningsexpassword.com","2018-10-15 18:03:37","2018-10-14","2018-10-14","2019-10-14","1418","EvoPlus Ltd.","whois.evonames.com","http://www.evonames.com","WhoisProtectService.net","PROTECTSERVICE, LTD.","Agios Fylaxeos 66 and Chr. Perevou 2, Kalia Court, off. 601","Limassol","","3025","Cyprus","morningsexpassword.com@whoisprotectservice.net","+357.95713635","+357.95713635","WhoisProtectService.net","PROTECTSERVICE, LTD.","Agios Fylaxeos 66 and Chr. Perevou 2, Kalia Court, off. 601","Limassol","","3025","Cyprus","morningsexpassword.com@whoisprotectservice.net","+357.95713635","+357.95713635","WhoisProtectService.net","PROTECTSERVICE, LTD.","Agios Fylaxeos 66 and Chr. Perevou 2, Kalia Court, off. 601","Limassol","","3025","Cyprus","morningsexpassword.com@whoisprotectservice.net","+357.95713635","+357.95713635","WhoisProtectService.net","PROTECTSERVICE, LTD.","Agios Fylaxeos 66 and Chr. Perevou 2, Kalia Court, off. 601","Limassol","","3025","Cyprus","morningsexpassword.com@whoisprotectservice.net","+357.95713635","+357.95713635","phil.ns.cloudflare.com","zoe.ns.cloudflare.com","","","clientDeleteProhibited","clientTransferProhibited","",""
"34","nicetraff.com","2018-10-15 16:48:03","2018-10-14","2018-10-14","2019-10-14","1418","EvoPlus Ltd.","whois.evonames.com","http://www.evonames.com","WhoisProtectService.net","PROTECTSERVICE, LTD.","Agios Fylaxeos 66 and Chr. Perevou 2, Kalia Court, off. 601","Limassol","","3025","Cyprus","nicetraff.com@whoisprotectservice.net","+357.95713635","+357.95713635","WhoisProtectService.net","PROTECTSERVICE, LTD.","Agios Fylaxeos 66 and Chr. Perevou 2, Kalia Court, off. 601","Limassol","","3025","Cyprus","nicetraff.com@whoisprotectservice.net","+357.95713635","+357.95713635","WhoisProtectService.net","PROTECTSERVICE, LTD.","Agios Fylaxeos 66 and Chr. Perevou 2, Kalia Court, off. 601","Limassol","","3025","Cyprus","nicetraff.com@whoisprotectservice.net","+357.95713635","+357.95713635","WhoisProtectService.net","PROTECTSERVICE, LTD.","Agios Fylaxeos 66 and Chr. Perevou 2, Kalia Court, off. 601","Limassol","","3025","Cyprus","nicetraff.com@whoisprotectservice.net","+357.95713635","+357.95713635","ns1.topdns.me","ns2.topdns.me","ns3.topdns.me","","OK","","",""
"35","nilime.com","2018-10-15 16:05:23","2018-10-14","2018-10-14","2019-10-14","1418","EvoPlus Ltd.","whois.evonames.com","http://www.evonames.com","WhoisProtectService.net","PROTECTSERVICE, LTD.","Agios Fylaxeos 66 and Chr. Perevou 2, Kalia Court, off. 601","Limassol","","3025","Cyprus","nilime.com@whoisprotectservice.net","+357.95713635","+357.95713635","WhoisProtectService.net","PROTECTSERVICE, LTD.","Agios Fylaxeos 66 and Chr. Perevou 2, Kalia Court, off. 601","Limassol","","3025","Cyprus","nilime.com@whoisprotectservice.net","+357.95713635","+357.95713635","WhoisProtectService.net","PROTECTSERVICE, LTD.","Agios Fylaxeos 66 and Chr. Perevou 2, Kalia Court, off. 601","Limassol","","3025","Cyprus","nilime.com@whoisprotectservice.net","+357.95713635","+357.95713635","WhoisProtectService.net","PROTECTSERVICE, LTD.","Agios Fylaxeos 66 and Chr. Perevou 2, Kalia Court, off. 601","Limassol","","3025","Cyprus","nilime.com@whoisprotectservice.net","+357.95713635","+357.95713635","ns1.zomro.net","ns2.zomro.ru","ns3.zomro.com","ns4.zomro.su","OK","","",""
"36","onibuscaxiense.com","2018-10-15 17:02:15","2018-10-15","2018-10-15","2019-10-15","1418","EvoPlus Ltd.","whois.evonames.com","http://www.evonames.com","WhoisProtectService.net","PROTECTSERVICE, LTD.","Agios Fylaxeos 66 and Chr. Perevou 2, Kalia Court, off. 601","Limassol","","3025","Cyprus","onibuscaxiense.com@whoisprotectservice.net","+357.95713635","+357.95713635","WhoisProtectService.net","PROTECTSERVICE, LTD.","Agios Fylaxeos 66 and Chr. Perevou 2, Kalia Court, off. 601","Limassol","","3025","Cyprus","onibuscaxiense.com@whoisprotectservice.net","+357.95713635","+357.95713635","WhoisProtectService.net","PROTECTSERVICE, LTD.","Agios Fylaxeos 66 and Chr. Perevou 2, Kalia Court, off. 601","Limassol","","3025","Cyprus","onibuscaxiense.com@whoisprotectservice.net","+357.95713635","+357.95713635","WhoisProtectService.net","PROTECTSERVICE, LTD.","Agios Fylaxeos 66 and Chr. Perevou 2, Kalia Court, off. 601","Limassol","","3025","Cyprus","onibuscaxiense.com@whoisprotectservice.net","+357.95713635","+357.95713635","ns1.ukit.com","ns2.ukit.com","ns3.ukit.com","","OK","","",""
"37","pibrandi.com","2018-10-15 17:29:16","2018-10-14","2018-10-14","2019-10-14","1418","EvoPlus Ltd.","whois.evonames.com","http://www.evonames.com","WhoisProtectService.net","PROTECTSERVICE, LTD.","Agios Fylaxeos 66 and Chr. Perevou 2, Kalia Court, off. 601","Limassol","","3025","Cyprus","pibrandi.com@whoisprotectservice.net","+357.95713635","+357.95713635","WhoisProtectService.net","PROTECTSERVICE, LTD.","Agios Fylaxeos 66 and Chr. Perevou 2, Kalia Court, off. 601","Limassol","","3025","Cyprus","pibrandi.com@whoisprotectservice.net","+357.95713635","+357.95713635","WhoisProtectService.net","PROTECTSERVICE, LTD.","Agios Fylaxeos 66 and Chr. Perevou 2, Kalia Court, off. 601","Limassol","","3025","Cyprus","pibrandi.com@whoisprotectservice.net","+357.95713635","+357.95713635","WhoisProtectService.net","PROTECTSERVICE, LTD.","Agios Fylaxeos 66 and Chr. Perevou 2, Kalia Court, off. 601","Limassol","","3025","Cyprus","pibrandi.com@whoisprotectservice.net","+357.95713635","+357.95713635","ns1.zomro.net","ns2.zomro.ru","ns3.zomro.com","ns4.zomro.su","OK","","",""
"38","secretofstar.pro","2018-10-15 16:53:10","2018-10-14","2018-10-14","2019-10-14","1418","EvoPlus Ltd.","whois.evonames.com","http://www.evonames.com","PROTECTSERVICE, LTD.","PROTECTSERVICE, LTD.","","","","","Cyprus","","","","","","","","","","","","","","","","","","","","","","","","","","","","","","","","","","hal.ns.cloudflare.com","may.ns.cloudflare.com","","","addPeriod","serverTransferProhibited","",""
"39","secretofstars.pro","2018-10-15 15:59:15","2018-10-14","2018-10-14","2019-10-14","1418","EvoPlus Ltd.","whois.evonames.com","http://www.evonames.com","PROTECTSERVICE, LTD.","PROTECTSERVICE, LTD.","","","","","Cyprus","","","","","","","","","","","","","","","","","","","","","","","","","","","","","","","","","","hal.ns.cloudflare.com","may.ns.cloudflare.com","","","addPeriod","serverTransferProhibited","",""
"40","secretstar.pro","2018-10-15 16:04:13","2018-10-14","2018-10-14","2019-10-14","1418","EvoPlus Ltd.","whois.evonames.com","http://www.evonames.com","PROTECTSERVICE, LTD.","PROTECTSERVICE, LTD.","","","","","Cyprus","","","","","","","","","","","","","","","","","","","","","","","","","","","","","","","","","","hal.ns.cloudflare.com","may.ns.cloudflare.com","","","addPeriod","serverTransferProhibited","",""
"41","sms-bill.info","2018-10-15 17:27:24","2018-10-15","2018-10-15","2019-10-15","1418","EvoPlus Ltd.","whois.evonames.com","http://www.evonames.com","PROTECTSERVICE, LTD.","PROTECTSERVICE, LTD.","","","","","Cyprus","","","","","","","","","","","","","","","","","","","","","","","","","","","","","","","","","","ns1.zomro.net","ns2.zomro.ru","ns3.zomro.com","ns4.zomro.su","addPeriod","serverTransferProhibited","",""
"42","starformoney.pro","2018-10-15 18:41:13","2018-10-14","2018-10-14","2019-10-14","1418","EvoPlus Ltd.","whois.evonames.com","http://www.evonames.com","PROTECTSERVICE, LTD.","PROTECTSERVICE, LTD.","","","","","Cyprus","","","","","","","","","","","","","","","","","","","","","","","","","","","","","","","","","","hal.ns.cloudflare.com","may.ns.cloudflare.com","","","addPeriod","serverTransferProhibited","",""
"43","starforyou.pro","2018-10-15 17:44:57","2018-10-14","2018-10-14","2019-10-14","1418","EvoPlus Ltd.","whois.evonames.com","http://www.evonames.com","PROTECTSERVICE, LTD.","PROTECTSERVICE, LTD.","","","","","Cyprus","","","","","","","","","","","","","","","","","","","","","","","","","","","","","","","","","","hal.ns.cloudflare.com","may.ns.cloudflare.com","","","addPeriod","serverTransferProhibited","",""
"44","starstime.pro","2018-10-15 17:42:55","2018-10-14","2018-10-14","2019-10-14","1418","EvoPlus Ltd.","whois.evonames.com","http://www.evonames.com","PROTECTSERVICE, LTD.","PROTECTSERVICE, LTD.","","","","","Cyprus","","","","","","","","","","","","","","","","","","","","","","","","","","","","","","","","","","hal.ns.cloudflare.com","may.ns.cloudflare.com","","","addPeriod","serverTransferProhibited","",""
"45","super-stars.pro","2018-10-15 18:10:05","2018-10-14","2018-10-14","2019-10-14","1418","EvoPlus Ltd.","whois.evonames.com","http://www.evonames.com","PROTECTSERVICE, LTD.","PROTECTSERVICE, LTD.","","","","","Cyprus","","","","","","","","","","","","","","","","","","","","","","","","","","","","","","","","","","hal.ns.cloudflare.com","may.ns.cloudflare.com","","","addPeriod","serverTransferProhibited","",""
"46","thesuperstar.pro","2018-10-15 16:50:27","2018-10-14","2018-10-14","2019-10-14","1418","EvoPlus Ltd.","whois.evonames.com","http://www.evonames.com","PROTECTSERVICE, LTD.","PROTECTSERVICE, LTD.","","","","","Cyprus","","","","","","","","","","","","","","","","","","","","","","","","","","","","","","","","","","hal.ns.cloudflare.com","may.ns.cloudflare.com","","","addPeriod","serverTransferProhibited","",""
"47","travelmature.com","2018-10-15 16:37:45","2018-10-14","2018-10-14","2019-10-14","1418","EvoPlus Ltd.","whois.evonames.com","http://www.evonames.com","WhoisProtectService.net","PROTECTSERVICE, LTD.","Agios Fylaxeos 66 and Chr. Perevou 2, Kalia Court, off. 601","Limassol","","3025","Cyprus","travelmature.com@whoisprotectservice.net","+357.95713635","+357.95713635","WhoisProtectService.net","PROTECTSERVICE, LTD.","Agios Fylaxeos 66 and Chr. Perevou 2, Kalia Court, off. 601","Limassol","","3025","Cyprus","travelmature.com@whoisprotectservice.net","+357.95713635","+357.95713635","WhoisProtectService.net","PROTECTSERVICE, LTD.","Agios Fylaxeos 66 and Chr. Perevou 2, Kalia Court, off. 601","Limassol","","3025","Cyprus","travelmature.com@whoisprotectservice.net","+357.95713635","+357.95713635","WhoisProtectService.net","PROTECTSERVICE, LTD.","Agios Fylaxeos 66 and Chr. Perevou 2, Kalia Court, off. 601","Limassol","","3025","Cyprus","travelmature.com@whoisprotectservice.net","+357.95713635","+357.95713635","ns1.travelmature.com","ns2.travelmature.com","","","clientDeleteProhibited","clientTransferProhibited","",""
"48","waspbot.com","2018-10-15 16:35:00","2018-10-12","2018-10-12","2019-10-12","1418","EvoPlus Ltd.","whois.evonames.com","http://www.evonames.com","WhoisProtectService.net","PROTECTSERVICE, LTD.","Agios Fylaxeos 66 and Chr. Perevou 2, Kalia Court, off. 601","Limassol","","3025","Cyprus","waspbot.com@whoisprotectservice.net","+357.95713635","+357.95713635","WhoisProtectService.net","PROTECTSERVICE, LTD.","Agios Fylaxeos 66 and Chr. Perevou 2, Kalia Court, off. 601","Limassol","","3025","Cyprus","waspbot.com@whoisprotectservice.net","+357.95713635","+357.95713635","WhoisProtectService.net","PROTECTSERVICE, LTD.","Agios Fylaxeos 66 and Chr. Perevou 2, Kalia Court, off. 601","Limassol","","3025","Cyprus","waspbot.com@whoisprotectservice.net","+357.95713635","+357.95713635","WhoisProtectService.net","PROTECTSERVICE, LTD.","Agios Fylaxeos 66 and Chr. Perevou 2, Kalia Court, off. 601","Limassol","","3025","Cyprus","waspbot.com@whoisprotectservice.net","+357.95713635","+357.95713635","ns1.hostiservices.com","ns2.hostiservices.com","","","clientDeleteProhibited","clientTransferProhibited","",""
"49","watchmypassword.com","2018-10-15 18:29:23","2018-10-15","2018-10-15","2019-10-15","1418","EvoPlus Ltd.","whois.evonames.com","http://www.evonames.com","WhoisProtectService.net","PROTECTSERVICE, LTD.","Agios Fylaxeos 66 and Chr. Perevou 2, Kalia Court, off. 601","Limassol","","3025","Cyprus","watchmypassword.com@whoisprotectservice.net","+357.95713635","+357.95713635","WhoisProtectService.net","PROTECTSERVICE, LTD.","Agios Fylaxeos 66 and Chr. Perevou 2, Kalia Court, off. 601","Limassol","","3025","Cyprus","watchmypassword.com@whoisprotectservice.net","+357.95713635","+357.95713635","WhoisProtectService.net","PROTECTSERVICE, LTD.","Agios Fylaxeos 66 and Chr. Perevou 2, Kalia Court, off. 601","Limassol","","3025","Cyprus","watchmypassword.com@whoisprotectservice.net","+357.95713635","+357.95713635","WhoisProtectService.net","PROTECTSERVICE, LTD.","Agios Fylaxeos 66 and Chr. Perevou 2, Kalia Court, off. 601","Limassol","","3025","Cyprus","watchmypassword.com@whoisprotectservice.net","+357.95713635","+357.95713635","dane.ns.cloudflare.com","serena.ns.cloudflare.com","","","clientDeleteProhibited","clientTransferProhibited","",""
"50","yourmoneystar.pro","2018-10-15 17:47:51","2018-10-14","2018-10-14","2019-10-14","1418","EvoPlus Ltd.","whois.evonames.com","http://www.evonames.com","PROTECTSERVICE, LTD.","PROTECTSERVICE, LTD.","","","","","Cyprus","","","","","","","","","","","","","","","","","","","","","","","","","","","","","","","","","","hal.ns.cloudflare.com","may.ns.cloudflare.com","","","addPeriod","serverTransferProhibited","",""
"51","yoursecretstar.pro","2018-10-15 18:29:33","2018-10-14","2018-10-14","2019-10-14","1418","EvoPlus Ltd.","whois.evonames.com","http://www.evonames.com","PROTECTSERVICE, LTD.","PROTECTSERVICE, LTD.","","","","","Cyprus","","","","","","","","","","","","","","","","","","","","","","","","","","","","","","","","","","hal.ns.cloudflare.com","may.ns.cloudflare.com","","","addPeriod","serverTransferProhibited","",""
"52","zordan.info","2018-10-15 17:56:20","2018-10-15","2018-10-15","2019-10-15","1418","EvoPlus Ltd.","whois.evonames.com","http://www.evonames.com","PROTECTSERVICE, LTD.","PROTECTSERVICE, LTD.","","","","","Cyprus","","","","","","","","","","","","","","","","","","","","","","","","","","","","","","","","","","ns21.link-host.net","ns22.link-host.net","","","addPeriod","serverTransferProhibited","",""