"num","domain_name","query_time","create_date","update_date","expiry_date","domain_registrar_id","domain_registrar_name","domain_registrar_whois","domain_registrar_url","registrant_name","registrant_company","registrant_address","registrant_city","registrant_state","registrant_zip","registrant_country","registrant_email","registrant_phone","registrant_fax","administrative_name","administrative_company","administrative_address","administrative_city","administrative_state","administrative_zip","administrative_country","administrative_email","administrative_phone","administrative_fax","technical_name","technical_company","technical_address","technical_city","technical_state","technical_zip","technical_country","technical_email","technical_phone","technical_fax","billing_name","billing_company","billing_address","billing_city","billing_state","billing_zip","billing_country","billing_email","billing_phone","billing_fax","name_server_1","name_server_2","name_server_3","name_server_4","domain_status_1","domain_status_2","domain_status_3","domain_status_4"
"1","irenemarieseelig.com","2018-10-15 16:32:49","2018-10-14","2018-10-14","2019-10-14","2854","Hanging Curve Domains LLC","whois.hangingcurvedomainsllc.com","http://www.hangingcurvedomainsllc.com","PERFECT PRIVACY, LLC","","12808 Gran Bay Pkwy West","Jacksonville","FL","32258","United States","6lc57qrkc0gmk8pbqnheu8n9t1@domaindiscreet.com","+1.9027492701","","PERFECT PRIVACY, LLC","","12808 Gran Bay Pkwy West","Jacksonville","FL","32258","United States","6lc57qrkc0gmk8pbqnheu8n9t1@domaindiscreet.com","+1.9027492701","","PERFECT PRIVACY, LLC","","12808 Gran Bay Pkwy West","Jacksonville","FL","32258","United States","6lc57qrkc0gmk8pbqnheu8n9t1@domaindiscreet.com","+1.9027492701","","","","","","","","","","","","ns15.above.com","ns16.above.com","","","OK","","",""
"2","ujblackboard.com","2018-10-15 17:05:10","2018-10-14","2018-10-14","2019-10-14","2854","Hanging Curve Domains LLC","whois.hangingcurvedomainsllc.com","http://www.hangingcurvedomainsllc.com","PERFECT PRIVACY, LLC","","12808 Gran Bay Pkwy West","Jacksonville","FL","32258","United States","1d0ah5ifs6j6a96q4jadqnoa27@domaindiscreet.com","+1.9027492701","","PERFECT PRIVACY, LLC","","12808 Gran Bay Pkwy West","Jacksonville","FL","32258","United States","1d0ah5ifs6j6a96q4jadqnoa27@domaindiscreet.com","+1.9027492701","","PERFECT PRIVACY, LLC","","12808 Gran Bay Pkwy West","Jacksonville","FL","32258","United States","1d0ah5ifs6j6a96q4jadqnoa27@domaindiscreet.com","+1.9027492701","","","","","","","","","","","","ns1.sedoparking.com","ns2.sedoparking.com","","","OK","","",""
"3","zrygzg.com","2018-10-15 17:33:59","2018-10-14","2018-10-14","2019-10-14","2854","Hanging Curve Domains LLC","whois.hangingcurvedomainsllc.com","http://www.hangingcurvedomainsllc.com","Jianfeng Wu","www.Juming.com","Luyang District, Fortune Plaza No 1107 First","Hefei","ANHUI","230001","China","admin@juming.com","+1.864009972996","","Jianfeng Wu","www.Juming.com","Luyang District, Fortune Plaza No 1107 First","Hefei","ANHUI","230001","China","admin@juming.com","+1.864009972996","","Jianfeng Wu","www.Juming.com","Luyang District, Fortune Plaza No 1107 First","Hefei","ANHUI","230001","China","admin@juming.com","+1.864009972996","","","","","","","","","","","","s1.juming.com","s2.juming.com","","","OK","","",""