"num","domain_name","query_time","create_date","update_date","expiry_date","domain_registrar_id","domain_registrar_name","domain_registrar_whois","domain_registrar_url","registrant_name","registrant_company","registrant_address","registrant_city","registrant_state","registrant_zip","registrant_country","registrant_email","registrant_phone","registrant_fax","administrative_name","administrative_company","administrative_address","administrative_city","administrative_state","administrative_zip","administrative_country","administrative_email","administrative_phone","administrative_fax","technical_name","technical_company","technical_address","technical_city","technical_state","technical_zip","technical_country","technical_email","technical_phone","technical_fax","billing_name","billing_company","billing_address","billing_city","billing_state","billing_zip","billing_country","billing_email","billing_phone","billing_fax","name_server_1","name_server_2","name_server_3","name_server_4","domain_status_1","domain_status_2","domain_status_3","domain_status_4"
"1","claudevence6tet.info","2018-10-15 17:02:54","2018-10-15","","2019-10-15","1378","Hosteur SARL","whois.com.ua","http://www.hosteur.com","","","","","","","Belgium","","","","","","","","","","","","","","","","","","","","","","","","","","","","","","","","","","dns1.hosteur.com","dns2.hosteur.com","","","addPeriod","serverTransferProhibited","",""
"2","grossespatates.com","2018-10-15 18:23:54","2018-10-14","2019-10-14","2019-10-14","1378","Hosteur SARL","whois.com.ua","http://www.hosteur.com","Hourde Cedric","","52 rue snellius,","ORVAULT","","44700","France","cedric.hourde@gmail.com","+33.628205477","","Hourde Cedric","","52 rue snellius,","ORVAULT","","44700","France","cedric.hourde@gmail.com","+33.628205477","","Hourde Cedric","","52 rue snellius,","ORVAULT","","44700","France","cedric.hourde@gmail.com","+33.628205477","","","","","","","","","","","","dns1.hosteur.com","dns2.hosteur.com","","","clientRenewProhibited","clientTransferProhibited","",""
"3","pplupdatessecure.com","2018-10-15 17:10:54","2018-10-14","2019-10-14","2019-10-14","1378","Hosteur SARL","whois.com.ua","http://www.hosteur.com","oleksey zhyrkov","","53 ul atakara,","kharkov","","61100","France","mayno83ca@gmail.com","+380.993541600","","oleksey zhyrkov","","53 ul atakara,","kharkov","","61100","France","mayno83ca@gmail.com","+380.993541600","","oleksey zhyrkov","","53 ul atakara,","kharkov","","61100","France","mayno83ca@gmail.com","+380.993541600","","","","","","","","","","","","dns1.hosteur.com","dns2.hosteur.com","","","clientRenewProhibited","clientTransferProhibited","",""
"4","pypl-secureusers.com","2018-10-15 17:12:27","2018-10-14","2019-10-14","2019-10-14","1378","Hosteur SARL","whois.com.ua","http://www.hosteur.com","oleksey zhyrkov","","53 ul atakara,","kharkov","","61100","France","mayno83ca@gmail.com","+380.993541600","","oleksey zhyrkov","","53 ul atakara,","kharkov","","61100","France","mayno83ca@gmail.com","+380.993541600","","oleksey zhyrkov","","53 ul atakara,","kharkov","","61100","France","mayno83ca@gmail.com","+380.993541600","","","","","","","","","","","","dns1.hosteur.com","dns2.hosteur.com","","","clientRenewProhibited","clientTransferProhibited","",""
"5","tunone.com","2018-10-15 17:35:31","2018-10-14","2019-10-14","2019-10-14","1378","Hosteur SARL","whois.com.ua","http://www.hosteur.com","oleksey zhyrkov","","53 ul atakara,","kharkov","","61100","France","mayno83ca@gmail.com","+380.993541600","","oleksey zhyrkov","","53 ul atakara,","kharkov","","61100","France","mayno83ca@gmail.com","+380.993541600","","oleksey zhyrkov","","53 ul atakara,","kharkov","","61100","France","mayno83ca@gmail.com","+380.993541600","","","","","","","","","","","","dns1.hosteur.com","dns2.hosteur.com","","","clientRenewProhibited","clientTransferProhibited","",""