"num","domain_name","query_time","create_date","update_date","expiry_date","domain_registrar_id","domain_registrar_name","domain_registrar_whois","domain_registrar_url","registrant_name","registrant_company","registrant_address","registrant_city","registrant_state","registrant_zip","registrant_country","registrant_email","registrant_phone","registrant_fax","administrative_name","administrative_company","administrative_address","administrative_city","administrative_state","administrative_zip","administrative_country","administrative_email","administrative_phone","administrative_fax","technical_name","technical_company","technical_address","technical_city","technical_state","technical_zip","technical_country","technical_email","technical_phone","technical_fax","billing_name","billing_company","billing_address","billing_city","billing_state","billing_zip","billing_country","billing_email","billing_phone","billing_fax","name_server_1","name_server_2","name_server_3","name_server_4","domain_status_1","domain_status_2","domain_status_3","domain_status_4"
"1","gostream123.com","2018-10-15 16:57:21","2018-10-14","2018-10-15","2019-10-14","1359","Lakeodomains.com LLC","whois.lakeodomains.com","http://www.ait.com","Jan Everno","The Management Group II","2885 Sanford Ave SW 29892","Grandville","MI","49418","United States","janeverno@gmail.com","+1.8056662322","","Jan Everno","","2885 Sanford Ave SW 29892","Grandville","MI","49418","United States","janeverno@gmail.com","+1.8056662322","","Jan Everno","","2885 Sanford Ave SW 29892","Grandville","MI","49418","United States","janeverno@gmail.com","+1.8056662322","","","","","","","","","","","","ns1.dnsnuts.com","ns2.dnsnuts.com","","","OK","","",""
"2","kotakfilm.com","2018-10-15 17:44:44","2018-10-14","2018-10-15","2019-10-14","1359","Lakeodomains.com LLC","whois.lakeodomains.com","http://www.ait.com","qi hu","huqi","huangpuqu,wufunong,78nong","shanghai","shanghai","200000","China","15910878468@163.com","+86.15910878468","+86.15910878468","qi hu","huqi","huangpuqu,wufunong,78nong","shanghai","shanghai","200000","China","15910878468@163.com","+86.15910878468","+86.15910878468","qi hu","huqi","huangpuqu,wufunong,78nong","shanghai","shanghai","200000","China","15910878468@163.com","+86.15910878468","+86.15910878468","","","","","","","","","","","s1.juming.com","s2.juming.com","","","OK","","",""
"3","ycircuit.com","2018-10-15 18:41:20","2018-10-14","2018-10-15","2019-10-14","1359","Lakeodomains.com LLC","whois.lakeodomains.com","http://www.ait.com","D o m a i n P r o t e c t i o n","ITWEB Domain Protection","Edif. Neptuno Local #7 Via Ricardo J Alfaro Tumba Muerto","Panama Ciudad","PA","000000","Panama","interwebb@hushmail.com","+507.100572021515","","D o m a i n P r o t e c t i o n","ITWEB Domain Protection","Edif. Neptuno Local #7 Via Ricardo J Alfaro Tumba Muerto","Panama Ciudad","PA","000000","Panama","interwebb@hushmail.com","+507.100572021515","","D o m a i n P r o t e c t i o n","ITWEB Domain Protection","Edif. Neptuno Local #7 Via Ricardo J Alfaro Tumba Muerto","Panama Ciudad","PA","000000","Panama","interwebb@hushmail.com","+507.100572021515","","","","","","","","","","","","ns1.above.com","ns2.above.com","","","clientTransferProhibited","","",""