"num","domain_name","query_time","create_date","update_date","expiry_date","domain_registrar_id","domain_registrar_name","domain_registrar_whois","domain_registrar_url","registrant_name","registrant_company","registrant_address","registrant_city","registrant_state","registrant_zip","registrant_country","registrant_email","registrant_phone","registrant_fax","administrative_name","administrative_company","administrative_address","administrative_city","administrative_state","administrative_zip","administrative_country","administrative_email","administrative_phone","administrative_fax","technical_name","technical_company","technical_address","technical_city","technical_state","technical_zip","technical_country","technical_email","technical_phone","technical_fax","billing_name","billing_company","billing_address","billing_city","billing_state","billing_zip","billing_country","billing_email","billing_phone","billing_fax","name_server_1","name_server_2","name_server_3","name_server_4","domain_status_1","domain_status_2","domain_status_3","domain_status_4"
"1","aliciahelen.com","2018-10-15 18:35:39","2018-10-14","2018-10-15","2019-10-14","602","LCN.COM Ltd.","whois.lcn.com","http://www.lcn.com","Private User","Domain Privacy Protector Ltd","Office 404, 4th FloorAlbany House, 324/326 Regent Street","London","London","W1B 3HH","United Kingdom","2b285bb00dab781e490ea57ed4c6273f@domainprivacyprotector.com","+44.2071836619","","Private User","Domain Privacy Protector Ltd","Office 404, 4th FloorAlbany House, 324/326 Regent Street","London","London","W1B 3HH","United Kingdom","2b285bb00dab781e490ea57ed4c6273f@domainprivacyprotector.com","+44.2071836619","","LCN Hostmaster","LCN.com Ltd","Units H, J, K, Gateway 1000, Whittle Way","Stevenage","Herts","SG1 2FP","United Kingdom","support@lcn.com","+44.1438532000","+44.1438300137","","","","","","","","","","","ns0.lcn.com","ns1.lcn.com","ns2.lcn.com","","clientDeleteProhibited","clientTransferProhibited","clientUpdateProhibited",""
"2","bbuptime.com","2018-10-15 16:28:43","2018-10-14","2018-10-15","2019-10-14","602","LCN.COM Ltd.","whois.lcn.com","http://www.lcn.com","Private User","Domain Privacy Protector Ltd","Office 404, 4th FloorAlbany House, 324/326 Regent Street","London","London","W1B 3HH","United Kingdom","24385952d1b4c6f788097d92050b0a96@domainprivacyprotector.com","+44.2071836619","","Private User","Domain Privacy Protector Ltd","Office 404, 4th FloorAlbany House, 324/326 Regent Street","London","London","W1B 3HH","United Kingdom","24385952d1b4c6f788097d92050b0a96@domainprivacyprotector.com","+44.2071836619","","LCN Hostmaster","LCN.com Ltd","Units H, J, K, Gateway 1000, Whittle Way","Stevenage","Herts","SG1 2FP","United Kingdom","support@lcn.com","+44.1438532000","+44.1438300137","","","","","","","","","","","ns1.solidweb.io","ns2.solidweb.io","","","clientDeleteProhibited","clientTransferProhibited","clientUpdateProhibited",""
"3","boutiquepoetry.com","2018-10-15 17:20:14","2018-10-14","2018-10-15","2019-10-14","602","LCN.COM Ltd.","whois.lcn.com","http://www.lcn.com","Private User","Domain Privacy Protector Ltd","Office 404, 4th FloorAlbany House, 324/326 Regent Street","London","London","W1B 3HH","United Kingdom","bb85fb2e39ffea727a36f8f9c32be90f@domainprivacyprotector.com","+44.2071836619","","Private User","Domain Privacy Protector Ltd","Office 404, 4th FloorAlbany House, 324/326 Regent Street","London","London","W1B 3HH","United Kingdom","bb85fb2e39ffea727a36f8f9c32be90f@domainprivacyprotector.com","+44.2071836619","","LCN Hostmaster","LCN.com Ltd","Units H, J, K, Gateway 1000, Whittle Way","Stevenage","Herts","SG1 2FP","United Kingdom","support@lcn.com","+44.1438532000","+44.1438300137","","","","","","","","","","","ns0.lcn.com","ns1.lcn.com","ns2.lcn.com","","clientDeleteProhibited","clientTransferProhibited","clientUpdateProhibited",""
"4","brandcozy.com","2018-10-15 03:47:04","2018-10-15","2018-10-15","2019-10-15","602","LCN.COM Ltd.","whois.lcn.com","http://www.lcn.com","Private User","Domain Privacy Protector Ltd","Office 404, 4th FloorAlbany House, 324/326 Regent Street","London","London","W1B 3HH","United Kingdom","6b70dd4b393eea39f6d2a9f3afe8be8f@domainprivacyprotector.com","+44.2071836619","","Private User","Domain Privacy Protector Ltd","Office 404, 4th FloorAlbany House, 324/326 Regent Street","London","London","W1B 3HH","United Kingdom","6b70dd4b393eea39f6d2a9f3afe8be8f@domainprivacyprotector.com","+44.2071836619","","LCN Hostmaster","LCN.com Ltd","Units H, J, K, Gateway 1000, Whittle Way","Stevenage","Herts","SG1 2FP","United Kingdom","support@lcn.com","+44.1438532000","+44.1438300137","","","","","","","","","","","ns0.lcn.com","ns1.lcn.com","ns2.lcn.com","","clientDeleteProhibited","clientTransferProhibited","clientUpdateProhibited",""
"5","brandmentalistcollection.com","2018-10-15 17:14:14","2018-10-15","2018-10-15","2019-10-15","602","LCN.COM Ltd.","whois.lcn.com","http://www.lcn.com","Private User","Domain Privacy Protector Ltd","Office 404, 4th FloorAlbany House, 324/326 Regent Street","London","London","W1B 3HH","United Kingdom","0c6ba6f13742115e1e6aa80add000951@domainprivacyprotector.com","+44.2071836619","","Private User","Domain Privacy Protector Ltd","Office 404, 4th FloorAlbany House, 324/326 Regent Street","London","London","W1B 3HH","United Kingdom","0c6ba6f13742115e1e6aa80add000951@domainprivacyprotector.com","+44.2071836619","","LCN Hostmaster","LCN.com Ltd","Units H, J, K, Gateway 1000, Whittle Way","Stevenage","Herts","SG1 2FP","United Kingdom","support@lcn.com","+44.1438532000","+44.1438300137","","","","","","","","","","","ns0.lcn.com","ns1.lcn.com","ns2.lcn.com","","clientDeleteProhibited","clientTransferProhibited","clientUpdateProhibited",""
"6","deepstatepuppet.com","2018-10-15 16:51:36","2018-10-14","2018-10-15","2019-10-14","602","LCN.COM Ltd.","whois.lcn.com","http://www.lcn.com","Private User","Domain Privacy Protector Ltd","Office 404, 4th FloorAlbany House, 324/326 Regent Street","London","London","W1B 3HH","United Kingdom","10952869f1c6e5cbd85da771859489d0@domainprivacyprotector.com","+44.2071836619","","Private User","Domain Privacy Protector Ltd","Office 404, 4th FloorAlbany House, 324/326 Regent Street","London","London","W1B 3HH","United Kingdom","10952869f1c6e5cbd85da771859489d0@domainprivacyprotector.com","+44.2071836619","","LCN Hostmaster","LCN.com Ltd","Units H, J, K, Gateway 1000, Whittle Way","Stevenage","Herts","SG1 2FP","United Kingdom","support@lcn.com","+44.1438532000","+44.1438300137","","","","","","","","","","","ns0.lcn.com","ns1.lcn.com","ns2.lcn.com","","clientDeleteProhibited","clientTransferProhibited","clientUpdateProhibited",""
"7","fkscreative.com","2018-10-15 18:03:38","2018-10-14","2018-10-15","2019-10-14","602","LCN.COM Ltd.","whois.lcn.com","http://www.lcn.com","Private User","Domain Privacy Protector Ltd","Office 404, 4th FloorAlbany House, 324/326 Regent Street","London","London","W1B 3HH","United Kingdom","779393fda47654c40d6af75b74a251d8@domainprivacyprotector.com","+44.2071836619","","Private User","Domain Privacy Protector Ltd","Office 404, 4th FloorAlbany House, 324/326 Regent Street","London","London","W1B 3HH","United Kingdom","779393fda47654c40d6af75b74a251d8@domainprivacyprotector.com","+44.2071836619","","LCN Hostmaster","LCN.com Ltd","Units H, J, K, Gateway 1000, Whittle Way","Stevenage","Herts","SG1 2FP","United Kingdom","support@lcn.com","+44.1438532000","+44.1438300137","","","","","","","","","","","ns01.000webhost.com","ns02.000webhost.com","","","clientDeleteProhibited","clientTransferProhibited","clientUpdateProhibited",""
"8","fundmarketingleadership.com","2018-10-15 16:11:13","2018-10-14","2018-10-15","2019-10-14","602","LCN.COM Ltd.","whois.lcn.com","http://www.lcn.com","Private User","Domain Privacy Protector Ltd","Office 404, 4th FloorAlbany House, 324/326 Regent Street","London","London","W1B 3HH","United Kingdom","e0f528ae4185612d6c06608fd23eac54@domainprivacyprotector.com","+44.2071836619","","Private User","Domain Privacy Protector Ltd","Office 404, 4th FloorAlbany House, 324/326 Regent Street","London","London","W1B 3HH","United Kingdom","e0f528ae4185612d6c06608fd23eac54@domainprivacyprotector.com","+44.2071836619","","LCN Hostmaster","LCN.com Ltd","Units H, J, K, Gateway 1000, Whittle Way","Stevenage","Herts","SG1 2FP","United Kingdom","support@lcn.com","+44.1438532000","+44.1438300137","","","","","","","","","","","ns0.lcn.com","ns1.lcn.com","ns2.lcn.com","","clientDeleteProhibited","clientTransferProhibited","clientUpdateProhibited",""
"9","hampshirecareservices.com","2018-10-15 16:50:29","2018-10-14","2018-10-15","2019-10-14","602","LCN.COM Ltd.","whois.lcn.com","http://www.lcn.com","Private User","Domain Privacy Protector Ltd","Office 404, 4th FloorAlbany House, 324/326 Regent Street","London","London","W1B 3HH","United Kingdom","6c873d2090948477fd64cecf7dd86fca@domainprivacyprotector.com","+44.2071836619","","Private User","Domain Privacy Protector Ltd","Office 404, 4th FloorAlbany House, 324/326 Regent Street","London","London","W1B 3HH","United Kingdom","6c873d2090948477fd64cecf7dd86fca@domainprivacyprotector.com","+44.2071836619","","LCN Hostmaster","LCN.com Ltd","Units H, J, K, Gateway 1000, Whittle Way","Stevenage","Herts","SG1 2FP","United Kingdom","support@lcn.com","+44.1438532000","+44.1438300137","","","","","","","","","","","ns0.lcn.com","ns1.lcn.com","ns2.lcn.com","","clientDeleteProhibited","clientTransferProhibited","clientUpdateProhibited",""
"10","hcsdomcare.com","2018-10-15 17:54:13","2018-10-14","2018-10-15","2019-10-14","602","LCN.COM Ltd.","whois.lcn.com","http://www.lcn.com","Private User","Domain Privacy Protector Ltd","Office 404, 4th FloorAlbany House, 324/326 Regent Street","London","London","W1B 3HH","United Kingdom","a93dcfc85b3bcc8dd2c3f703b081fbbf@domainprivacyprotector.com","+44.2071836619","","Private User","Domain Privacy Protector Ltd","Office 404, 4th FloorAlbany House, 324/326 Regent Street","London","London","W1B 3HH","United Kingdom","a93dcfc85b3bcc8dd2c3f703b081fbbf@domainprivacyprotector.com","+44.2071836619","","LCN Hostmaster","LCN.com Ltd","Units H, J, K, Gateway 1000, Whittle Way","Stevenage","Herts","SG1 2FP","United Kingdom","support@lcn.com","+44.1438532000","+44.1438300137","","","","","","","","","","","ns0.lcn.com","ns1.lcn.com","ns2.lcn.com","","clientDeleteProhibited","clientTransferProhibited","clientUpdateProhibited",""
"11","hmomarket.com","2018-10-15 16:25:54","2018-10-14","2018-10-15","2019-10-14","602","LCN.COM Ltd.","whois.lcn.com","http://www.lcn.com","Private User","Domain Privacy Protector Ltd","Office 404, 4th FloorAlbany House, 324/326 Regent Street","London","London","W1B 3HH","United Kingdom","1215e9dc44e7a06128018c4140206329@domainprivacyprotector.com","+44.2071836619","","Private User","Domain Privacy Protector Ltd","Office 404, 4th FloorAlbany House, 324/326 Regent Street","London","London","W1B 3HH","United Kingdom","1215e9dc44e7a06128018c4140206329@domainprivacyprotector.com","+44.2071836619","","LCN Hostmaster","LCN.com Ltd","Units H, J, K, Gateway 1000, Whittle Way","Stevenage","Herts","SG1 2FP","United Kingdom","support@lcn.com","+44.1438532000","+44.1438300137","","","","","","","","","","","ns0.lcn.com","ns1.lcn.com","ns2.lcn.com","","clientDeleteProhibited","clientTransferProhibited","clientUpdateProhibited",""
"12","jollyhoovesfarm.com","2018-10-15 17:41:33","2018-10-14","2018-10-15","2019-10-14","602","LCN.COM Ltd.","whois.lcn.com","http://www.lcn.com","Private User","Domain Privacy Protector Ltd","Office 404, 4th FloorAlbany House, 324/326 Regent Street","London","London","W1B 3HH","United Kingdom","a690e86977b2b6c08fbe0c7f670dc6d2@domainprivacyprotector.com","+44.2071836619","","Private User","Domain Privacy Protector Ltd","Office 404, 4th FloorAlbany House, 324/326 Regent Street","London","London","W1B 3HH","United Kingdom","a690e86977b2b6c08fbe0c7f670dc6d2@domainprivacyprotector.com","+44.2071836619","","LCN Hostmaster","LCN.com Ltd","Units H, J, K, Gateway 1000, Whittle Way","Stevenage","Herts","SG1 2FP","United Kingdom","support@lcn.com","+44.1438532000","+44.1438300137","","","","","","","","","","","ns0.lcn.com","ns1.lcn.com","ns2.lcn.com","","clientDeleteProhibited","clientTransferProhibited","clientUpdateProhibited",""
"13","longlivegoodcompanions.com","2018-10-15 16:08:10","2018-10-14","2018-10-15","2019-10-14","602","LCN.COM Ltd.","whois.lcn.com","http://www.lcn.com","Private User","Domain Privacy Protector Ltd","Office 404, 4th FloorAlbany House, 324/326 Regent Street","London","London","W1B 3HH","United Kingdom","a4826f6c21a61d5eadc219c3d8574ded@domainprivacyprotector.com","+44.2071836619","","Private User","Domain Privacy Protector Ltd","Office 404, 4th FloorAlbany House, 324/326 Regent Street","London","London","W1B 3HH","United Kingdom","a4826f6c21a61d5eadc219c3d8574ded@domainprivacyprotector.com","+44.2071836619","","LCN Hostmaster","LCN.com Ltd","Units H, J, K, Gateway 1000, Whittle Way","Stevenage","Herts","SG1 2FP","United Kingdom","support@lcn.com","+44.1438532000","+44.1438300137","","","","","","","","","","","ns12.wixdns.net","ns13.wixdns.net","","","clientDeleteProhibited","clientTransferProhibited","clientUpdateProhibited",""
"14","maximoverdirect.com","2018-10-15 17:15:34","2018-10-14","2018-10-15","2019-10-14","602","LCN.COM Ltd.","whois.lcn.com","http://www.lcn.com","Private User","Domain Privacy Protector Ltd","Office 404, 4th FloorAlbany House, 324/326 Regent Street","London","London","W1B 3HH","United Kingdom","3f86a1a0ffbe2e52f036e6e046684483@domainprivacyprotector.com","+44.2071836619","","Private User","Domain Privacy Protector Ltd","Office 404, 4th FloorAlbany House, 324/326 Regent Street","London","London","W1B 3HH","United Kingdom","3f86a1a0ffbe2e52f036e6e046684483@domainprivacyprotector.com","+44.2071836619","","LCN Hostmaster","LCN.com Ltd","Units H, J, K, Gateway 1000, Whittle Way","Stevenage","Herts","SG1 2FP","United Kingdom","support@lcn.com","+44.1438532000","+44.1438300137","","","","","","","","","","","ns0.lcn.com","ns1.lcn.com","ns2.lcn.com","","clientDeleteProhibited","clientTransferProhibited","clientUpdateProhibited",""
"15","monitorfund.com","2018-10-15 17:53:35","2018-10-15","2018-10-15","2019-10-15","602","LCN.COM Ltd.","whois.lcn.com","http://www.lcn.com","Private User","Domain Privacy Protector Ltd","Office 404, 4th FloorAlbany House, 324/326 Regent Street","London","London","W1B 3HH","United Kingdom","b34f2a845b347c469811aaf6ac4025ac@domainprivacyprotector.com","+44.2071836619","","Private User","Domain Privacy Protector Ltd","Office 404, 4th FloorAlbany House, 324/326 Regent Street","London","London","W1B 3HH","United Kingdom","b34f2a845b347c469811aaf6ac4025ac@domainprivacyprotector.com","+44.2071836619","","LCN Hostmaster","LCN.com Ltd","Units H, J, K, Gateway 1000, Whittle Way","Stevenage","Herts","SG1 2FP","United Kingdom","support@lcn.com","+44.1438532000","+44.1438300137","","","","","","","","","","","ns1.undeveloped.com","ns2.undeveloped.com","","","clientDeleteProhibited","clientTransferProhibited","clientUpdateProhibited",""
"16","oliviajohnsonphoto.com","2018-10-15 17:09:03","2018-10-14","2018-10-15","2019-10-14","602","LCN.COM Ltd.","whois.lcn.com","http://www.lcn.com","Private User","Domain Privacy Protector Ltd","Office 404, 4th FloorAlbany House, 324/326 Regent Street","London","London","W1B 3HH","United Kingdom","2a7f130abec30a1091257dc8432837bc@domainprivacyprotector.com","+44.2071836619","","Private User","Domain Privacy Protector Ltd","Office 404, 4th FloorAlbany House, 324/326 Regent Street","London","London","W1B 3HH","United Kingdom","2a7f130abec30a1091257dc8432837bc@domainprivacyprotector.com","+44.2071836619","","LCN Hostmaster","LCN.com Ltd","Units H, J, K, Gateway 1000, Whittle Way","Stevenage","Herts","SG1 2FP","United Kingdom","support@lcn.com","+44.1438532000","+44.1438300137","","","","","","","","","","","ns0.lcn.com","ns1.lcn.com","ns2.lcn.com","","clientDeleteProhibited","clientTransferProhibited","clientUpdateProhibited",""
"17","ombrebrowuk.com","2018-10-15 16:14:19","2018-10-14","2018-10-15","2019-10-14","602","LCN.COM Ltd.","whois.lcn.com","http://www.lcn.com","Private User","Domain Privacy Protector Ltd","Office 404, 4th FloorAlbany House, 324/326 Regent Street","London","London","W1B 3HH","United Kingdom","919247c1fada7f9a80e2eccb26f0c817@domainprivacyprotector.com","+44.2071836619","","Private User","Domain Privacy Protector Ltd","Office 404, 4th FloorAlbany House, 324/326 Regent Street","London","London","W1B 3HH","United Kingdom","919247c1fada7f9a80e2eccb26f0c817@domainprivacyprotector.com","+44.2071836619","","LCN Hostmaster","LCN.com Ltd","Units H, J, K, Gateway 1000, Whittle Way","Stevenage","Herts","SG1 2FP","United Kingdom","support@lcn.com","+44.1438532000","+44.1438300137","","","","","","","","","","","ns0.lcn.com","ns1.lcn.com","ns2.lcn.com","","clientDeleteProhibited","clientTransferProhibited","clientUpdateProhibited",""
"18","pmbinternational.com","2018-10-15 16:28:26","2018-10-14","2018-10-15","2019-10-14","602","LCN.COM Ltd.","whois.lcn.com","http://www.lcn.com","Private User","Domain Privacy Protector Ltd","Office 404, 4th FloorAlbany House, 324/326 Regent Street","London","London","W1B 3HH","United Kingdom","7d3a05fcec65b4ff27ec7b879a27dfc9@domainprivacyprotector.com","+44.2071836619","","Private User","Domain Privacy Protector Ltd","Office 404, 4th FloorAlbany House, 324/326 Regent Street","London","London","W1B 3HH","United Kingdom","7d3a05fcec65b4ff27ec7b879a27dfc9@domainprivacyprotector.com","+44.2071836619","","LCN Hostmaster","LCN.com Ltd","Units H, J, K, Gateway 1000, Whittle Way","Stevenage","Herts","SG1 2FP","United Kingdom","support@lcn.com","+44.1438532000","+44.1438300137","","","","","","","","","","","ns0.lcn.com","ns1.lcn.com","ns2.lcn.com","","clientDeleteProhibited","clientTransferProhibited","clientUpdateProhibited",""
"19","scamp.biz","2018-10-15 17:12:13","2018-10-11","2018-10-11","2023-10-11","602","LCN.COM Ltd.","whois.lcn.com","http://www.lcn.com","Domain Privacy Protector Ltd","Domain Privacy Protector Ltd","","","London","","United Kingdom","","","","","","","","","","","","","","","","","","","","","","","","","","","","","","","","","","ns0.lcn.com","ns1.lcn.com","ns2.lcn.com","","addPeriod","clientDeleteProhibited","clientTransferProhibited",""
"20","theombrebrow.com","2018-10-15 18:39:35","2018-10-14","2018-10-15","2019-10-14","602","LCN.COM Ltd.","whois.lcn.com","http://www.lcn.com","Private User","Domain Privacy Protector Ltd","Office 404, 4th FloorAlbany House, 324/326 Regent Street","London","London","W1B 3HH","United Kingdom","9a40fea048baf0f888ba826056167dab@domainprivacyprotector.com","+44.2071836619","","Private User","Domain Privacy Protector Ltd","Office 404, 4th FloorAlbany House, 324/326 Regent Street","London","London","W1B 3HH","United Kingdom","9a40fea048baf0f888ba826056167dab@domainprivacyprotector.com","+44.2071836619","","LCN Hostmaster","LCN.com Ltd","Units H, J, K, Gateway 1000, Whittle Way","Stevenage","Herts","SG1 2FP","United Kingdom","support@lcn.com","+44.1438532000","+44.1438300137","","","","","","","","","","","ns0.lcn.com","ns1.lcn.com","ns2.lcn.com","","clientDeleteProhibited","clientTransferProhibited","clientUpdateProhibited",""
"21","vervenutition.com","2018-10-15 16:37:53","2018-10-14","2018-10-15","2019-10-14","602","LCN.COM Ltd.","whois.lcn.com","http://www.lcn.com","Private User","Domain Privacy Protector Ltd","Office 404, 4th FloorAlbany House, 324/326 Regent Street","London","London","W1B 3HH","United Kingdom","3ffe59a030c611168cd36e2de50787fa@domainprivacyprotector.com","+44.2071836619","","Private User","Domain Privacy Protector Ltd","Office 404, 4th FloorAlbany House, 324/326 Regent Street","London","London","W1B 3HH","United Kingdom","3ffe59a030c611168cd36e2de50787fa@domainprivacyprotector.com","+44.2071836619","","LCN Hostmaster","LCN.com Ltd","Units H, J, K, Gateway 1000, Whittle Way","Stevenage","Herts","SG1 2FP","United Kingdom","support@lcn.com","+44.1438532000","+44.1438300137","","","","","","","","","","","ns0.lcn.com","ns1.lcn.com","ns2.lcn.com","","clientDeleteProhibited","clientTransferProhibited","clientUpdateProhibited",""
"22","weddingvenuesnorthernireland.com","2018-10-15 17:32:56","2018-10-14","2018-10-15","2019-10-14","602","LCN.COM Ltd.","whois.lcn.com","http://www.lcn.com","Private User","Domain Privacy Protector Ltd","Office 404, 4th FloorAlbany House, 324/326 Regent Street","London","London","W1B 3HH","United Kingdom","1a19f21b319fcf26672f6de4b0538852@domainprivacyprotector.com","+44.2071836619","","Private User","Domain Privacy Protector Ltd","Office 404, 4th FloorAlbany House, 324/326 Regent Street","London","London","W1B 3HH","United Kingdom","1a19f21b319fcf26672f6de4b0538852@domainprivacyprotector.com","+44.2071836619","","LCN Hostmaster","LCN.com Ltd","Units H, J, K, Gateway 1000, Whittle Way","Stevenage","Herts","SG1 2FP","United Kingdom","support@lcn.com","+44.1438532000","+44.1438300137","","","","","","","","","","","ns0.lcn.com","ns1.lcn.com","ns2.lcn.com","","clientDeleteProhibited","clientTransferProhibited","clientUpdateProhibited",""
"23","wesellfidgetspinners.com","2018-10-15 15:49:03","2018-10-14","2018-10-15","2019-10-14","602","LCN.COM Ltd.","whois.lcn.com","http://www.lcn.com","Private User","Domain Privacy Protector Ltd","Office 404, 4th FloorAlbany House, 324/326 Regent Street","London","London","W1B 3HH","United Kingdom","425e783ac82acc47a813f316b006d21a@domainprivacyprotector.com","+44.2071836619","","Private User","Domain Privacy Protector Ltd","Office 404, 4th FloorAlbany House, 324/326 Regent Street","London","London","W1B 3HH","United Kingdom","425e783ac82acc47a813f316b006d21a@domainprivacyprotector.com","+44.2071836619","","LCN Hostmaster","LCN.com Ltd","Units H, J, K, Gateway 1000, Whittle Way","Stevenage","Herts","SG1 2FP","United Kingdom","support@lcn.com","+44.1438532000","+44.1438300137","","","","","","","","","","","ns0.lcn.com","ns1.lcn.com","ns2.lcn.com","","clientDeleteProhibited","clientTransferProhibited","clientUpdateProhibited",""
"24","yeyem.com","2018-10-15 18:38:34","2018-10-14","2018-10-15","2019-10-14","602","LCN.COM Ltd.","whois.lcn.com","http://www.lcn.com","Private User","Domain Privacy Protector Ltd","Office 404, 4th FloorAlbany House, 324/326 Regent Street","London","London","W1B 3HH","United Kingdom","369b883831b0e253ca8a7a1eb9f2d4b5@domainprivacyprotector.com","+44.2071836619","","Private User","Domain Privacy Protector Ltd","Office 404, 4th FloorAlbany House, 324/326 Regent Street","London","London","W1B 3HH","United Kingdom","369b883831b0e253ca8a7a1eb9f2d4b5@domainprivacyprotector.com","+44.2071836619","","LCN Hostmaster","LCN.com Ltd","Units H, J, K, Gateway 1000, Whittle Way","Stevenage","Herts","SG1 2FP","United Kingdom","support@lcn.com","+44.1438532000","+44.1438300137","","","","","","","","","","","ns0.lcn.com","ns1.lcn.com","ns2.lcn.com","","clientDeleteProhibited","clientTransferProhibited","clientUpdateProhibited",""