"num","domain_name","query_time","create_date","update_date","expiry_date","domain_registrar_id","domain_registrar_name","domain_registrar_whois","domain_registrar_url","registrant_name","registrant_company","registrant_address","registrant_city","registrant_state","registrant_zip","registrant_country","registrant_email","registrant_phone","registrant_fax","administrative_name","administrative_company","administrative_address","administrative_city","administrative_state","administrative_zip","administrative_country","administrative_email","administrative_phone","administrative_fax","technical_name","technical_company","technical_address","technical_city","technical_state","technical_zip","technical_country","technical_email","technical_phone","technical_fax","billing_name","billing_company","billing_address","billing_city","billing_state","billing_zip","billing_country","billing_email","billing_phone","billing_fax","name_server_1","name_server_2","name_server_3","name_server_4","domain_status_1","domain_status_2","domain_status_3","domain_status_4"
"1","010ghotel.com","2018-10-15 16:00:34","2018-10-15","2018-10-15","2019-10-15","100","Whois Networks Co., Ltd.","whois.yesnic.com","http://www.yesnic.com","sin dong-chul","sin dong-chul","Bupyeong-gu Incheon  121","Majang-ro","","21385","Korea","dcsin45@naver.com","+82.27770280","","sin dong-chul","sin dong-chul","Bupyeong-gu Incheon  121","Majang-ro","","21385","Korea","dcsin45@naver.com","+82.27770280","","sin dong-chul","sin dong-chul","Bupyeong-gu Incheon  121","Majang-ro","","21385","Korea","dcsin45@naver.com","+82.27770280","","","","","","","","","","","","ns1.whoisdomain.kr","ns2.whoisdomain.kr","ns3.whoisdomain.kr","ns4.whoisdomain.kr","clientTransferProhibited","","",""
"2","010ghotels.com","2018-10-15 18:13:06","2018-10-15","2018-10-15","2019-10-15","100","Whois Networks Co., Ltd.","whois.yesnic.com","http://www.yesnic.com","sin dong-chul","sin dong-chul","Bupyeong-gu Incheon  121","Majang-ro","","21385","Korea","dcsin45@naver.com","+82.27770280","","sin dong-chul","sin dong-chul","Bupyeong-gu Incheon  121","Majang-ro","","21385","Korea","dcsin45@naver.com","+82.27770280","","sin dong-chul","sin dong-chul","Bupyeong-gu Incheon  121","Majang-ro","","21385","Korea","dcsin45@naver.com","+82.27770280","","","","","","","","","","","","ns1.whoisdomain.kr","ns2.whoisdomain.kr","ns3.whoisdomain.kr","ns4.whoisdomain.kr","clientTransferProhibited","","",""
"3","010gtour.com","2018-10-15 16:23:45","2018-10-15","2018-10-15","2019-10-15","100","Whois Networks Co., Ltd.","whois.yesnic.com","http://www.yesnic.com","sin dong-chul","sin dong-chul","Bupyeong-gu Incheon  121","Majang-ro","","21385","Korea","dcsin45@naver.com","+82.27770280","","sin dong-chul","sin dong-chul","Bupyeong-gu Incheon  121","Majang-ro","","21385","Korea","dcsin45@naver.com","+82.27770280","","sin dong-chul","sin dong-chul","Bupyeong-gu Incheon  121","Majang-ro","","21385","Korea","dcsin45@naver.com","+82.27770280","","","","","","","","","","","","ns1.whoisdomain.kr","ns2.whoisdomain.kr","ns3.whoisdomain.kr","ns4.whoisdomain.kr","clientTransferProhibited","","",""
"4","010gtours.com","2018-10-15 17:29:31","2018-10-15","2018-10-15","2019-10-15","100","Whois Networks Co., Ltd.","whois.yesnic.com","http://www.yesnic.com","sin dong-chul","sin dong-chul","Bupyeong-gu Incheon  121","Majang-ro","","21385","Korea","dcsin45@naver.com","+82.27770280","","sin dong-chul","sin dong-chul","Bupyeong-gu Incheon  121","Majang-ro","","21385","Korea","dcsin45@naver.com","+82.27770280","","sin dong-chul","sin dong-chul","Bupyeong-gu Incheon  121","Majang-ro","","21385","Korea","dcsin45@naver.com","+82.27770280","","","","","","","","","","","","ns1.whoisdomain.kr","ns2.whoisdomain.kr","ns3.whoisdomain.kr","ns4.whoisdomain.kr","clientTransferProhibited","","",""
"5","24myhome.com","2018-10-15 17:26:17","2018-10-15","2018-10-15","2019-10-15","100","Whois Networks Co., Ltd.","whois.yesnic.com","http://www.yesnic.com","Hanssem","Hanssem","179 Sangam-ro Gangdong-gu","Seoul","","05307","Korea","leesh1264@hanssem.com","+82.264704867","","Hanssem","Hanssem","179 Sangam-ro Gangdong-gu","Seoul","","05307","Korea","leesh1264@hanssem.com","+82.264704867","","Hanssem","Hanssem","179 Sangam-ro Gangdong-gu","Seoul","","05307","Korea","leesh1264@hanssem.com","+82.264704867","","","","","","","","","","","","ns.hanssem.com","ns2.hanssem.com","","","clientTransferProhibited","clientUpdateProhibited","",""
"6","5raksil.com","2018-10-15 16:07:23","2018-10-14","2018-10-14","2019-10-14","100","Whois Networks Co., Ltd.","whois.yesnic.com","http://www.yesnic.com","Whois Domain Admin.","Whois Domain Admin.","#1101 Daerung post tower 182-4 guro3dong guro gu","Seoul","","08378","Korea","admin@whoisblind.com","+82.215884259","+82.215884259","Whois Domain Admin.","Whois Domain Admin.","#1101 Daerung post tower 182-4 guro3dong guro gu","Seoul","","08378","Korea","admin@whoisblind.com","+82.215884259","+82.215884259","Whois Domain Admin.","Whois Domain Admin.","#1101 Daerung post tower 182-4 guro3dong guro gu","Seoul","","08378","Korea","admin@whoisblind.com","+82.215884259","+82.215884259","","","","","","","","","","","elle.ns.cloudflare.com","paul.ns.cloudflare.com","","","clientTransferProhibited","","",""
"7","affect-therapy.com","2018-10-15 18:13:11","2018-10-14","2018-10-14","2023-10-14","100","Whois Networks Co., Ltd.","whois.yesnic.com","http://www.yesnic.com","Whois Domain Admin.","Whois Domain Admin.","#1101 Daerung post tower 182-4 guro3dong guro gu","Seoul","","08378","Korea","admin@whoisblind.com","+82.215884259","+82.215884259","Whois Domain Admin.","Whois Domain Admin.","#1101 Daerung post tower 182-4 guro3dong guro gu","Seoul","","08378","Korea","admin@whoisblind.com","+82.215884259","+82.215884259","Whois Domain Admin.","Whois Domain Admin.","#1101 Daerung post tower 182-4 guro3dong guro gu","Seoul","","08378","Korea","admin@whoisblind.com","+82.215884259","+82.215884259","","","","","","","","","","","ns1.whoisdomain.kr","ns2.whoisdomain.kr","ns3.whoisdomain.kr","ns4.whoisdomain.kr","clientTransferProhibited","","",""
"8","beanfather.com","2018-10-15 17:26:26","2018-10-15","2018-10-15","2021-10-15","100","Whois Networks Co., Ltd.","whois.yesnic.com","http://www.yesnic.com","hwang inn taek","hwang inn taek","513 Yeongdong-daero  Gangnam-gu","Seoul","","06164","Korea","nphand@naver.com","+82.234786678","","hwang inn taek","hwang inn taek","513 Yeongdong-daero  Gangnam-gu","Seoul","","06164","Korea","nphand@naver.com","+82.234786678","","hwang inn taek","hwang inn taek","513 Yeongdong-daero  Gangnam-gu","Seoul","","06164","Korea","nphand@naver.com","+82.234786678","","","","","","","","","","","","ns1.whoisdomain.kr","ns2.whoisdomain.kr","ns3.whoisdomain.kr","ns4.whoisdomain.kr","clientTransferProhibited","","",""
"9","bikepassport.net","2018-10-15 18:29:46","2018-10-13","2018-10-13","2019-10-13","100","Whois Networks Co., Ltd.","whois.yesnic.com","http://www.yesnic.com","In-hyung Lee","In-hyung Lee","Ansan-si Gyeonggi-do Korea 565 Chungjang-ro","Sangnok-gu","","15287","Korea","ihlee61@gmail.com","+82.314855768","","In-hyung Lee","In-hyung Lee","Ansan-si Gyeonggi-do Korea 565 Chungjang-ro","Sangnok-gu","","15287","Korea","ihlee61@gmail.com","+82.314855768","","In-hyung Lee","In-hyung Lee","Ansan-si Gyeonggi-do Korea 565 Chungjang-ro","Sangnok-gu","","15287","Korea","ihlee61@gmail.com","+82.314855768","","","","","","","","","","","","ns1.whoisdomain.kr","ns2.whoisdomain.kr","ns3.whoisdomain.kr","ns4.whoisdomain.kr","clientTransferProhibited","","",""
"10","bitnet-info.com","2018-10-15 18:32:58","2018-10-14","2018-10-14","2021-10-14","100","Whois Networks Co., Ltd.","whois.yesnic.com","http://www.yesnic.com","bitnetworks","bitnetworks","203 Dangsan-ro Yeongdeungpo-gu  Seoul","Korea","","07213","Korea","plutocc@naver.com","+82.15884259","","bitnetworks","bitnetworks","203 Dangsan-ro Yeongdeungpo-gu  Seoul","Korea","","07213","Korea","plutocc@naver.com","+82.15884259","","bitnetworks","bitnetworks","203 Dangsan-ro Yeongdeungpo-gu  Seoul","Korea","","07213","Korea","plutocc@naver.com","+82.15884259","","","","","","","","","","","","ns1.whoisdomain.kr","ns2.whoisdomain.kr","ns3.whoisdomain.kr","ns4.whoisdomain.kr","clientTransferProhibited","","",""
"11","bondandi.com","2018-10-15 17:20:45","2018-10-15","2018-10-15","2019-10-15","100","Whois Networks Co., Ltd.","whois.yesnic.com","http://www.yesnic.com","kimchanghyun","kimchanghyun","Changwon-si Gyeongsangnam-do Korea 21  Bongambuk 7-gil","Masanhoewon-gu","","51347","Korea","bonsystems@naver.com","+82.555521562","","kimchanghyun","kimchanghyun","Changwon-si Gyeongsangnam-do Korea 21  Bongambuk 7-gil","Masanhoewon-gu","","51347","Korea","bonsystems@naver.com","+82.555521562","","kimchanghyun","kimchanghyun","Changwon-si Gyeongsangnam-do Korea 21  Bongambuk 7-gil","Masanhoewon-gu","","51347","Korea","bonsystems@naver.com","+82.555521562","","","","","","","","","","","","ns1.whoisdomain.kr","ns2.whoisdomain.kr","ns3.whoisdomain.kr","ns4.whoisdomain.kr","clientTransferProhibited","","",""
"12","brandincubationlab.com","2018-10-15 15:49:25","2018-10-15","2018-10-15","2021-10-15","100","Whois Networks Co., Ltd.","whois.yesnic.com","http://www.yesnic.com","Yoonna Choi","Yoonna Choi","302 Teheran-ro Gangnam-gu  Seoul","Korea","","06210","Korea","sikriti27@gmail.com","+82.25158013","","Yoonna Choi","Yoonna Choi","302 Teheran-ro Gangnam-gu  Seoul","Korea","","06210","Korea","sikriti27@gmail.com","+82.25158013","","Yoonna Choi","Yoonna Choi","302 Teheran-ro Gangnam-gu  Seoul","Korea","","06210","Korea","sikriti27@gmail.com","+82.25158013","","","","","","","","","","","","ns1.whoisdomain.kr","ns2.whoisdomain.kr","ns3.whoisdomain.kr","ns4.whoisdomain.kr","clientTransferProhibited","","",""
"13","carbonfiberlamp.com","2018-10-15 18:35:11","2018-10-15","2018-10-15","2019-10-15","100","Whois Networks Co., Ltd.","whois.yesnic.com","http://www.yesnic.com","Whois Domain Admin.","Whois Domain Admin.","#1101 Daerung post tower 182-4 guro3dong guro gu","Seoul","","08378","Korea","admin@whoisblind.com","+82.215884259","+82.215884259","Whois Domain Admin.","Whois Domain Admin.","#1101 Daerung post tower 182-4 guro3dong guro gu","Seoul","","08378","Korea","admin@whoisblind.com","+82.215884259","+82.215884259","Whois Domain Admin.","Whois Domain Admin.","#1101 Daerung post tower 182-4 guro3dong guro gu","Seoul","","08378","Korea","admin@whoisblind.com","+82.215884259","+82.215884259","","","","","","","","","","","ns1.cafe24.co.kr","ns1.cafe24.com","ns2.cafe24.co.kr","ns2.cafe24.com","clientTransferProhibited","","",""
"14","coccomon.com","2018-10-15 16:34:32","2018-10-15","2018-10-15","2019-10-15","100","Whois Networks Co., Ltd.","whois.yesnic.com","http://www.yesnic.com","seohyun Jeong","seohyun Jeong","106 Dongsubuk-ro Bupyeong-gu  Incheon","Korea","","21408","Korea","seohyun6308@gmail.com","+82.15884259","","seohyun Jeong","seohyun Jeong","106 Dongsubuk-ro Bupyeong-gu  Incheon","Korea","","21408","Korea","seohyun6308@gmail.com","+82.15884259","","seohyun Jeong","seohyun Jeong","106 Dongsubuk-ro Bupyeong-gu  Incheon","Korea","","21408","Korea","seohyun6308@gmail.com","+82.15884259","","","","","","","","","","","","dns1.yesnic.com","dns2.yesnic.com","dns3.yesnic.com","dns4.yesnic.com","clientTransferProhibited","","",""
"15","crypto-wicked.com","2018-10-15 18:16:21","2018-10-14","2018-10-14","2020-10-14","100","Whois Networks Co., Ltd.","whois.yesnic.com","http://www.yesnic.com","Whois Domain Admin.","Whois Domain Admin.","#1101 Daerung post tower 182-4 guro3dong guro gu","Seoul","","08378","Korea","admin@whoisblind.com","+82.215884259","+82.215884259","Whois Domain Admin.","Whois Domain Admin.","#1101 Daerung post tower 182-4 guro3dong guro gu","Seoul","","08378","Korea","admin@whoisblind.com","+82.215884259","+82.215884259","Whois Domain Admin.","Whois Domain Admin.","#1101 Daerung post tower 182-4 guro3dong guro gu","Seoul","","08378","Korea","admin@whoisblind.com","+82.215884259","+82.215884259","","","","","","","","","","","ns1.whoisdomain.kr","ns2.whoisdomain.kr","ns3.whoisdomain.kr","ns4.whoisdomain.kr","clientTransferProhibited","","",""
"16","doowonums.com","2018-10-15 15:48:45","2018-10-14","2018-10-14","2020-10-14","100","Whois Networks Co., Ltd.","whois.yesnic.com","http://www.yesnic.com","kim sun jun","kim sun jun","7 Dolma-ro 486beon-gil Bundang-gu  Seongnam-si Gyeonggi-do","Korea","","13586","Korea","cavink@naver.com","+82.15884259","","kim sun jun","kim sun jun","7 Dolma-ro 486beon-gil Bundang-gu  Seongnam-si Gyeonggi-do","Korea","","13586","Korea","cavink@naver.com","+82.15884259","","kim sun jun","kim sun jun","7 Dolma-ro 486beon-gil Bundang-gu  Seongnam-si Gyeonggi-do","Korea","","13586","Korea","cavink@naver.com","+82.15884259","","","","","","","","","","","","ns1.whoisdomain.kr","ns2.whoisdomain.kr","ns3.whoisdomain.kr","ns4.whoisdomain.kr","clientTransferProhibited","","",""
"17","easy-slow-life.com","2018-10-15 16:56:36","2018-10-14","2018-10-14","2019-10-14","100","Whois Networks Co., Ltd.","whois.yesnic.com","http://www.yesnic.com","kim mi seon","kim mi seon","#1101 Daeryung Post Tower 3-cha Guro 3(sam)-dong Guro-gu","Seoul","","04315","Korea","milovesunz@naver.com","+82.15884259","","kim mi seon","kim mi seon","#1101 Daeryung Post Tower 3-cha Guro 3(sam)-dong Guro-gu","Seoul","","04315","Korea","milovesunz@naver.com","+82.15884259","","kim mi seon","kim mi seon","#1101 Daeryung Post Tower 3-cha Guro 3(sam)-dong Guro-gu","Seoul","","04315","Korea","milovesunz@naver.com","+82.15884259","","","","","","","","","","","","ns1.whoisdomain.kr","ns2.whoisdomain.kr","ns3.whoisdomain.kr","ns4.whoisdomain.kr","clientTransferProhibited","","",""
"18","ecobluekorea.com","2018-10-15 17:18:10","2018-10-15","2018-10-15","2021-10-15","100","Whois Networks Co., Ltd.","whois.yesnic.com","http://www.yesnic.com","Lim Seung Mook","Lim Seung Mook","16 Dowon-ro Jochiwon-eup  Sejong-si","Korea","","30039","Korea","sssgr@daum.net","+82.15884259","","Lim Seung Mook","Lim Seung Mook","16 Dowon-ro Jochiwon-eup  Sejong-si","Korea","","30039","Korea","sssgr@daum.net","+82.15884259","","Lim Seung Mook","Lim Seung Mook","16 Dowon-ro Jochiwon-eup  Sejong-si","Korea","","30039","Korea","sssgr@daum.net","+82.15884259","","","","","","","","","","","","dns1.yesnic.com","dns2.yesnic.com","dns3.yesnic.com","dns4.yesnic.com","clientTransferProhibited","","",""
"19","englishlo.com","2018-10-15 15:55:13","2018-10-14","2018-10-14","2021-10-14","100","Whois Networks Co., Ltd.","whois.yesnic.com","http://www.yesnic.com","Whois Domain Admin.","Whois Domain Admin.","#1101 Daerung post tower 182-4 guro3dong guro gu","Seoul","","08378","Korea","admin@whoisblind.com","+82.215884259","+82.215884259","Whois Domain Admin.","Whois Domain Admin.","#1101 Daerung post tower 182-4 guro3dong guro gu","Seoul","","08378","Korea","admin@whoisblind.com","+82.215884259","+82.215884259","Whois Domain Admin.","Whois Domain Admin.","#1101 Daerung post tower 182-4 guro3dong guro gu","Seoul","","08378","Korea","admin@whoisblind.com","+82.215884259","+82.215884259","","","","","","","","","","","ns1.whoisdomain.kr","ns2.whoisdomain.kr","ns3.whoisdomain.kr","ns4.whoisdomain.kr","clientTransferProhibited","","",""
"20","exactequipment.net","2018-10-15 18:00:36","2018-10-14","2018-10-14","2021-10-14","100","Whois Networks Co., Ltd.","whois.yesnic.com","http://www.yesnic.com","Kim Cheoul Young","Kim Cheoul Young","Dongtanwoncheon-ro 1109beon-gil Yeongtong-gu Suwon-si Gyeonggi-do Korea","37","","16527","Korea","exe.prometheus@gmail.com","+82.1031603460","","Kim Cheoul Young","Kim Cheoul Young","Dongtanwoncheon-ro 1109beon-gil Yeongtong-gu Suwon-si Gyeonggi-do Korea","37","","16527","Korea","exe.prometheus@gmail.com","+82.1031603460","","Kim Cheoul Young","Kim Cheoul Young","Dongtanwoncheon-ro 1109beon-gil Yeongtong-gu Suwon-si Gyeonggi-do Korea","37","","16527","Korea","exe.prometheus@gmail.com","+82.1031603460","","","","","","","","","","","","ns1.whoisdomain.kr","ns2.whoisdomain.kr","ns3.whoisdomain.kr","ns4.whoisdomain.kr","clientTransferProhibited","","",""
"21","g1stshop.com","2018-10-15 17:38:13","2018-10-15","2018-10-15","2021-10-15","100","Whois Networks Co., Ltd.","whois.yesnic.com","http://www.yesnic.com","Jun-Oh Lim","Jun-Oh Lim","Seoul Korea 409  Teheran-ro","Gangnam-gu","","06162","Korea","junohwin@naver.com","+82.7075501619","","Jun-Oh Lim","Jun-Oh Lim","Seoul Korea 409  Teheran-ro","Gangnam-gu","","06162","Korea","junohwin@naver.com","+82.7075501619","","Jun-Oh Lim","Jun-Oh Lim","Seoul Korea 409  Teheran-ro","Gangnam-gu","","06162","Korea","junohwin@naver.com","+82.7075501619","","","","","","","","","","","","ns1.whoisdomain.kr","ns2.whoisdomain.kr","ns3.whoisdomain.kr","ns4.whoisdomain.kr","clientTransferProhibited","","",""
"22","gimimall.com","2018-10-15 16:20:10","2018-10-15","2018-10-15","2019-10-15","100","Whois Networks Co., Ltd.","whois.yesnic.com","http://www.yesnic.com","Kim Seong Han","Kim Seong Han","30 Sesil-ro Haeundae-gu  Busan","Korea","","48110","Korea","doctorks@hanmail.net","+82.15884259","","Kim Seong Han","Kim Seong Han","30 Sesil-ro Haeundae-gu  Busan","Korea","","48110","Korea","doctorks@hanmail.net","+82.15884259","","Kim Seong Han","Kim Seong Han","30 Sesil-ro Haeundae-gu  Busan","Korea","","48110","Korea","doctorks@hanmail.net","+82.15884259","","","","","","","","","","","","ns1.whoisdomain.kr","ns2.whoisdomain.kr","ns3.whoisdomain.kr","ns4.whoisdomain.kr","clientTransferProhibited","","",""
"23","giminara.com","2018-10-15 17:27:11","2018-10-15","2018-10-15","2019-10-15","100","Whois Networks Co., Ltd.","whois.yesnic.com","http://www.yesnic.com","Kim Seong Han","Kim Seong Han","30 Sesil-ro Haeundae-gu  Busan","Korea","","48110","Korea","doctorks@hanmail.net","+82.15884259","","Kim Seong Han","Kim Seong Han","30 Sesil-ro Haeundae-gu  Busan","Korea","","48110","Korea","doctorks@hanmail.net","+82.15884259","","Kim Seong Han","Kim Seong Han","30 Sesil-ro Haeundae-gu  Busan","Korea","","48110","Korea","doctorks@hanmail.net","+82.15884259","","","","","","","","","","","","ns1.whoisdomain.kr","ns2.whoisdomain.kr","ns3.whoisdomain.kr","ns4.whoisdomain.kr","clientTransferProhibited","","",""
"24","holicos.com","2018-10-15 15:46:38","2018-10-15","2018-10-15","2020-10-15","100","Whois Networks Co., Ltd.","whois.yesnic.com","http://www.yesnic.com","kim eun jin","kim eun jin","#1101 Daeryung Post Tower 3-cha Guro 3(sam)-dong Guro-gu","Seoul","","06018","Korea","k243000@naver.com","+82.15884259","","kim eun jin","kim eun jin","#1101 Daeryung Post Tower 3-cha Guro 3(sam)-dong Guro-gu","Seoul","","06018","Korea","k243000@naver.com","+82.15884259","","kim eun jin","kim eun jin","#1101 Daeryung Post Tower 3-cha Guro 3(sam)-dong Guro-gu","Seoul","","06018","Korea","k243000@naver.com","+82.15884259","","","","","","","","","","","","ns1.whoisdomain.kr","ns2.whoisdomain.kr","ns3.whoisdomain.kr","ns4.whoisdomain.kr","clientTransferProhibited","","",""
"25","hpci.biz","2018-10-15 17:20:36","2018-10-11","","2028-10-11","100","Whois Networks Co., Ltd.","whois.yesnic.com","http://www.yesnic.com","NEDEC CO., LTD.","NEDEC CO., LTD.","119-12 Dunjeon-ri Pogog-eup Cheoin-gu Youngin-si","kyunggi-do","","449-812","Korea","gem21@nedec.com","+82.313343101","+82.313336863","NEDEC CO., LTD.","NEDEC CO., LTD.","119-12 Dunjeon-ri Pogog-eup Cheoin-gu Youngin-si","kyunggi-do","","449-812","Korea","gem21@nedec.com","+82.313343101","+82.313336863","whois co.,ltd","whois co.,ltd","2Fl Seobuk BD 740-3 Yeoksam-dong Gangnam-gu Seoul","KOREA","","135-080","Korea","whois@whois.co.kr","+8225574259","+8223252259","","","","","","","","","","","ns1.whoisdomain.kr","ns2.whoisdomain.kr","ns3.whoisdomain.kr","ns4.whoisdomain.kr","addPeriod","ok","",""
"26","laazzi.com","2018-10-15 17:05:42","2018-10-14","2018-10-14","2020-10-14","100","Whois Networks Co., Ltd.","whois.yesnic.com","http://www.yesnic.com","laazzi","laazzi","6-3 Dongho-ro 15-gil  Jung-gu Seoul","Korea","","04604","Korea","andn.youhyun@gmail.com","+82.1054440030","","laazzi","laazzi","6-3 Dongho-ro 15-gil  Jung-gu Seoul","Korea","","04604","Korea","andn.youhyun@gmail.com","+82.1054440030","","laazzi","laazzi","6-3 Dongho-ro 15-gil  Jung-gu Seoul","Korea","","04604","Korea","andn.youhyun@gmail.com","+82.1054440030","","","","","","","","","","","","ns-1368.awsdns-43.org","ns-1823.awsdns-35.co.uk","ns-275.awsdns-34.com","ns-733.awsdns-27.net","clientTransferProhibited","","",""
"27","lenerblanc.com","2018-10-15 17:36:00","2018-10-15","2018-10-15","2020-10-15","100","Whois Networks Co., Ltd.","whois.yesnic.com","http://www.yesnic.com","kim eun jin","kim eun jin","#1101 Daeryung Post Tower 3-cha Guro 3(sam)-dong Guro-gu","Seoul","","06018","Korea","k243000@naver.com","+82.15884259","","kim eun jin","kim eun jin","#1101 Daeryung Post Tower 3-cha Guro 3(sam)-dong Guro-gu","Seoul","","06018","Korea","k243000@naver.com","+82.15884259","","kim eun jin","kim eun jin","#1101 Daeryung Post Tower 3-cha Guro 3(sam)-dong Guro-gu","Seoul","","06018","Korea","k243000@naver.com","+82.15884259","","","","","","","","","","","","ns1.whoisdomain.kr","ns2.whoisdomain.kr","ns3.whoisdomain.kr","ns4.whoisdomain.kr","clientTransferProhibited","","",""
"28","mamamembers.com","2018-10-15 16:38:31","2018-10-14","2018-10-14","2021-10-14","100","Whois Networks Co., Ltd.","whois.yesnic.com","http://www.yesnic.com","Kim Jung woung","Kim Jung woung","141 Hanbora 2-ro Giheung-gu  Yongin-si Gyeonggi-do","Korea","","17083","Korea","enable73@gmail.com","+82.15884259","","Kim Jung woung","Kim Jung woung","141 Hanbora 2-ro Giheung-gu  Yongin-si Gyeonggi-do","Korea","","17083","Korea","enable73@gmail.com","+82.15884259","","Kim Jung woung","Kim Jung woung","141 Hanbora 2-ro Giheung-gu  Yongin-si Gyeonggi-do","Korea","","17083","Korea","enable73@gmail.com","+82.15884259","","","","","","","","","","","","ns1.whoisdomain.kr","ns2.whoisdomain.kr","ns3.whoisdomain.kr","ns4.whoisdomain.kr","clientTransferProhibited","","",""
"29","mtsncompany.com","2018-10-15 18:03:06","2018-10-15","2018-10-15","2021-10-15","100","Whois Networks Co., Ltd.","whois.yesnic.com","http://www.yesnic.com","MTS","MTS","166 Imae-ro Bundang-gu  Seongnam-si Gyeonggi-do","Korea","","13571","Korea","adorable0201@naver.com","+82.21111111","","MTS","MTS","166 Imae-ro Bundang-gu  Seongnam-si Gyeonggi-do","Korea","","13571","Korea","adorable0201@naver.com","+82.21111111","","MTS","MTS","166 Imae-ro Bundang-gu  Seongnam-si Gyeonggi-do","Korea","","13571","Korea","adorable0201@naver.com","+82.21111111","","","","","","","","","","","","ns.gabia.co.kr","ns.gabia.net","ns1.gabia.co.kr","","clientTransferProhibited","","",""
"30","naeid.com","2018-10-15 16:03:30","2018-10-14","2018-10-14","2021-10-14","100","Whois Networks Co., Ltd.","whois.yesnic.com","http://www.yesnic.com","Sung-Tae Park","Sung-Tae Park","35 Jukjeon-ro 193beon-gil Suji-gu  Yongin-si Gyeonggi-do Korea 1205ho","105dong","","16883","Korea","pst@zeronsys.com","+82.312652988","","Sung-Tae Park","Sung-Tae Park","35 Jukjeon-ro 193beon-gil Suji-gu  Yongin-si Gyeonggi-do Korea 1205ho","105dong","","16883","Korea","pst@zeronsys.com","+82.312652988","","Sung-Tae Park","Sung-Tae Park","35 Jukjeon-ro 193beon-gil Suji-gu  Yongin-si Gyeonggi-do Korea 1205ho","105dong","","16883","Korea","pst@zeronsys.com","+82.312652988","","","","","","","","","","","","ns1.whoisdomain.kr","ns2.whoisdomain.kr","ns3.whoisdomain.kr","ns4.whoisdomain.kr","clientTransferProhibited","","",""
"31","nature-studios.com","2018-10-15 18:03:22","2018-10-15","2018-10-15","2020-10-15","100","Whois Networks Co., Ltd.","whois.yesnic.com","http://www.yesnic.com","LEEMINWOO","LEEMINWOO","Seoul Korea 22  Macheon-ro","Songpa-gu","","05646","Korea","theviii@naver.com","+82.15884259","","LEEMINWOO","LEEMINWOO","Seoul Korea 22  Macheon-ro","Songpa-gu","","05646","Korea","theviii@naver.com","+82.15884259","","LEEMINWOO","LEEMINWOO","Seoul Korea 22  Macheon-ro","Songpa-gu","","05646","Korea","theviii@naver.com","+82.15884259","","","","","","","","","","","","ns1.whoisdomain.kr","ns2.whoisdomain.kr","ns3.whoisdomain.kr","ns4.whoisdomain.kr","clientTransferProhibited","","",""
"32","onlymhbh.com","2018-10-15 16:11:40","2018-10-14","2018-10-14","2019-10-14","100","Whois Networks Co., Ltd.","whois.yesnic.com","http://www.yesnic.com","Whois Domain Admin.","Whois Domain Admin.","#1101 Daerung post tower 182-4 guro3dong guro gu","Seoul","","08378","Korea","admin@whoisblind.com","+82.215884259","+82.215884259","Whois Domain Admin.","Whois Domain Admin.","#1101 Daerung post tower 182-4 guro3dong guro gu","Seoul","","08378","Korea","admin@whoisblind.com","+82.215884259","+82.215884259","Whois Domain Admin.","Whois Domain Admin.","#1101 Daerung post tower 182-4 guro3dong guro gu","Seoul","","08378","Korea","admin@whoisblind.com","+82.215884259","+82.215884259","","","","","","","","","","","ns1.whoisdomain.kr","ns2.whoisdomain.kr","ns3.whoisdomain.kr","ns4.whoisdomain.kr","clientTransferProhibited","","",""
"33","passioneasy.com","2018-10-15 17:50:35","2018-10-14","2018-10-14","2021-10-14","100","Whois Networks Co., Ltd.","whois.yesnic.com","http://www.yesnic.com","Aiden Yang","Aiden Yang","25 Irwon-ro 14-gil  Gangnam-gu Seoul","Korea","","06356","Korea","scentblue@naver.com","+82.15884259","","Aiden Yang","Aiden Yang","25 Irwon-ro 14-gil  Gangnam-gu Seoul","Korea","","06356","Korea","scentblue@naver.com","+82.15884259","","Aiden Yang","Aiden Yang","25 Irwon-ro 14-gil  Gangnam-gu Seoul","Korea","","06356","Korea","scentblue@naver.com","+82.15884259","","","","","","","","","","","","ns1.whoisdomain.kr","ns2.whoisdomain.kr","ns3.whoisdomain.kr","ns4.whoisdomain.kr","clientTransferProhibited","","",""
"34","realcoin.center","2018-10-15 17:20:17","2018-10-14","2018-10-14","2019-10-14","100","Whois Networks Co., Ltd.","whois.yesnic.com","http://www.yesnic.com","Brian Oh","Brian Oh","30, Yeonwon 9-gil, Sangju-si, Gyeongsangbuk-do, Korea #2108 Purnaim","Gyeongsangbuk-do","","37162","Korea","ohsion@gmail.com","+82.5059885555","","Brian Oh","","30, Yeonwon 9-gil, Sangju-si, Gyeongsangbuk-do, Korea #2108 Purnaim","Gyeongsangbuk-do","","730-914","Korea","ohsion@gmail.com","+82.5059885555","","Brian Oh","","30, Yeonwon 9-gil, Sangju-si, Gyeongsangbuk-do, Korea #2108 Purnaim","Gyeongsangbuk-do","","","Korea","ohsion@gmail.com","+82.5059885555","","","","","","","","","","","","","","","","addPeriod","clientTransferProhibited","",""
"35","siktong.com","2018-10-15 15:57:58","2018-10-15","2018-10-15","2021-10-15","100","Whois Networks Co., Ltd.","whois.yesnic.com","http://www.yesnic.com","MediaTomato","MediaTomato","Mapo-gu Seoul Korea 32 Yanghwajin","4-gil","","04084","Korea","tomatopay_bs@etomato.com","+82.221283810","","MediaTomato","MediaTomato","Mapo-gu Seoul Korea 32 Yanghwajin","4-gil","","04084","Korea","tomatopay_bs@etomato.com","+82.221283810","","MediaTomato","MediaTomato","Mapo-gu Seoul Korea 32 Yanghwajin","4-gil","","04084","Korea","tomatopay_bs@etomato.com","+82.221283810","","","","","","","","","","","","ns1.whoisdomain.kr","ns2.whoisdomain.kr","ns3.whoisdomain.kr","ns4.whoisdomain.kr","clientTransferProhibited","","",""
"36","speeedmotor.com","2018-10-15 17:21:16","2018-10-15","2018-10-15","2019-10-15","100","Whois Networks Co., Ltd.","whois.yesnic.com","http://www.yesnic.com","speedmotor","speedmotor","24 Wonpogongwon 2-ro Danwon-gu  Ansan-si Gyeonggi-do","Korea","","15457","Korea","seungc4508@gmail.com","+82.314175999","","speedmotor","speedmotor","24 Wonpogongwon 2-ro Danwon-gu  Ansan-si Gyeonggi-do","Korea","","15457","Korea","seungc4508@gmail.com","+82.314175999","","speedmotor","speedmotor","24 Wonpogongwon 2-ro Danwon-gu  Ansan-si Gyeonggi-do","Korea","","15457","Korea","seungc4508@gmail.com","+82.314175999","","","","","","","","","","","","ns1.hidc.co.kr","ns2.hidc.co.kr","","","clientTransferProhibited","","",""
"37","ssugistyle.com","2018-10-15 16:11:13","2018-10-15","2018-10-15","2021-10-15","100","Whois Networks Co., Ltd.","whois.yesnic.com","http://www.yesnic.com","Yoonwoo Kim","Yoonwoo Kim","#1101 Daeryung Post Tower 3-cha Guro 3(sam)-dong Guro-gu","Seoul","","13552","Korea","holliokim@naver.com","+82.15884259","","Yoonwoo Kim","Yoonwoo Kim","#1101 Daeryung Post Tower 3-cha Guro 3(sam)-dong Guro-gu","Seoul","","13552","Korea","holliokim@naver.com","+82.15884259","","Yoonwoo Kim","Yoonwoo Kim","#1101 Daeryung Post Tower 3-cha Guro 3(sam)-dong Guro-gu","Seoul","","13552","Korea","holliokim@naver.com","+82.15884259","","","","","","","","","","","","ns1.whoisdomain.kr","ns2.whoisdomain.kr","ns3.whoisdomain.kr","ns4.whoisdomain.kr","clientTransferProhibited","","",""
"38","teterubebe.com","2018-10-15 16:17:42","2018-10-14","2018-10-15","2019-10-14","100","Whois Networks Co., Ltd.","whois.yesnic.com","http://www.yesnic.com","sunny kim","sunny kim","#1101 Daeryung Post Tower 3-cha Guro 3(sam)-dong Guro-gu","Seoul","","04561","Korea","sun7shop@naver.com","+82.15884259","","sunny kim","sunny kim","#1101 Daeryung Post Tower 3-cha Guro 3(sam)-dong Guro-gu","Seoul","","04561","Korea","sun7shop@naver.com","+82.15884259","","sunny kim","sunny kim","#1101 Daeryung Post Tower 3-cha Guro 3(sam)-dong Guro-gu","Seoul","","04561","Korea","sun7shop@naver.com","+82.15884259","","","","","","","","","","","","ns1.whoisdomain.kr","ns2.whoisdomain.kr","ns3.whoisdomain.kr","ns4.whoisdomain.kr","clientTransferProhibited","","",""
"39","torytoy.com","2018-10-15 17:14:18","2018-10-14","2018-10-14","2019-10-14","100","Whois Networks Co., Ltd.","whois.yesnic.com","http://www.yesnic.com","Whois Domain Admin.","Whois Domain Admin.","#1101 Daerung post tower 182-4 guro3dong guro gu","Seoul","","08378","Korea","admin@whoisblind.com","+82.215884259","+82.215884259","Whois Domain Admin.","Whois Domain Admin.","#1101 Daerung post tower 182-4 guro3dong guro gu","Seoul","","08378","Korea","admin@whoisblind.com","+82.215884259","+82.215884259","Whois Domain Admin.","Whois Domain Admin.","#1101 Daerung post tower 182-4 guro3dong guro gu","Seoul","","08378","Korea","admin@whoisblind.com","+82.215884259","+82.215884259","","","","","","","","","","","dns1.yesnic.com","dns2.yesnic.com","dns3.yesnic.com","dns4.yesnic.com","clientTransferProhibited","","",""
"40","tov.center","2018-10-15 17:57:48","2018-10-14","2018-10-14","2019-10-14","100","Whois Networks Co., Ltd.","whois.yesnic.com","http://www.yesnic.com","YongHo Choi","YongHo Choi","12-8 Shibashimmachi Sepiahouse-Shimmachi 101","Kawaguchi-shi","Saitama","333-0851","Japan","coh2002@naver.com","+81.8067445554","","YongHo Choi","YongHo Choi","12-8 Shibashimmachi Sepiahouse-Shimmachi 101","Kawaguchi-shi","Saitama","333-0851","Japan","coh2002@naver.com","+81.8067445554","","YongHo Choi","YongHo Choi","12-8 Shibashimmachi Sepiahouse-Shimmachi 101","Kawaguchi-shi","Saitama","333-0851","Japan","coh2002@naver.com","+81.8067445554","","","","","","","","","","","","","","","","addPeriod","clientTransferProhibited","",""
"41","treenamu.com","2018-10-15 17:23:14","2018-10-14","2018-10-14","2019-10-14","100","Whois Networks Co., Ltd.","whois.yesnic.com","http://www.yesnic.com","kim jae woo","kim jae woo","446 Geomdan-ro Seo-gu  Incheon","Korea","","22636","Korea","kjwdesign@naver.com","+82.15884259","","kim jae woo","kim jae woo","446 Geomdan-ro Seo-gu  Incheon","Korea","","22636","Korea","kjwdesign@naver.com","+82.15884259","","kim jae woo","kim jae woo","446 Geomdan-ro Seo-gu  Incheon","Korea","","22636","Korea","kjwdesign@naver.com","+82.15884259","","","","","","","","","","","","ns1.whoisdomain.kr","ns2.whoisdomain.kr","ns3.whoisdomain.kr","ns4.whoisdomain.kr","clientTransferProhibited","","",""
"42","uandleesome.com","2018-10-15 17:26:52","2018-10-11","2018-10-14","2019-10-11","100","Whois Networks Co., Ltd.","whois.yesnic.com","http://www.yesnic.com","Whois Domain Admin.","Whois Domain Admin.","#1101 Daerung post tower 182-4 guro3dong guro gu","Seoul","","08378","Korea","admin@whoisblind.com","+82.215884259","+82.215884259","Whois Domain Admin.","Whois Domain Admin.","#1101 Daerung post tower 182-4 guro3dong guro gu","Seoul","","08378","Korea","admin@whoisblind.com","+82.215884259","+82.215884259","Whois Domain Admin.","Whois Domain Admin.","#1101 Daerung post tower 182-4 guro3dong guro gu","Seoul","","08378","Korea","admin@whoisblind.com","+82.215884259","+82.215884259","","","","","","","","","","","ns1.cafe24.co.kr","ns1.cafe24.com","","","clientTransferProhibited","","",""
"43","webcococa.com","2018-10-15 18:15:19","2018-10-15","2018-10-15","2021-10-15","100","Whois Networks Co., Ltd.","whois.yesnic.com","http://www.yesnic.com","oneware.inc","oneware.inc","Jeongjail-ro Bundang-gu Seongnam-si Gyeonggi-do","248","","13554","Korea","oneware@oneware.co.kr","+82.3180397500","","oneware.inc","oneware.inc","Jeongjail-ro Bundang-gu Seongnam-si Gyeonggi-do","248","","13554","Korea","oneware@oneware.co.kr","+82.3180397500","","oneware.inc","oneware.inc","Jeongjail-ro Bundang-gu Seongnam-si Gyeonggi-do","248","","13554","Korea","oneware@oneware.co.kr","+82.3180397500","","","","","","","","","","","","ns1.whoisdomain.kr","ns2.whoisdomain.kr","ns3.whoisdomain.kr","ns4.whoisdomain.kr","clientTransferProhibited","","",""
"44","xn--010-7189-8114-v691cux0hjre606c.com","2018-10-15 17:12:07","2018-10-14","2018-10-14","2019-10-14","100","Whois Networks Co., Ltd.","whois.yesnic.com","http://www.yesnic.com","Lee DongHwan","Lee DongHwan","876 51 Seongnam-daero Bundang-gu Seongnam-si Gyeonggi-do","Room","","13636","Korea","land8114@naver.com","+82.312167114","","Lee DongHwan","Lee DongHwan","876 51 Seongnam-daero Bundang-gu Seongnam-si Gyeonggi-do","Room","","13636","Korea","land8114@naver.com","+82.312167114","","Lee DongHwan","Lee DongHwan","876 51 Seongnam-daero Bundang-gu Seongnam-si Gyeonggi-do","Room","","13636","Korea","land8114@naver.com","+82.312167114","","","","","","","","","","","","ns1.whoisdomain.kr","ns2.whoisdomain.kr","ns3.whoisdomain.kr","ns4.whoisdomain.kr","clientTransferProhibited","","",""
"45","xn--299am6jllz23av3dpuin2gforlgg.com","2018-10-15 17:29:37","2018-10-14","2018-10-14","2019-10-14","100","Whois Networks Co., Ltd.","whois.yesnic.com","http://www.yesnic.com","Lee DongHwan","Lee DongHwan","876 51 Seongnam-daero Bundang-gu Seongnam-si Gyeonggi-do","Room","","13636","Korea","land8114@naver.com","+82.312167114","","Lee DongHwan","Lee DongHwan","876 51 Seongnam-daero Bundang-gu Seongnam-si Gyeonggi-do","Room","","13636","Korea","land8114@naver.com","+82.312167114","","Lee DongHwan","Lee DongHwan","876 51 Seongnam-daero Bundang-gu Seongnam-si Gyeonggi-do","Room","","13636","Korea","land8114@naver.com","+82.312167114","","","","","","","","","","","","ns1.whoisdomain.kr","ns2.whoisdomain.kr","ns3.whoisdomain.kr","ns4.whoisdomain.kr","clientTransferProhibited","","",""
"46","xn--2e0b47q88h36aq9h.com","2018-10-15 18:32:03","2018-10-15","2018-10-15","2021-10-15","100","Whois Networks Co., Ltd.","whois.yesnic.com","http://www.yesnic.com","slablab","slablab","817 Jeonggwan-ro Jeonggwan-eup  Gijang-gun Busan","Korea","","46020","Korea","lastella0524@naver.com","+82.517284353","","slablab","slablab","817 Jeonggwan-ro Jeonggwan-eup  Gijang-gun Busan","Korea","","46020","Korea","lastella0524@naver.com","+82.517284353","","slablab","slablab","817 Jeonggwan-ro Jeonggwan-eup  Gijang-gun Busan","Korea","","46020","Korea","lastella0524@naver.com","+82.517284353","","","","","","","","","","","","ns1.whoisdomain.kr","ns2.whoisdomain.kr","ns3.whoisdomain.kr","ns4.whoisdomain.kr","clientTransferProhibited","","",""
"47","xn--439azqy32c.com","2018-10-15 15:50:16","2018-10-14","2018-10-14","2020-10-14","100","Whois Networks Co., Ltd.","whois.yesnic.com","http://www.yesnic.com","Jihyunson","Jihyunson","#1101 Daeryung Post Tower 3-cha Guro 3(sam)-dong Guro-gu","Seoul","","06012","Korea","pro0200@naver.com","+82.15884259","","Jihyunson","Jihyunson","#1101 Daeryung Post Tower 3-cha Guro 3(sam)-dong Guro-gu","Seoul","","06012","Korea","pro0200@naver.com","+82.15884259","","Jihyunson","Jihyunson","#1101 Daeryung Post Tower 3-cha Guro 3(sam)-dong Guro-gu","Seoul","","06012","Korea","pro0200@naver.com","+82.15884259","","","","","","","","","","","","ns1.whoisdomain.kr","ns2.whoisdomain.kr","ns3.whoisdomain.kr","ns4.whoisdomain.kr","clientTransferProhibited","","",""
"48","xn--bj4bl7fncx92bsuam7u9wc.com","2018-10-15 16:26:34","2018-10-14","2018-10-15","2019-10-14","100","Whois Networks Co., Ltd.","whois.yesnic.com","http://www.yesnic.com","Jo joung won","Jo joung won","#1101 Daeryung Post Tower 3-cha Guro 3(sam)-dong Guro-gu","Seoul","","37728","Korea","kakaoad@naver.com","+82.15884259","","Jo joung won","Jo joung won","#1101 Daeryung Post Tower 3-cha Guro 3(sam)-dong Guro-gu","Seoul","","37728","Korea","kakaoad@naver.com","+82.15884259","","Jo joung won","Jo joung won","#1101 Daeryung Post Tower 3-cha Guro 3(sam)-dong Guro-gu","Seoul","","37728","Korea","kakaoad@naver.com","+82.15884259","","","","","","","","","","","","ns1.whoisdomain.kr","ns2.whoisdomain.kr","ns3.whoisdomain.kr","ns4.whoisdomain.kr","clientTransferProhibited","","",""
"49","xn--o39a00aba023jejc2u4a.com","2018-10-15 17:45:52","2018-10-15","2018-10-15","2019-10-15","100","Whois Networks Co., Ltd.","whois.yesnic.com","http://www.yesnic.com","GAGUDAEWONG","GAGUDAEWONG","17 Solarae-gil Paju-si  Gyeonggi-do","Korea","","10911","Korea","huwood1@naver.com","+82.329460302","","GAGUDAEWONG","GAGUDAEWONG","17 Solarae-gil Paju-si  Gyeonggi-do","Korea","","10911","Korea","huwood1@naver.com","+82.329460302","","GAGUDAEWONG","GAGUDAEWONG","17 Solarae-gil Paju-si  Gyeonggi-do","Korea","","10911","Korea","huwood1@naver.com","+82.329460302","","","","","","","","","","","","ns1.whoisdomain.kr","ns2.whoisdomain.kr","ns3.whoisdomain.kr","ns4.whoisdomain.kr","clientTransferProhibited","","",""
"50","xn--o39a00aba023jejco46d.com","2018-10-15 18:30:31","2018-10-15","2018-10-15","2019-10-15","100","Whois Networks Co., Ltd.","whois.yesnic.com","http://www.yesnic.com","GAGUDAEWONG","GAGUDAEWONG","17 Solarae-gil Paju-si  Gyeonggi-do","Korea","","10911","Korea","huwood1@naver.com","+82.329460302","","GAGUDAEWONG","GAGUDAEWONG","17 Solarae-gil Paju-si  Gyeonggi-do","Korea","","10911","Korea","huwood1@naver.com","+82.329460302","","GAGUDAEWONG","GAGUDAEWONG","17 Solarae-gil Paju-si  Gyeonggi-do","Korea","","10911","Korea","huwood1@naver.com","+82.329460302","","","","","","","","","","","","ns1.whoisdomain.kr","ns2.whoisdomain.kr","ns3.whoisdomain.kr","ns4.whoisdomain.kr","clientTransferProhibited","","",""
"51","xn--s39an61adterva.com","2018-10-15 18:01:06","2018-10-15","2018-10-15","2020-10-15","100","Whois Networks Co., Ltd.","whois.yesnic.com","http://www.yesnic.com","choi youngho","choi youngho","752 Dongil-ro  Jungnang-gu","Seoul","","02095","Korea","dr0149@naver.com","+82.1097810149","","choi youngho","choi youngho","752 Dongil-ro  Jungnang-gu","Seoul","","02095","Korea","dr0149@naver.com","+82.1097810149","","choi youngho","choi youngho","752 Dongil-ro  Jungnang-gu","Seoul","","02095","Korea","dr0149@naver.com","+82.1097810149","","","","","","","","","","","","dns1.yesnic.com","dns2.yesnic.com","dns3.yesnic.com","dns4.yesnic.com","clientTransferProhibited","","",""
"52","xn--v42bn4af9sttb.com","2018-10-15 17:54:01","2018-10-15","2018-10-15","2021-10-15","100","Whois Networks Co., Ltd.","whois.yesnic.com","http://www.yesnic.com","acele","acele","418 Sinheung-ro Bucheon-si  Gyeonggi-do","Korea","","14452","Korea","rubyled@naver.com","+82.326688447","","acele","acele","418 Sinheung-ro Bucheon-si  Gyeonggi-do","Korea","","14452","Korea","rubyled@naver.com","+82.326688447","","acele","acele","418 Sinheung-ro Bucheon-si  Gyeonggi-do","Korea","","14452","Korea","rubyled@naver.com","+82.326688447","","","","","","","","","","","","dns1.yesnic.com","dns2.yesnic.com","dns3.yesnic.com","dns4.yesnic.com","clientTransferProhibited","","",""
"53","xn--w39a1pt60dsjcv9gg2p.com","2018-10-15 16:54:39","2018-10-14","2018-10-14","2020-10-14","100","Whois Networks Co., Ltd.","whois.yesnic.com","http://www.yesnic.com","junggalhanchangoyang","junggalhanchangoyang","7-1 Jungsan-ro 157beon-gil Ilsandong-gu  Goyang-si Gyeonggi-do","Korea","","10338","Korea","j_kakaz@naver.com","+82.1097463326","","junggalhanchangoyang","junggalhanchangoyang","7-1 Jungsan-ro 157beon-gil Ilsandong-gu  Goyang-si Gyeonggi-do","Korea","","10338","Korea","j_kakaz@naver.com","+82.1097463326","","junggalhanchangoyang","junggalhanchangoyang","7-1 Jungsan-ro 157beon-gil Ilsandong-gu  Goyang-si Gyeonggi-do","Korea","","10338","Korea","j_kakaz@naver.com","+82.1097463326","","","","","","","","","","","","ns1.whoisdomain.kr","ns2.whoisdomain.kr","ns3.whoisdomain.kr","ns4.whoisdomain.kr","clientTransferProhibited","","",""
"54","yjnero.com","2018-10-15 16:17:33","2018-10-15","2018-10-15","2020-10-15","100","Whois Networks Co., Ltd.","whois.yesnic.com","http://www.yesnic.com","yeonjunero","yeonjunero","5 Bonghyeon-ro Jinjeop-eup  Namyangju-si Gyeonggi-do","Korea","","12016","Korea","c-yeonju@naver.com","+82.15884259","","yeonjunero","yeonjunero","5 Bonghyeon-ro Jinjeop-eup  Namyangju-si Gyeonggi-do","Korea","","12016","Korea","c-yeonju@naver.com","+82.15884259","","yeonjunero","yeonjunero","5 Bonghyeon-ro Jinjeop-eup  Namyangju-si Gyeonggi-do","Korea","","12016","Korea","c-yeonju@naver.com","+82.15884259","","","","","","","","","","","","dns1.yesnic.com","dns2.yesnic.com","dns3.yesnic.com","dns4.yesnic.com","clientTransferProhibited","","",""
"55","yolo-pay.com","2018-10-15 16:45:33","2018-10-14","2018-10-14","2019-10-14","100","Whois Networks Co., Ltd.","whois.yesnic.com","http://www.yesnic.com","CODYLOCKS CO.,LTD","CODYLOCKS CO.,LTD","15 Seolleung-ro 93-gil  Gangnam-gu Seoul","Korea","","06150","Korea","lee_em@naver.com","+82.25568456","","CODYLOCKS CO.,LTD","CODYLOCKS CO.,LTD","15 Seolleung-ro 93-gil  Gangnam-gu Seoul","Korea","","06150","Korea","lee_em@naver.com","+82.25568456","","CODYLOCKS CO.,LTD","CODYLOCKS CO.,LTD","15 Seolleung-ro 93-gil  Gangnam-gu Seoul","Korea","","06150","Korea","lee_em@naver.com","+82.25568456","","","","","","","","","","","","ns1.whoisdomain.kr","ns2.whoisdomain.kr","ns3.whoisdomain.kr","ns4.whoisdomain.kr","clientTransferProhibited","","",""
"56","ziranzihwa.com","2018-10-15 18:10:24","2018-10-14","2018-10-14","2019-10-14","100","Whois Networks Co., Ltd.","whois.yesnic.com","http://www.yesnic.com","Yu Ju, Lee","Yu Ju, Lee","9 Huiujeong-ro 21-gil  Mapo-gu Seoul","Korea","","04006","Korea","somincsm@naver.com","+82.263263356","","Yu Ju, Lee","Yu Ju, Lee","9 Huiujeong-ro 21-gil  Mapo-gu Seoul","Korea","","04006","Korea","somincsm@naver.com","+82.263263356","","Yu Ju, Lee","Yu Ju, Lee","9 Huiujeong-ro 21-gil  Mapo-gu Seoul","Korea","","04006","Korea","somincsm@naver.com","+82.263263356","","","","","","","","","","","","ns1.whoisdomain.kr","ns2.whoisdomain.kr","ns3.whoisdomain.kr","ns4.whoisdomain.kr","clientTransferProhibited","","",""